8

0 1 1 2 2 3 3 4 
1 0 2 1 3 2 4 3 
1 2 0 1 1 2 2 3 
2 1 1 0 2 1 3 2 
2 3 1 2 0 1 1 2 
3 2 2 1 1 0 2 1 
3 4 2 3 1 2 0 1 
4 3 3 2 2 1 1 0 

0 0 4 0 0 0 0 15 
0 0 0 3 0 10 0 0 
4 0 0 0 0 0 0 11 
0 3 0 0 0 0 16 0 
0 0 0 0 0 0 0 0 
0 10 0 0 0 0 0 0 
0 0 0 16 0 0 0 0 
15 0 11 0 0 0 0 0 
