36 9 4
0 22 9
0 32 12
1 33 13
2 32 9
3 32 11
3 26 7
3 17 16
4 25 2
5 33 2
6 12 10
6 7 17
6 35 11
7 29 7
7 6 9
7 28 5
7 31 16
8 33 14
8 19 20
9 12 20
9 10 14
9 19 16
10 9 4
12 6 3
12 9 6
12 13 19
13 12 4
13 17 10
14 20 11
15 27 14
17 13 5
17 3 8
18 23 3
19 8 11
19 9 5
19 21 2
20 14 8
21 19 1
22 0 11
22 25 14
22 27 16
23 18 4
23 25 17
24 35 20
24 32 7
24 34 12
25 23 4
25 4 6
25 22 11
25 26 15
26 3 15
26 25 11
27 15 20
27 22 12
28 7 11
29 7 11
31 7 10
32 2 7
32 3 10
32 24 5
32 0 3
33 1 10
33 5 6
33 8 10
34 24 17
35 24 7
35 6 16
