36

0 1 2 3 1 2 3 4 2 3 4 5 3 4 5 6 4 5 6 7 5 6 7 8 6 7 8 9 7 8 9 10 8 9 10 11 
1 0 1 2 2 1 2 3 3 2 3 4 4 3 4 5 5 4 5 6 6 5 6 7 7 6 7 8 8 7 8 9 9 8 9 10 
2 1 0 1 3 2 1 2 4 3 2 3 5 4 3 4 6 5 4 5 7 6 5 6 8 7 6 7 9 8 7 8 10 9 8 9 
3 2 1 0 4 3 2 1 5 4 3 2 6 5 4 3 7 6 5 4 8 7 6 5 9 8 7 6 10 9 8 7 11 10 9 8 
1 2 3 4 0 1 2 3 1 2 3 4 2 3 4 5 3 4 5 6 4 5 6 7 5 6 7 8 6 7 8 9 7 8 9 10 
2 1 2 3 1 0 1 2 2 1 2 3 3 2 3 4 4 3 4 5 5 4 5 6 6 5 6 7 7 6 7 8 8 7 8 9 
3 2 1 2 2 1 0 1 3 2 1 2 4 3 2 3 5 4 3 4 6 5 4 5 7 6 5 6 8 7 6 7 9 8 7 8 
4 3 2 1 3 2 1 0 4 3 2 1 5 4 3 2 6 5 4 3 7 6 5 4 8 7 6 5 9 8 7 6 10 9 8 7 
2 3 4 5 1 2 3 4 0 1 2 3 1 2 3 4 2 3 4 5 3 4 5 6 4 5 6 7 5 6 7 8 6 7 8 9 
3 2 3 4 2 1 2 3 1 0 1 2 2 1 2 3 3 2 3 4 4 3 4 5 5 4 5 6 6 5 6 7 7 6 7 8 
4 3 2 3 3 2 1 2 2 1 0 1 3 2 1 2 4 3 2 3 5 4 3 4 6 5 4 5 7 6 5 6 8 7 6 7 
5 4 3 2 4 3 2 1 3 2 1 0 4 3 2 1 5 4 3 2 6 5 4 3 7 6 5 4 8 7 6 5 9 8 7 6 
3 4 5 6 2 3 4 5 1 2 3 4 0 1 2 3 1 2 3 4 2 3 4 5 3 4 5 6 4 5 6 7 5 6 7 8 
4 3 4 5 3 2 3 4 2 1 2 3 1 0 1 2 2 1 2 3 3 2 3 4 4 3 4 5 5 4 5 6 6 5 6 7 
5 4 3 4 4 3 2 3 3 2 1 2 2 1 0 1 3 2 1 2 4 3 2 3 5 4 3 4 6 5 4 5 7 6 5 6 
6 5 4 3 5 4 3 2 4 3 2 1 3 2 1 0 4 3 2 1 5 4 3 2 6 5 4 3 7 6 5 4 8 7 6 5 
4 5 6 7 3 4 5 6 2 3 4 5 1 2 3 4 0 1 2 3 1 2 3 4 2 3 4 5 3 4 5 6 4 5 6 7 
5 4 5 6 4 3 4 5 3 2 3 4 2 1 2 3 1 0 1 2 2 1 2 3 3 2 3 4 4 3 4 5 5 4 5 6 
6 5 4 5 5 4 3 4 4 3 2 3 3 2 1 2 2 1 0 1 3 2 1 2 4 3 2 3 5 4 3 4 6 5 4 5 
7 6 5 4 6 5 4 3 5 4 3 2 4 3 2 1 3 2 1 0 4 3 2 1 5 4 3 2 6 5 4 3 7 6 5 4 
5 6 7 8 4 5 6 7 3 4 5 6 2 3 4 5 1 2 3 4 0 1 2 3 1 2 3 4 2 3 4 5 3 4 5 6 
6 5 6 7 5 4 5 6 4 3 4 5 3 2 3 4 2 1 2 3 1 0 1 2 2 1 2 3 3 2 3 4 4 3 4 5 
7 6 5 6 6 5 4 5 5 4 3 4 4 3 2 3 3 2 1 2 2 1 0 1 3 2 1 2 4 3 2 3 5 4 3 4 
8 7 6 5 7 6 5 4 6 5 4 3 5 4 3 2 4 3 2 1 3 2 1 0 4 3 2 1 5 4 3 2 6 5 4 3 
6 7 8 9 5 6 7 8 4 5 6 7 3 4 5 6 2 3 4 5 1 2 3 4 0 1 2 3 1 2 3 4 2 3 4 5 
7 6 7 8 6 5 6 7 5 4 5 6 4 3 4 5 3 2 3 4 2 1 2 3 1 0 1 2 2 1 2 3 3 2 3 4 
8 7 6 7 7 6 5 6 6 5 4 5 5 4 3 4 4 3 2 3 3 2 1 2 2 1 0 1 3 2 1 2 4 3 2 3 
9 8 7 6 8 7 6 5 7 6 5 4 6 5 4 3 5 4 3 2 4 3 2 1 3 2 1 0 4 3 2 1 5 4 3 2 
7 8 9 10 6 7 8 9 5 6 7 8 4 5 6 7 3 4 5 6 2 3 4 5 1 2 3 4 0 1 2 3 1 2 3 4 
8 7 8 9 7 6 7 8 6 5 6 7 5 4 5 6 4 3 4 5 3 2 3 4 2 1 2 3 1 0 1 2 2 1 2 3 
9 8 7 8 8 7 6 7 7 6 5 6 6 5 4 5 5 4 3 4 4 3 2 3 3 2 1 2 2 1 0 1 3 2 1 2 
10 9 8 7 9 8 7 6 8 7 6 5 7 6 5 4 6 5 4 3 5 4 3 2 4 3 2 1 3 2 1 0 4 3 2 1 
8 9 10 11 7 8 9 10 6 7 8 9 5 6 7 8 4 5 6 7 3 4 5 6 2 3 4 5 1 2 3 4 0 1 2 3 
9 8 9 10 8 7 8 9 7 6 7 8 6 5 6 7 5 4 5 6 4 3 4 5 3 2 3 4 2 1 2 3 1 0 1 2 
10 9 8 9 9 8 7 8 8 7 6 7 7 6 5 6 6 5 4 5 5 4 3 4 4 3 2 3 3 2 1 2 2 1 0 1 
11 10 9 8 10 9 8 7 9 8 7 6 8 7 6 5 7 6 5 4 6 5 4 3 5 4 3 2 4 3 2 1 3 2 1 0 

0 0 0 0 0 0 0 0 0 0 0 0 0 0 0 0 0 0 0 0 0 0 11 0 0 0 0 0 0 0 0 0 3 0 0 0 
0 0 0 0 0 0 0 0 0 0 0 0 0 0 0 0 0 0 0 0 0 0 0 0 0 0 0 0 0 0 0 0 0 10 0 0 
0 0 0 0 0 0 0 0 0 0 0 0 0 0 0 0 0 0 0 0 0 0 0 0 0 0 0 0 0 0 0 0 7 0 0 0 
0 0 0 0 0 0 0 0 0 0 0 0 0 0 0 0 0 8 0 0 0 0 0 0 0 0 15 0 0 0 0 0 10 0 0 0 
0 0 0 0 0 0 0 0 0 0 0 0 0 0 0 0 0 0 0 0 0 0 0 0 0 6 0 0 0 0 0 0 0 0 0 0 
0 0 0 0 0 0 0 0 0 0 0 0 0 0 0 0 0 0 0 0 0 0 0 0 0 0 0 0 0 0 0 0 0 6 0 0 
0 0 0 0 0 0 0 9 0 0 0 0 3 0 0 0 0 0 0 0 0 0 0 0 0 0 0 0 0 0 0 0 0 0 0 16 
0 0 0 0 0 0 9 0 0 0 0 0 0 0 0 0 0 0 0 0 0 0 0 0 0 0 0 0 11 11 0 10 0 0 0 0 
0 0 0 0 0 0 0 0 0 0 0 0 0 0 0 0 0 0 0 11 0 0 0 0 0 0 0 0 0 0 0 0 0 10 0 0 
0 0 0 0 0 0 0 0 0 0 4 0 6 0 0 0 0 0 0 5 0 0 0 0 0 0 0 0 0 0 0 0 0 0 0 0 
0 0 0 0 0 0 0 0 0 4 0 0 0 0 0 0 0 0 0 0 0 0 0 0 0 0 0 0 0 0 0 0 0 0 0 0 
0 0 0 0 0 0 0 0 0 0 0 0 0 0 0 0 0 0 0 0 0 0 0 0 0 0 0 0 0 0 0 0 0 0 0 0 
0 0 0 0 0 0 3 0 0 6 0 0 0 4 0 0 0 0 0 0 0 0 0 0 0 0 0 0 0 0 0 0 0 0 0 0 
0 0 0 0 0 0 0 0 0 0 0 0 4 0 0 0 0 5 0 0 0 0 0 0 0 0 0 0 0 0 0 0 0 0 0 0 
0 0 0 0 0 0 0 0 0 0 0 0 0 0 0 0 0 0 0 0 8 0 0 0 0 0 0 0 0 0 0 0 0 0 0 0 
0 0 0 0 0 0 0 0 0 0 0 0 0 0 0 0 0 0 0 0 0 0 0 0 0 0 0 20 0 0 0 0 0 0 0 0 
0 0 0 0 0 0 0 0 0 0 0 0 0 0 0 0 0 0 0 0 0 0 0 0 0 0 0 0 0 0 0 0 0 0 0 0 
0 0 0 8 0 0 0 0 0 0 0 0 0 5 0 0 0 0 0 0 0 0 0 0 0 0 0 0 0 0 0 0 0 0 0 0 
0 0 0 0 0 0 0 0 0 0 0 0 0 0 0 0 0 0 0 0 0 0 0 4 0 0 0 0 0 0 0 0 0 0 0 0 
0 0 0 0 0 0 0 0 11 5 0 0 0 0 0 0 0 0 0 0 0 1 0 0 0 0 0 0 0 0 0 0 0 0 0 0 
0 0 0 0 0 0 0 0 0 0 0 0 0 0 8 0 0 0 0 0 0 0 0 0 0 0 0 0 0 0 0 0 0 0 0 0 
0 0 0 0 0 0 0 0 0 0 0 0 0 0 0 0 0 0 0 1 0 0 0 0 0 0 0 0 0 0 0 0 0 0 0 0 
11 0 0 0 0 0 0 0 0 0 0 0 0 0 0 0 0 0 0 0 0 0 0 0 0 11 0 12 0 0 0 0 0 0 0 0 
0 0 0 0 0 0 0 0 0 0 0 0 0 0 0 0 0 0 4 0 0 0 0 0 0 4 0 0 0 0 0 0 0 0 0 0 
0 0 0 0 0 0 0 0 0 0 0 0 0 0 0 0 0 0 0 0 0 0 0 0 0 0 0 0 0 0 0 0 5 0 17 7 
0 0 0 0 6 0 0 0 0 0 0 0 0 0 0 0 0 0 0 0 0 0 11 4 0 0 11 0 0 0 0 0 0 0 0 0 
0 0 0 15 0 0 0 0 0 0 0 0 0 0 0 0 0 0 0 0 0 0 0 0 0 11 0 0 0 0 0 0 0 0 0 0 
0 0 0 0 0 0 0 0 0 0 0 0 0 0 0 20 0 0 0 0 0 0 12 0 0 0 0 0 0 0 0 0 0 0 0 0 
0 0 0 0 0 0 0 11 0 0 0 0 0 0 0 0 0 0 0 0 0 0 0 0 0 0 0 0 0 0 0 0 0 0 0 0 
0 0 0 0 0 0 0 11 0 0 0 0 0 0 0 0 0 0 0 0 0 0 0 0 0 0 0 0 0 0 0 0 0 0 0 0 
0 0 0 0 0 0 0 0 0 0 0 0 0 0 0 0 0 0 0 0 0 0 0 0 0 0 0 0 0 0 0 0 0 0 0 0 
0 0 0 0 0 0 0 10 0 0 0 0 0 0 0 0 0 0 0 0 0 0 0 0 0 0 0 0 0 0 0 0 0 0 0 0 
3 0 7 10 0 0 0 0 0 0 0 0 0 0 0 0 0 0 0 0 0 0 0 0 5 0 0 0 0 0 0 0 0 0 0 0 
0 10 0 0 0 6 0 0 10 0 0 0 0 0 0 0 0 0 0 0 0 0 0 0 0 0 0 0 0 0 0 0 0 0 0 0 
0 0 0 0 0 0 0 0 0 0 0 0 0 0 0 0 0 0 0 0 0 0 0 0 17 0 0 0 0 0 0 0 0 0 0 0 
0 0 0 0 0 0 16 0 0 0 0 0 0 0 0 0 0 0 0 0 0 0 0 0 7 0 0 0 0 0 0 0 0 0 0 0 
