144

0 1 2 3 4 5 6 7 8 9 10 11 12 13 14 15 16 17 1 2 3 4 5 6 7 8 9 10 11 12 13 14 15 16 17 18 2 3 4 5 6 7 8 9 10 11 12 13 14 15 16 17 18 19 3 4 5 6 7 8 9 10 11 12 13 14 15 16 17 18 19 20 4 5 6 7 8 9 10 11 12 13 14 15 16 17 18 19 20 21 5 6 7 8 9 10 11 12 13 14 15 16 17 18 19 20 21 22 6 7 8 9 10 11 12 13 14 15 16 17 18 19 20 21 22 23 7 8 9 10 11 12 13 14 15 16 17 18 19 20 21 22 23 24 
1 0 1 2 3 4 5 6 7 8 9 10 11 12 13 14 15 16 2 1 2 3 4 5 6 7 8 9 10 11 12 13 14 15 16 17 3 2 3 4 5 6 7 8 9 10 11 12 13 14 15 16 17 18 4 3 4 5 6 7 8 9 10 11 12 13 14 15 16 17 18 19 5 4 5 6 7 8 9 10 11 12 13 14 15 16 17 18 19 20 6 5 6 7 8 9 10 11 12 13 14 15 16 17 18 19 20 21 7 6 7 8 9 10 11 12 13 14 15 16 17 18 19 20 21 22 8 7 8 9 10 11 12 13 14 15 16 17 18 19 20 21 22 23 
2 1 0 1 2 3 4 5 6 7 8 9 10 11 12 13 14 15 3 2 1 2 3 4 5 6 7 8 9 10 11 12 13 14 15 16 4 3 2 3 4 5 6 7 8 9 10 11 12 13 14 15 16 17 5 4 3 4 5 6 7 8 9 10 11 12 13 14 15 16 17 18 6 5 4 5 6 7 8 9 10 11 12 13 14 15 16 17 18 19 7 6 5 6 7 8 9 10 11 12 13 14 15 16 17 18 19 20 8 7 6 7 8 9 10 11 12 13 14 15 16 17 18 19 20 21 9 8 7 8 9 10 11 12 13 14 15 16 17 18 19 20 21 22 
3 2 1 0 1 2 3 4 5 6 7 8 9 10 11 12 13 14 4 3 2 1 2 3 4 5 6 7 8 9 10 11 12 13 14 15 5 4 3 2 3 4 5 6 7 8 9 10 11 12 13 14 15 16 6 5 4 3 4 5 6 7 8 9 10 11 12 13 14 15 16 17 7 6 5 4 5 6 7 8 9 10 11 12 13 14 15 16 17 18 8 7 6 5 6 7 8 9 10 11 12 13 14 15 16 17 18 19 9 8 7 6 7 8 9 10 11 12 13 14 15 16 17 18 19 20 10 9 8 7 8 9 10 11 12 13 14 15 16 17 18 19 20 21 
4 3 2 1 0 1 2 3 4 5 6 7 8 9 10 11 12 13 5 4 3 2 1 2 3 4 5 6 7 8 9 10 11 12 13 14 6 5 4 3 2 3 4 5 6 7 8 9 10 11 12 13 14 15 7 6 5 4 3 4 5 6 7 8 9 10 11 12 13 14 15 16 8 7 6 5 4 5 6 7 8 9 10 11 12 13 14 15 16 17 9 8 7 6 5 6 7 8 9 10 11 12 13 14 15 16 17 18 10 9 8 7 6 7 8 9 10 11 12 13 14 15 16 17 18 19 11 10 9 8 7 8 9 10 11 12 13 14 15 16 17 18 19 20 
5 4 3 2 1 0 1 2 3 4 5 6 7 8 9 10 11 12 6 5 4 3 2 1 2 3 4 5 6 7 8 9 10 11 12 13 7 6 5 4 3 2 3 4 5 6 7 8 9 10 11 12 13 14 8 7 6 5 4 3 4 5 6 7 8 9 10 11 12 13 14 15 9 8 7 6 5 4 5 6 7 8 9 10 11 12 13 14 15 16 10 9 8 7 6 5 6 7 8 9 10 11 12 13 14 15 16 17 11 10 9 8 7 6 7 8 9 10 11 12 13 14 15 16 17 18 12 11 10 9 8 7 8 9 10 11 12 13 14 15 16 17 18 19 
6 5 4 3 2 1 0 1 2 3 4 5 6 7 8 9 10 11 7 6 5 4 3 2 1 2 3 4 5 6 7 8 9 10 11 12 8 7 6 5 4 3 2 3 4 5 6 7 8 9 10 11 12 13 9 8 7 6 5 4 3 4 5 6 7 8 9 10 11 12 13 14 10 9 8 7 6 5 4 5 6 7 8 9 10 11 12 13 14 15 11 10 9 8 7 6 5 6 7 8 9 10 11 12 13 14 15 16 12 11 10 9 8 7 6 7 8 9 10 11 12 13 14 15 16 17 13 12 11 10 9 8 7 8 9 10 11 12 13 14 15 16 17 18 
7 6 5 4 3 2 1 0 1 2 3 4 5 6 7 8 9 10 8 7 6 5 4 3 2 1 2 3 4 5 6 7 8 9 10 11 9 8 7 6 5 4 3 2 3 4 5 6 7 8 9 10 11 12 10 9 8 7 6 5 4 3 4 5 6 7 8 9 10 11 12 13 11 10 9 8 7 6 5 4 5 6 7 8 9 10 11 12 13 14 12 11 10 9 8 7 6 5 6 7 8 9 10 11 12 13 14 15 13 12 11 10 9 8 7 6 7 8 9 10 11 12 13 14 15 16 14 13 12 11 10 9 8 7 8 9 10 11 12 13 14 15 16 17 
8 7 6 5 4 3 2 1 0 1 2 3 4 5 6 7 8 9 9 8 7 6 5 4 3 2 1 2 3 4 5 6 7 8 9 10 10 9 8 7 6 5 4 3 2 3 4 5 6 7 8 9 10 11 11 10 9 8 7 6 5 4 3 4 5 6 7 8 9 10 11 12 12 11 10 9 8 7 6 5 4 5 6 7 8 9 10 11 12 13 13 12 11 10 9 8 7 6 5 6 7 8 9 10 11 12 13 14 14 13 12 11 10 9 8 7 6 7 8 9 10 11 12 13 14 15 15 14 13 12 11 10 9 8 7 8 9 10 11 12 13 14 15 16 
9 8 7 6 5 4 3 2 1 0 1 2 3 4 5 6 7 8 10 9 8 7 6 5 4 3 2 1 2 3 4 5 6 7 8 9 11 10 9 8 7 6 5 4 3 2 3 4 5 6 7 8 9 10 12 11 10 9 8 7 6 5 4 3 4 5 6 7 8 9 10 11 13 12 11 10 9 8 7 6 5 4 5 6 7 8 9 10 11 12 14 13 12 11 10 9 8 7 6 5 6 7 8 9 10 11 12 13 15 14 13 12 11 10 9 8 7 6 7 8 9 10 11 12 13 14 16 15 14 13 12 11 10 9 8 7 8 9 10 11 12 13 14 15 
10 9 8 7 6 5 4 3 2 1 0 1 2 3 4 5 6 7 11 10 9 8 7 6 5 4 3 2 1 2 3 4 5 6 7 8 12 11 10 9 8 7 6 5 4 3 2 3 4 5 6 7 8 9 13 12 11 10 9 8 7 6 5 4 3 4 5 6 7 8 9 10 14 13 12 11 10 9 8 7 6 5 4 5 6 7 8 9 10 11 15 14 13 12 11 10 9 8 7 6 5 6 7 8 9 10 11 12 16 15 14 13 12 11 10 9 8 7 6 7 8 9 10 11 12 13 17 16 15 14 13 12 11 10 9 8 7 8 9 10 11 12 13 14 
11 10 9 8 7 6 5 4 3 2 1 0 1 2 3 4 5 6 12 11 10 9 8 7 6 5 4 3 2 1 2 3 4 5 6 7 13 12 11 10 9 8 7 6 5 4 3 2 3 4 5 6 7 8 14 13 12 11 10 9 8 7 6 5 4 3 4 5 6 7 8 9 15 14 13 12 11 10 9 8 7 6 5 4 5 6 7 8 9 10 16 15 14 13 12 11 10 9 8 7 6 5 6 7 8 9 10 11 17 16 15 14 13 12 11 10 9 8 7 6 7 8 9 10 11 12 18 17 16 15 14 13 12 11 10 9 8 7 8 9 10 11 12 13 
12 11 10 9 8 7 6 5 4 3 2 1 0 1 2 3 4 5 13 12 11 10 9 8 7 6 5 4 3 2 1 2 3 4 5 6 14 13 12 11 10 9 8 7 6 5 4 3 2 3 4 5 6 7 15 14 13 12 11 10 9 8 7 6 5 4 3 4 5 6 7 8 16 15 14 13 12 11 10 9 8 7 6 5 4 5 6 7 8 9 17 16 15 14 13 12 11 10 9 8 7 6 5 6 7 8 9 10 18 17 16 15 14 13 12 11 10 9 8 7 6 7 8 9 10 11 19 18 17 16 15 14 13 12 11 10 9 8 7 8 9 10 11 12 
13 12 11 10 9 8 7 6 5 4 3 2 1 0 1 2 3 4 14 13 12 11 10 9 8 7 6 5 4 3 2 1 2 3 4 5 15 14 13 12 11 10 9 8 7 6 5 4 3 2 3 4 5 6 16 15 14 13 12 11 10 9 8 7 6 5 4 3 4 5 6 7 17 16 15 14 13 12 11 10 9 8 7 6 5 4 5 6 7 8 18 17 16 15 14 13 12 11 10 9 8 7 6 5 6 7 8 9 19 18 17 16 15 14 13 12 11 10 9 8 7 6 7 8 9 10 20 19 18 17 16 15 14 13 12 11 10 9 8 7 8 9 10 11 
14 13 12 11 10 9 8 7 6 5 4 3 2 1 0 1 2 3 15 14 13 12 11 10 9 8 7 6 5 4 3 2 1 2 3 4 16 15 14 13 12 11 10 9 8 7 6 5 4 3 2 3 4 5 17 16 15 14 13 12 11 10 9 8 7 6 5 4 3 4 5 6 18 17 16 15 14 13 12 11 10 9 8 7 6 5 4 5 6 7 19 18 17 16 15 14 13 12 11 10 9 8 7 6 5 6 7 8 20 19 18 17 16 15 14 13 12 11 10 9 8 7 6 7 8 9 21 20 19 18 17 16 15 14 13 12 11 10 9 8 7 8 9 10 
15 14 13 12 11 10 9 8 7 6 5 4 3 2 1 0 1 2 16 15 14 13 12 11 10 9 8 7 6 5 4 3 2 1 2 3 17 16 15 14 13 12 11 10 9 8 7 6 5 4 3 2 3 4 18 17 16 15 14 13 12 11 10 9 8 7 6 5 4 3 4 5 19 18 17 16 15 14 13 12 11 10 9 8 7 6 5 4 5 6 20 19 18 17 16 15 14 13 12 11 10 9 8 7 6 5 6 7 21 20 19 18 17 16 15 14 13 12 11 10 9 8 7 6 7 8 22 21 20 19 18 17 16 15 14 13 12 11 10 9 8 7 8 9 
16 15 14 13 12 11 10 9 8 7 6 5 4 3 2 1 0 1 17 16 15 14 13 12 11 10 9 8 7 6 5 4 3 2 1 2 18 17 16 15 14 13 12 11 10 9 8 7 6 5 4 3 2 3 19 18 17 16 15 14 13 12 11 10 9 8 7 6 5 4 3 4 20 19 18 17 16 15 14 13 12 11 10 9 8 7 6 5 4 5 21 20 19 18 17 16 15 14 13 12 11 10 9 8 7 6 5 6 22 21 20 19 18 17 16 15 14 13 12 11 10 9 8 7 6 7 23 22 21 20 19 18 17 16 15 14 13 12 11 10 9 8 7 8 
17 16 15 14 13 12 11 10 9 8 7 6 5 4 3 2 1 0 18 17 16 15 14 13 12 11 10 9 8 7 6 5 4 3 2 1 19 18 17 16 15 14 13 12 11 10 9 8 7 6 5 4 3 2 20 19 18 17 16 15 14 13 12 11 10 9 8 7 6 5 4 3 21 20 19 18 17 16 15 14 13 12 11 10 9 8 7 6 5 4 22 21 20 19 18 17 16 15 14 13 12 11 10 9 8 7 6 5 23 22 21 20 19 18 17 16 15 14 13 12 11 10 9 8 7 6 24 23 22 21 20 19 18 17 16 15 14 13 12 11 10 9 8 7 
1 2 3 4 5 6 7 8 9 10 11 12 13 14 15 16 17 18 0 1 2 3 4 5 6 7 8 9 10 11 12 13 14 15 16 17 1 2 3 4 5 6 7 8 9 10 11 12 13 14 15 16 17 18 2 3 4 5 6 7 8 9 10 11 12 13 14 15 16 17 18 19 3 4 5 6 7 8 9 10 11 12 13 14 15 16 17 18 19 20 4 5 6 7 8 9 10 11 12 13 14 15 16 17 18 19 20 21 5 6 7 8 9 10 11 12 13 14 15 16 17 18 19 20 21 22 6 7 8 9 10 11 12 13 14 15 16 17 18 19 20 21 22 23 
2 1 2 3 4 5 6 7 8 9 10 11 12 13 14 15 16 17 1 0 1 2 3 4 5 6 7 8 9 10 11 12 13 14 15 16 2 1 2 3 4 5 6 7 8 9 10 11 12 13 14 15 16 17 3 2 3 4 5 6 7 8 9 10 11 12 13 14 15 16 17 18 4 3 4 5 6 7 8 9 10 11 12 13 14 15 16 17 18 19 5 4 5 6 7 8 9 10 11 12 13 14 15 16 17 18 19 20 6 5 6 7 8 9 10 11 12 13 14 15 16 17 18 19 20 21 7 6 7 8 9 10 11 12 13 14 15 16 17 18 19 20 21 22 
3 2 1 2 3 4 5 6 7 8 9 10 11 12 13 14 15 16 2 1 0 1 2 3 4 5 6 7 8 9 10 11 12 13 14 15 3 2 1 2 3 4 5 6 7 8 9 10 11 12 13 14 15 16 4 3 2 3 4 5 6 7 8 9 10 11 12 13 14 15 16 17 5 4 3 4 5 6 7 8 9 10 11 12 13 14 15 16 17 18 6 5 4 5 6 7 8 9 10 11 12 13 14 15 16 17 18 19 7 6 5 6 7 8 9 10 11 12 13 14 15 16 17 18 19 20 8 7 6 7 8 9 10 11 12 13 14 15 16 17 18 19 20 21 
4 3 2 1 2 3 4 5 6 7 8 9 10 11 12 13 14 15 3 2 1 0 1 2 3 4 5 6 7 8 9 10 11 12 13 14 4 3 2 1 2 3 4 5 6 7 8 9 10 11 12 13 14 15 5 4 3 2 3 4 5 6 7 8 9 10 11 12 13 14 15 16 6 5 4 3 4 5 6 7 8 9 10 11 12 13 14 15 16 17 7 6 5 4 5 6 7 8 9 10 11 12 13 14 15 16 17 18 8 7 6 5 6 7 8 9 10 11 12 13 14 15 16 17 18 19 9 8 7 6 7 8 9 10 11 12 13 14 15 16 17 18 19 20 
5 4 3 2 1 2 3 4 5 6 7 8 9 10 11 12 13 14 4 3 2 1 0 1 2 3 4 5 6 7 8 9 10 11 12 13 5 4 3 2 1 2 3 4 5 6 7 8 9 10 11 12 13 14 6 5 4 3 2 3 4 5 6 7 8 9 10 11 12 13 14 15 7 6 5 4 3 4 5 6 7 8 9 10 11 12 13 14 15 16 8 7 6 5 4 5 6 7 8 9 10 11 12 13 14 15 16 17 9 8 7 6 5 6 7 8 9 10 11 12 13 14 15 16 17 18 10 9 8 7 6 7 8 9 10 11 12 13 14 15 16 17 18 19 
6 5 4 3 2 1 2 3 4 5 6 7 8 9 10 11 12 13 5 4 3 2 1 0 1 2 3 4 5 6 7 8 9 10 11 12 6 5 4 3 2 1 2 3 4 5 6 7 8 9 10 11 12 13 7 6 5 4 3 2 3 4 5 6 7 8 9 10 11 12 13 14 8 7 6 5 4 3 4 5 6 7 8 9 10 11 12 13 14 15 9 8 7 6 5 4 5 6 7 8 9 10 11 12 13 14 15 16 10 9 8 7 6 5 6 7 8 9 10 11 12 13 14 15 16 17 11 10 9 8 7 6 7 8 9 10 11 12 13 14 15 16 17 18 
7 6 5 4 3 2 1 2 3 4 5 6 7 8 9 10 11 12 6 5 4 3 2 1 0 1 2 3 4 5 6 7 8 9 10 11 7 6 5 4 3 2 1 2 3 4 5 6 7 8 9 10 11 12 8 7 6 5 4 3 2 3 4 5 6 7 8 9 10 11 12 13 9 8 7 6 5 4 3 4 5 6 7 8 9 10 11 12 13 14 10 9 8 7 6 5 4 5 6 7 8 9 10 11 12 13 14 15 11 10 9 8 7 6 5 6 7 8 9 10 11 12 13 14 15 16 12 11 10 9 8 7 6 7 8 9 10 11 12 13 14 15 16 17 
8 7 6 5 4 3 2 1 2 3 4 5 6 7 8 9 10 11 7 6 5 4 3 2 1 0 1 2 3 4 5 6 7 8 9 10 8 7 6 5 4 3 2 1 2 3 4 5 6 7 8 9 10 11 9 8 7 6 5 4 3 2 3 4 5 6 7 8 9 10 11 12 10 9 8 7 6 5 4 3 4 5 6 7 8 9 10 11 12 13 11 10 9 8 7 6 5 4 5 6 7 8 9 10 11 12 13 14 12 11 10 9 8 7 6 5 6 7 8 9 10 11 12 13 14 15 13 12 11 10 9 8 7 6 7 8 9 10 11 12 13 14 15 16 
9 8 7 6 5 4 3 2 1 2 3 4 5 6 7 8 9 10 8 7 6 5 4 3 2 1 0 1 2 3 4 5 6 7 8 9 9 8 7 6 5 4 3 2 1 2 3 4 5 6 7 8 9 10 10 9 8 7 6 5 4 3 2 3 4 5 6 7 8 9 10 11 11 10 9 8 7 6 5 4 3 4 5 6 7 8 9 10 11 12 12 11 10 9 8 7 6 5 4 5 6 7 8 9 10 11 12 13 13 12 11 10 9 8 7 6 5 6 7 8 9 10 11 12 13 14 14 13 12 11 10 9 8 7 6 7 8 9 10 11 12 13 14 15 
10 9 8 7 6 5 4 3 2 1 2 3 4 5 6 7 8 9 9 8 7 6 5 4 3 2 1 0 1 2 3 4 5 6 7 8 10 9 8 7 6 5 4 3 2 1 2 3 4 5 6 7 8 9 11 10 9 8 7 6 5 4 3 2 3 4 5 6 7 8 9 10 12 11 10 9 8 7 6 5 4 3 4 5 6 7 8 9 10 11 13 12 11 10 9 8 7 6 5 4 5 6 7 8 9 10 11 12 14 13 12 11 10 9 8 7 6 5 6 7 8 9 10 11 12 13 15 14 13 12 11 10 9 8 7 6 7 8 9 10 11 12 13 14 
11 10 9 8 7 6 5 4 3 2 1 2 3 4 5 6 7 8 10 9 8 7 6 5 4 3 2 1 0 1 2 3 4 5 6 7 11 10 9 8 7 6 5 4 3 2 1 2 3 4 5 6 7 8 12 11 10 9 8 7 6 5 4 3 2 3 4 5 6 7 8 9 13 12 11 10 9 8 7 6 5 4 3 4 5 6 7 8 9 10 14 13 12 11 10 9 8 7 6 5 4 5 6 7 8 9 10 11 15 14 13 12 11 10 9 8 7 6 5 6 7 8 9 10 11 12 16 15 14 13 12 11 10 9 8 7 6 7 8 9 10 11 12 13 
12 11 10 9 8 7 6 5 4 3 2 1 2 3 4 5 6 7 11 10 9 8 7 6 5 4 3 2 1 0 1 2 3 4 5 6 12 11 10 9 8 7 6 5 4 3 2 1 2 3 4 5 6 7 13 12 11 10 9 8 7 6 5 4 3 2 3 4 5 6 7 8 14 13 12 11 10 9 8 7 6 5 4 3 4 5 6 7 8 9 15 14 13 12 11 10 9 8 7 6 5 4 5 6 7 8 9 10 16 15 14 13 12 11 10 9 8 7 6 5 6 7 8 9 10 11 17 16 15 14 13 12 11 10 9 8 7 6 7 8 9 10 11 12 
13 12 11 10 9 8 7 6 5 4 3 2 1 2 3 4 5 6 12 11 10 9 8 7 6 5 4 3 2 1 0 1 2 3 4 5 13 12 11 10 9 8 7 6 5 4 3 2 1 2 3 4 5 6 14 13 12 11 10 9 8 7 6 5 4 3 2 3 4 5 6 7 15 14 13 12 11 10 9 8 7 6 5 4 3 4 5 6 7 8 16 15 14 13 12 11 10 9 8 7 6 5 4 5 6 7 8 9 17 16 15 14 13 12 11 10 9 8 7 6 5 6 7 8 9 10 18 17 16 15 14 13 12 11 10 9 8 7 6 7 8 9 10 11 
14 13 12 11 10 9 8 7 6 5 4 3 2 1 2 3 4 5 13 12 11 10 9 8 7 6 5 4 3 2 1 0 1 2 3 4 14 13 12 11 10 9 8 7 6 5 4 3 2 1 2 3 4 5 15 14 13 12 11 10 9 8 7 6 5 4 3 2 3 4 5 6 16 15 14 13 12 11 10 9 8 7 6 5 4 3 4 5 6 7 17 16 15 14 13 12 11 10 9 8 7 6 5 4 5 6 7 8 18 17 16 15 14 13 12 11 10 9 8 7 6 5 6 7 8 9 19 18 17 16 15 14 13 12 11 10 9 8 7 6 7 8 9 10 
15 14 13 12 11 10 9 8 7 6 5 4 3 2 1 2 3 4 14 13 12 11 10 9 8 7 6 5 4 3 2 1 0 1 2 3 15 14 13 12 11 10 9 8 7 6 5 4 3 2 1 2 3 4 16 15 14 13 12 11 10 9 8 7 6 5 4 3 2 3 4 5 17 16 15 14 13 12 11 10 9 8 7 6 5 4 3 4 5 6 18 17 16 15 14 13 12 11 10 9 8 7 6 5 4 5 6 7 19 18 17 16 15 14 13 12 11 10 9 8 7 6 5 6 7 8 20 19 18 17 16 15 14 13 12 11 10 9 8 7 6 7 8 9 
16 15 14 13 12 11 10 9 8 7 6 5 4 3 2 1 2 3 15 14 13 12 11 10 9 8 7 6 5 4 3 2 1 0 1 2 16 15 14 13 12 11 10 9 8 7 6 5 4 3 2 1 2 3 17 16 15 14 13 12 11 10 9 8 7 6 5 4 3 2 3 4 18 17 16 15 14 13 12 11 10 9 8 7 6 5 4 3 4 5 19 18 17 16 15 14 13 12 11 10 9 8 7 6 5 4 5 6 20 19 18 17 16 15 14 13 12 11 10 9 8 7 6 5 6 7 21 20 19 18 17 16 15 14 13 12 11 10 9 8 7 6 7 8 
17 16 15 14 13 12 11 10 9 8 7 6 5 4 3 2 1 2 16 15 14 13 12 11 10 9 8 7 6 5 4 3 2 1 0 1 17 16 15 14 13 12 11 10 9 8 7 6 5 4 3 2 1 2 18 17 16 15 14 13 12 11 10 9 8 7 6 5 4 3 2 3 19 18 17 16 15 14 13 12 11 10 9 8 7 6 5 4 3 4 20 19 18 17 16 15 14 13 12 11 10 9 8 7 6 5 4 5 21 20 19 18 17 16 15 14 13 12 11 10 9 8 7 6 5 6 22 21 20 19 18 17 16 15 14 13 12 11 10 9 8 7 6 7 
18 17 16 15 14 13 12 11 10 9 8 7 6 5 4 3 2 1 17 16 15 14 13 12 11 10 9 8 7 6 5 4 3 2 1 0 18 17 16 15 14 13 12 11 10 9 8 7 6 5 4 3 2 1 19 18 17 16 15 14 13 12 11 10 9 8 7 6 5 4 3 2 20 19 18 17 16 15 14 13 12 11 10 9 8 7 6 5 4 3 21 20 19 18 17 16 15 14 13 12 11 10 9 8 7 6 5 4 22 21 20 19 18 17 16 15 14 13 12 11 10 9 8 7 6 5 23 22 21 20 19 18 17 16 15 14 13 12 11 10 9 8 7 6 
2 3 4 5 6 7 8 9 10 11 12 13 14 15 16 17 18 19 1 2 3 4 5 6 7 8 9 10 11 12 13 14 15 16 17 18 0 1 2 3 4 5 6 7 8 9 10 11 12 13 14 15 16 17 1 2 3 4 5 6 7 8 9 10 11 12 13 14 15 16 17 18 2 3 4 5 6 7 8 9 10 11 12 13 14 15 16 17 18 19 3 4 5 6 7 8 9 10 11 12 13 14 15 16 17 18 19 20 4 5 6 7 8 9 10 11 12 13 14 15 16 17 18 19 20 21 5 6 7 8 9 10 11 12 13 14 15 16 17 18 19 20 21 22 
3 2 3 4 5 6 7 8 9 10 11 12 13 14 15 16 17 18 2 1 2 3 4 5 6 7 8 9 10 11 12 13 14 15 16 17 1 0 1 2 3 4 5 6 7 8 9 10 11 12 13 14 15 16 2 1 2 3 4 5 6 7 8 9 10 11 12 13 14 15 16 17 3 2 3 4 5 6 7 8 9 10 11 12 13 14 15 16 17 18 4 3 4 5 6 7 8 9 10 11 12 13 14 15 16 17 18 19 5 4 5 6 7 8 9 10 11 12 13 14 15 16 17 18 19 20 6 5 6 7 8 9 10 11 12 13 14 15 16 17 18 19 20 21 
4 3 2 3 4 5 6 7 8 9 10 11 12 13 14 15 16 17 3 2 1 2 3 4 5 6 7 8 9 10 11 12 13 14 15 16 2 1 0 1 2 3 4 5 6 7 8 9 10 11 12 13 14 15 3 2 1 2 3 4 5 6 7 8 9 10 11 12 13 14 15 16 4 3 2 3 4 5 6 7 8 9 10 11 12 13 14 15 16 17 5 4 3 4 5 6 7 8 9 10 11 12 13 14 15 16 17 18 6 5 4 5 6 7 8 9 10 11 12 13 14 15 16 17 18 19 7 6 5 6 7 8 9 10 11 12 13 14 15 16 17 18 19 20 
5 4 3 2 3 4 5 6 7 8 9 10 11 12 13 14 15 16 4 3 2 1 2 3 4 5 6 7 8 9 10 11 12 13 14 15 3 2 1 0 1 2 3 4 5 6 7 8 9 10 11 12 13 14 4 3 2 1 2 3 4 5 6 7 8 9 10 11 12 13 14 15 5 4 3 2 3 4 5 6 7 8 9 10 11 12 13 14 15 16 6 5 4 3 4 5 6 7 8 9 10 11 12 13 14 15 16 17 7 6 5 4 5 6 7 8 9 10 11 12 13 14 15 16 17 18 8 7 6 5 6 7 8 9 10 11 12 13 14 15 16 17 18 19 
6 5 4 3 2 3 4 5 6 7 8 9 10 11 12 13 14 15 5 4 3 2 1 2 3 4 5 6 7 8 9 10 11 12 13 14 4 3 2 1 0 1 2 3 4 5 6 7 8 9 10 11 12 13 5 4 3 2 1 2 3 4 5 6 7 8 9 10 11 12 13 14 6 5 4 3 2 3 4 5 6 7 8 9 10 11 12 13 14 15 7 6 5 4 3 4 5 6 7 8 9 10 11 12 13 14 15 16 8 7 6 5 4 5 6 7 8 9 10 11 12 13 14 15 16 17 9 8 7 6 5 6 7 8 9 10 11 12 13 14 15 16 17 18 
7 6 5 4 3 2 3 4 5 6 7 8 9 10 11 12 13 14 6 5 4 3 2 1 2 3 4 5 6 7 8 9 10 11 12 13 5 4 3 2 1 0 1 2 3 4 5 6 7 8 9 10 11 12 6 5 4 3 2 1 2 3 4 5 6 7 8 9 10 11 12 13 7 6 5 4 3 2 3 4 5 6 7 8 9 10 11 12 13 14 8 7 6 5 4 3 4 5 6 7 8 9 10 11 12 13 14 15 9 8 7 6 5 4 5 6 7 8 9 10 11 12 13 14 15 16 10 9 8 7 6 5 6 7 8 9 10 11 12 13 14 15 16 17 
8 7 6 5 4 3 2 3 4 5 6 7 8 9 10 11 12 13 7 6 5 4 3 2 1 2 3 4 5 6 7 8 9 10 11 12 6 5 4 3 2 1 0 1 2 3 4 5 6 7 8 9 10 11 7 6 5 4 3 2 1 2 3 4 5 6 7 8 9 10 11 12 8 7 6 5 4 3 2 3 4 5 6 7 8 9 10 11 12 13 9 8 7 6 5 4 3 4 5 6 7 8 9 10 11 12 13 14 10 9 8 7 6 5 4 5 6 7 8 9 10 11 12 13 14 15 11 10 9 8 7 6 5 6 7 8 9 10 11 12 13 14 15 16 
9 8 7 6 5 4 3 2 3 4 5 6 7 8 9 10 11 12 8 7 6 5 4 3 2 1 2 3 4 5 6 7 8 9 10 11 7 6 5 4 3 2 1 0 1 2 3 4 5 6 7 8 9 10 8 7 6 5 4 3 2 1 2 3 4 5 6 7 8 9 10 11 9 8 7 6 5 4 3 2 3 4 5 6 7 8 9 10 11 12 10 9 8 7 6 5 4 3 4 5 6 7 8 9 10 11 12 13 11 10 9 8 7 6 5 4 5 6 7 8 9 10 11 12 13 14 12 11 10 9 8 7 6 5 6 7 8 9 10 11 12 13 14 15 
10 9 8 7 6 5 4 3 2 3 4 5 6 7 8 9 10 11 9 8 7 6 5 4 3 2 1 2 3 4 5 6 7 8 9 10 8 7 6 5 4 3 2 1 0 1 2 3 4 5 6 7 8 9 9 8 7 6 5 4 3 2 1 2 3 4 5 6 7 8 9 10 10 9 8 7 6 5 4 3 2 3 4 5 6 7 8 9 10 11 11 10 9 8 7 6 5 4 3 4 5 6 7 8 9 10 11 12 12 11 10 9 8 7 6 5 4 5 6 7 8 9 10 11 12 13 13 12 11 10 9 8 7 6 5 6 7 8 9 10 11 12 13 14 
11 10 9 8 7 6 5 4 3 2 3 4 5 6 7 8 9 10 10 9 8 7 6 5 4 3 2 1 2 3 4 5 6 7 8 9 9 8 7 6 5 4 3 2 1 0 1 2 3 4 5 6 7 8 10 9 8 7 6 5 4 3 2 1 2 3 4 5 6 7 8 9 11 10 9 8 7 6 5 4 3 2 3 4 5 6 7 8 9 10 12 11 10 9 8 7 6 5 4 3 4 5 6 7 8 9 10 11 13 12 11 10 9 8 7 6 5 4 5 6 7 8 9 10 11 12 14 13 12 11 10 9 8 7 6 5 6 7 8 9 10 11 12 13 
12 11 10 9 8 7 6 5 4 3 2 3 4 5 6 7 8 9 11 10 9 8 7 6 5 4 3 2 1 2 3 4 5 6 7 8 10 9 8 7 6 5 4 3 2 1 0 1 2 3 4 5 6 7 11 10 9 8 7 6 5 4 3 2 1 2 3 4 5 6 7 8 12 11 10 9 8 7 6 5 4 3 2 3 4 5 6 7 8 9 13 12 11 10 9 8 7 6 5 4 3 4 5 6 7 8 9 10 14 13 12 11 10 9 8 7 6 5 4 5 6 7 8 9 10 11 15 14 13 12 11 10 9 8 7 6 5 6 7 8 9 10 11 12 
13 12 11 10 9 8 7 6 5 4 3 2 3 4 5 6 7 8 12 11 10 9 8 7 6 5 4 3 2 1 2 3 4 5 6 7 11 10 9 8 7 6 5 4 3 2 1 0 1 2 3 4 5 6 12 11 10 9 8 7 6 5 4 3 2 1 2 3 4 5 6 7 13 12 11 10 9 8 7 6 5 4 3 2 3 4 5 6 7 8 14 13 12 11 10 9 8 7 6 5 4 3 4 5 6 7 8 9 15 14 13 12 11 10 9 8 7 6 5 4 5 6 7 8 9 10 16 15 14 13 12 11 10 9 8 7 6 5 6 7 8 9 10 11 
14 13 12 11 10 9 8 7 6 5 4 3 2 3 4 5 6 7 13 12 11 10 9 8 7 6 5 4 3 2 1 2 3 4 5 6 12 11 10 9 8 7 6 5 4 3 2 1 0 1 2 3 4 5 13 12 11 10 9 8 7 6 5 4 3 2 1 2 3 4 5 6 14 13 12 11 10 9 8 7 6 5 4 3 2 3 4 5 6 7 15 14 13 12 11 10 9 8 7 6 5 4 3 4 5 6 7 8 16 15 14 13 12 11 10 9 8 7 6 5 4 5 6 7 8 9 17 16 15 14 13 12 11 10 9 8 7 6 5 6 7 8 9 10 
15 14 13 12 11 10 9 8 7 6 5 4 3 2 3 4 5 6 14 13 12 11 10 9 8 7 6 5 4 3 2 1 2 3 4 5 13 12 11 10 9 8 7 6 5 4 3 2 1 0 1 2 3 4 14 13 12 11 10 9 8 7 6 5 4 3 2 1 2 3 4 5 15 14 13 12 11 10 9 8 7 6 5 4 3 2 3 4 5 6 16 15 14 13 12 11 10 9 8 7 6 5 4 3 4 5 6 7 17 16 15 14 13 12 11 10 9 8 7 6 5 4 5 6 7 8 18 17 16 15 14 13 12 11 10 9 8 7 6 5 6 7 8 9 
16 15 14 13 12 11 10 9 8 7 6 5 4 3 2 3 4 5 15 14 13 12 11 10 9 8 7 6 5 4 3 2 1 2 3 4 14 13 12 11 10 9 8 7 6 5 4 3 2 1 0 1 2 3 15 14 13 12 11 10 9 8 7 6 5 4 3 2 1 2 3 4 16 15 14 13 12 11 10 9 8 7 6 5 4 3 2 3 4 5 17 16 15 14 13 12 11 10 9 8 7 6 5 4 3 4 5 6 18 17 16 15 14 13 12 11 10 9 8 7 6 5 4 5 6 7 19 18 17 16 15 14 13 12 11 10 9 8 7 6 5 6 7 8 
17 16 15 14 13 12 11 10 9 8 7 6 5 4 3 2 3 4 16 15 14 13 12 11 10 9 8 7 6 5 4 3 2 1 2 3 15 14 13 12 11 10 9 8 7 6 5 4 3 2 1 0 1 2 16 15 14 13 12 11 10 9 8 7 6 5 4 3 2 1 2 3 17 16 15 14 13 12 11 10 9 8 7 6 5 4 3 2 3 4 18 17 16 15 14 13 12 11 10 9 8 7 6 5 4 3 4 5 19 18 17 16 15 14 13 12 11 10 9 8 7 6 5 4 5 6 20 19 18 17 16 15 14 13 12 11 10 9 8 7 6 5 6 7 
18 17 16 15 14 13 12 11 10 9 8 7 6 5 4 3 2 3 17 16 15 14 13 12 11 10 9 8 7 6 5 4 3 2 1 2 16 15 14 13 12 11 10 9 8 7 6 5 4 3 2 1 0 1 17 16 15 14 13 12 11 10 9 8 7 6 5 4 3 2 1 2 18 17 16 15 14 13 12 11 10 9 8 7 6 5 4 3 2 3 19 18 17 16 15 14 13 12 11 10 9 8 7 6 5 4 3 4 20 19 18 17 16 15 14 13 12 11 10 9 8 7 6 5 4 5 21 20 19 18 17 16 15 14 13 12 11 10 9 8 7 6 5 6 
19 18 17 16 15 14 13 12 11 10 9 8 7 6 5 4 3 2 18 17 16 15 14 13 12 11 10 9 8 7 6 5 4 3 2 1 17 16 15 14 13 12 11 10 9 8 7 6 5 4 3 2 1 0 18 17 16 15 14 13 12 11 10 9 8 7 6 5 4 3 2 1 19 18 17 16 15 14 13 12 11 10 9 8 7 6 5 4 3 2 20 19 18 17 16 15 14 13 12 11 10 9 8 7 6 5 4 3 21 20 19 18 17 16 15 14 13 12 11 10 9 8 7 6 5 4 22 21 20 19 18 17 16 15 14 13 12 11 10 9 8 7 6 5 
3 4 5 6 7 8 9 10 11 12 13 14 15 16 17 18 19 20 2 3 4 5 6 7 8 9 10 11 12 13 14 15 16 17 18 19 1 2 3 4 5 6 7 8 9 10 11 12 13 14 15 16 17 18 0 1 2 3 4 5 6 7 8 9 10 11 12 13 14 15 16 17 1 2 3 4 5 6 7 8 9 10 11 12 13 14 15 16 17 18 2 3 4 5 6 7 8 9 10 11 12 13 14 15 16 17 18 19 3 4 5 6 7 8 9 10 11 12 13 14 15 16 17 18 19 20 4 5 6 7 8 9 10 11 12 13 14 15 16 17 18 19 20 21 
4 3 4 5 6 7 8 9 10 11 12 13 14 15 16 17 18 19 3 2 3 4 5 6 7 8 9 10 11 12 13 14 15 16 17 18 2 1 2 3 4 5 6 7 8 9 10 11 12 13 14 15 16 17 1 0 1 2 3 4 5 6 7 8 9 10 11 12 13 14 15 16 2 1 2 3 4 5 6 7 8 9 10 11 12 13 14 15 16 17 3 2 3 4 5 6 7 8 9 10 11 12 13 14 15 16 17 18 4 3 4 5 6 7 8 9 10 11 12 13 14 15 16 17 18 19 5 4 5 6 7 8 9 10 11 12 13 14 15 16 17 18 19 20 
5 4 3 4 5 6 7 8 9 10 11 12 13 14 15 16 17 18 4 3 2 3 4 5 6 7 8 9 10 11 12 13 14 15 16 17 3 2 1 2 3 4 5 6 7 8 9 10 11 12 13 14 15 16 2 1 0 1 2 3 4 5 6 7 8 9 10 11 12 13 14 15 3 2 1 2 3 4 5 6 7 8 9 10 11 12 13 14 15 16 4 3 2 3 4 5 6 7 8 9 10 11 12 13 14 15 16 17 5 4 3 4 5 6 7 8 9 10 11 12 13 14 15 16 17 18 6 5 4 5 6 7 8 9 10 11 12 13 14 15 16 17 18 19 
6 5 4 3 4 5 6 7 8 9 10 11 12 13 14 15 16 17 5 4 3 2 3 4 5 6 7 8 9 10 11 12 13 14 15 16 4 3 2 1 2 3 4 5 6 7 8 9 10 11 12 13 14 15 3 2 1 0 1 2 3 4 5 6 7 8 9 10 11 12 13 14 4 3 2 1 2 3 4 5 6 7 8 9 10 11 12 13 14 15 5 4 3 2 3 4 5 6 7 8 9 10 11 12 13 14 15 16 6 5 4 3 4 5 6 7 8 9 10 11 12 13 14 15 16 17 7 6 5 4 5 6 7 8 9 10 11 12 13 14 15 16 17 18 
7 6 5 4 3 4 5 6 7 8 9 10 11 12 13 14 15 16 6 5 4 3 2 3 4 5 6 7 8 9 10 11 12 13 14 15 5 4 3 2 1 2 3 4 5 6 7 8 9 10 11 12 13 14 4 3 2 1 0 1 2 3 4 5 6 7 8 9 10 11 12 13 5 4 3 2 1 2 3 4 5 6 7 8 9 10 11 12 13 14 6 5 4 3 2 3 4 5 6 7 8 9 10 11 12 13 14 15 7 6 5 4 3 4 5 6 7 8 9 10 11 12 13 14 15 16 8 7 6 5 4 5 6 7 8 9 10 11 12 13 14 15 16 17 
8 7 6 5 4 3 4 5 6 7 8 9 10 11 12 13 14 15 7 6 5 4 3 2 3 4 5 6 7 8 9 10 11 12 13 14 6 5 4 3 2 1 2 3 4 5 6 7 8 9 10 11 12 13 5 4 3 2 1 0 1 2 3 4 5 6 7 8 9 10 11 12 6 5 4 3 2 1 2 3 4 5 6 7 8 9 10 11 12 13 7 6 5 4 3 2 3 4 5 6 7 8 9 10 11 12 13 14 8 7 6 5 4 3 4 5 6 7 8 9 10 11 12 13 14 15 9 8 7 6 5 4 5 6 7 8 9 10 11 12 13 14 15 16 
9 8 7 6 5 4 3 4 5 6 7 8 9 10 11 12 13 14 8 7 6 5 4 3 2 3 4 5 6 7 8 9 10 11 12 13 7 6 5 4 3 2 1 2 3 4 5 6 7 8 9 10 11 12 6 5 4 3 2 1 0 1 2 3 4 5 6 7 8 9 10 11 7 6 5 4 3 2 1 2 3 4 5 6 7 8 9 10 11 12 8 7 6 5 4 3 2 3 4 5 6 7 8 9 10 11 12 13 9 8 7 6 5 4 3 4 5 6 7 8 9 10 11 12 13 14 10 9 8 7 6 5 4 5 6 7 8 9 10 11 12 13 14 15 
10 9 8 7 6 5 4 3 4 5 6 7 8 9 10 11 12 13 9 8 7 6 5 4 3 2 3 4 5 6 7 8 9 10 11 12 8 7 6 5 4 3 2 1 2 3 4 5 6 7 8 9 10 11 7 6 5 4 3 2 1 0 1 2 3 4 5 6 7 8 9 10 8 7 6 5 4 3 2 1 2 3 4 5 6 7 8 9 10 11 9 8 7 6 5 4 3 2 3 4 5 6 7 8 9 10 11 12 10 9 8 7 6 5 4 3 4 5 6 7 8 9 10 11 12 13 11 10 9 8 7 6 5 4 5 6 7 8 9 10 11 12 13 14 
11 10 9 8 7 6 5 4 3 4 5 6 7 8 9 10 11 12 10 9 8 7 6 5 4 3 2 3 4 5 6 7 8 9 10 11 9 8 7 6 5 4 3 2 1 2 3 4 5 6 7 8 9 10 8 7 6 5 4 3 2 1 0 1 2 3 4 5 6 7 8 9 9 8 7 6 5 4 3 2 1 2 3 4 5 6 7 8 9 10 10 9 8 7 6 5 4 3 2 3 4 5 6 7 8 9 10 11 11 10 9 8 7 6 5 4 3 4 5 6 7 8 9 10 11 12 12 11 10 9 8 7 6 5 4 5 6 7 8 9 10 11 12 13 
12 11 10 9 8 7 6 5 4 3 4 5 6 7 8 9 10 11 11 10 9 8 7 6 5 4 3 2 3 4 5 6 7 8 9 10 10 9 8 7 6 5 4 3 2 1 2 3 4 5 6 7 8 9 9 8 7 6 5 4 3 2 1 0 1 2 3 4 5 6 7 8 10 9 8 7 6 5 4 3 2 1 2 3 4 5 6 7 8 9 11 10 9 8 7 6 5 4 3 2 3 4 5 6 7 8 9 10 12 11 10 9 8 7 6 5 4 3 4 5 6 7 8 9 10 11 13 12 11 10 9 8 7 6 5 4 5 6 7 8 9 10 11 12 
13 12 11 10 9 8 7 6 5 4 3 4 5 6 7 8 9 10 12 11 10 9 8 7 6 5 4 3 2 3 4 5 6 7 8 9 11 10 9 8 7 6 5 4 3 2 1 2 3 4 5 6 7 8 10 9 8 7 6 5 4 3 2 1 0 1 2 3 4 5 6 7 11 10 9 8 7 6 5 4 3 2 1 2 3 4 5 6 7 8 12 11 10 9 8 7 6 5 4 3 2 3 4 5 6 7 8 9 13 12 11 10 9 8 7 6 5 4 3 4 5 6 7 8 9 10 14 13 12 11 10 9 8 7 6 5 4 5 6 7 8 9 10 11 
14 13 12 11 10 9 8 7 6 5 4 3 4 5 6 7 8 9 13 12 11 10 9 8 7 6 5 4 3 2 3 4 5 6 7 8 12 11 10 9 8 7 6 5 4 3 2 1 2 3 4 5 6 7 11 10 9 8 7 6 5 4 3 2 1 0 1 2 3 4 5 6 12 11 10 9 8 7 6 5 4 3 2 1 2 3 4 5 6 7 13 12 11 10 9 8 7 6 5 4 3 2 3 4 5 6 7 8 14 13 12 11 10 9 8 7 6 5 4 3 4 5 6 7 8 9 15 14 13 12 11 10 9 8 7 6 5 4 5 6 7 8 9 10 
15 14 13 12 11 10 9 8 7 6 5 4 3 4 5 6 7 8 14 13 12 11 10 9 8 7 6 5 4 3 2 3 4 5 6 7 13 12 11 10 9 8 7 6 5 4 3 2 1 2 3 4 5 6 12 11 10 9 8 7 6 5 4 3 2 1 0 1 2 3 4 5 13 12 11 10 9 8 7 6 5 4 3 2 1 2 3 4 5 6 14 13 12 11 10 9 8 7 6 5 4 3 2 3 4 5 6 7 15 14 13 12 11 10 9 8 7 6 5 4 3 4 5 6 7 8 16 15 14 13 12 11 10 9 8 7 6 5 4 5 6 7 8 9 
16 15 14 13 12 11 10 9 8 7 6 5 4 3 4 5 6 7 15 14 13 12 11 10 9 8 7 6 5 4 3 2 3 4 5 6 14 13 12 11 10 9 8 7 6 5 4 3 2 1 2 3 4 5 13 12 11 10 9 8 7 6 5 4 3 2 1 0 1 2 3 4 14 13 12 11 10 9 8 7 6 5 4 3 2 1 2 3 4 5 15 14 13 12 11 10 9 8 7 6 5 4 3 2 3 4 5 6 16 15 14 13 12 11 10 9 8 7 6 5 4 3 4 5 6 7 17 16 15 14 13 12 11 10 9 8 7 6 5 4 5 6 7 8 
17 16 15 14 13 12 11 10 9 8 7 6 5 4 3 4 5 6 16 15 14 13 12 11 10 9 8 7 6 5 4 3 2 3 4 5 15 14 13 12 11 10 9 8 7 6 5 4 3 2 1 2 3 4 14 13 12 11 10 9 8 7 6 5 4 3 2 1 0 1 2 3 15 14 13 12 11 10 9 8 7 6 5 4 3 2 1 2 3 4 16 15 14 13 12 11 10 9 8 7 6 5 4 3 2 3 4 5 17 16 15 14 13 12 11 10 9 8 7 6 5 4 3 4 5 6 18 17 16 15 14 13 12 11 10 9 8 7 6 5 4 5 6 7 
18 17 16 15 14 13 12 11 10 9 8 7 6 5 4 3 4 5 17 16 15 14 13 12 11 10 9 8 7 6 5 4 3 2 3 4 16 15 14 13 12 11 10 9 8 7 6 5 4 3 2 1 2 3 15 14 13 12 11 10 9 8 7 6 5 4 3 2 1 0 1 2 16 15 14 13 12 11 10 9 8 7 6 5 4 3 2 1 2 3 17 16 15 14 13 12 11 10 9 8 7 6 5 4 3 2 3 4 18 17 16 15 14 13 12 11 10 9 8 7 6 5 4 3 4 5 19 18 17 16 15 14 13 12 11 10 9 8 7 6 5 4 5 6 
19 18 17 16 15 14 13 12 11 10 9 8 7 6 5 4 3 4 18 17 16 15 14 13 12 11 10 9 8 7 6 5 4 3 2 3 17 16 15 14 13 12 11 10 9 8 7 6 5 4 3 2 1 2 16 15 14 13 12 11 10 9 8 7 6 5 4 3 2 1 0 1 17 16 15 14 13 12 11 10 9 8 7 6 5 4 3 2 1 2 18 17 16 15 14 13 12 11 10 9 8 7 6 5 4 3 2 3 19 18 17 16 15 14 13 12 11 10 9 8 7 6 5 4 3 4 20 19 18 17 16 15 14 13 12 11 10 9 8 7 6 5 4 5 
20 19 18 17 16 15 14 13 12 11 10 9 8 7 6 5 4 3 19 18 17 16 15 14 13 12 11 10 9 8 7 6 5 4 3 2 18 17 16 15 14 13 12 11 10 9 8 7 6 5 4 3 2 1 17 16 15 14 13 12 11 10 9 8 7 6 5 4 3 2 1 0 18 17 16 15 14 13 12 11 10 9 8 7 6 5 4 3 2 1 19 18 17 16 15 14 13 12 11 10 9 8 7 6 5 4 3 2 20 19 18 17 16 15 14 13 12 11 10 9 8 7 6 5 4 3 21 20 19 18 17 16 15 14 13 12 11 10 9 8 7 6 5 4 
4 5 6 7 8 9 10 11 12 13 14 15 16 17 18 19 20 21 3 4 5 6 7 8 9 10 11 12 13 14 15 16 17 18 19 20 2 3 4 5 6 7 8 9 10 11 12 13 14 15 16 17 18 19 1 2 3 4 5 6 7 8 9 10 11 12 13 14 15 16 17 18 0 1 2 3 4 5 6 7 8 9 10 11 12 13 14 15 16 17 1 2 3 4 5 6 7 8 9 10 11 12 13 14 15 16 17 18 2 3 4 5 6 7 8 9 10 11 12 13 14 15 16 17 18 19 3 4 5 6 7 8 9 10 11 12 13 14 15 16 17 18 19 20 
5 4 5 6 7 8 9 10 11 12 13 14 15 16 17 18 19 20 4 3 4 5 6 7 8 9 10 11 12 13 14 15 16 17 18 19 3 2 3 4 5 6 7 8 9 10 11 12 13 14 15 16 17 18 2 1 2 3 4 5 6 7 8 9 10 11 12 13 14 15 16 17 1 0 1 2 3 4 5 6 7 8 9 10 11 12 13 14 15 16 2 1 2 3 4 5 6 7 8 9 10 11 12 13 14 15 16 17 3 2 3 4 5 6 7 8 9 10 11 12 13 14 15 16 17 18 4 3 4 5 6 7 8 9 10 11 12 13 14 15 16 17 18 19 
6 5 4 5 6 7 8 9 10 11 12 13 14 15 16 17 18 19 5 4 3 4 5 6 7 8 9 10 11 12 13 14 15 16 17 18 4 3 2 3 4 5 6 7 8 9 10 11 12 13 14 15 16 17 3 2 1 2 3 4 5 6 7 8 9 10 11 12 13 14 15 16 2 1 0 1 2 3 4 5 6 7 8 9 10 11 12 13 14 15 3 2 1 2 3 4 5 6 7 8 9 10 11 12 13 14 15 16 4 3 2 3 4 5 6 7 8 9 10 11 12 13 14 15 16 17 5 4 3 4 5 6 7 8 9 10 11 12 13 14 15 16 17 18 
7 6 5 4 5 6 7 8 9 10 11 12 13 14 15 16 17 18 6 5 4 3 4 5 6 7 8 9 10 11 12 13 14 15 16 17 5 4 3 2 3 4 5 6 7 8 9 10 11 12 13 14 15 16 4 3 2 1 2 3 4 5 6 7 8 9 10 11 12 13 14 15 3 2 1 0 1 2 3 4 5 6 7 8 9 10 11 12 13 14 4 3 2 1 2 3 4 5 6 7 8 9 10 11 12 13 14 15 5 4 3 2 3 4 5 6 7 8 9 10 11 12 13 14 15 16 6 5 4 3 4 5 6 7 8 9 10 11 12 13 14 15 16 17 
8 7 6 5 4 5 6 7 8 9 10 11 12 13 14 15 16 17 7 6 5 4 3 4 5 6 7 8 9 10 11 12 13 14 15 16 6 5 4 3 2 3 4 5 6 7 8 9 10 11 12 13 14 15 5 4 3 2 1 2 3 4 5 6 7 8 9 10 11 12 13 14 4 3 2 1 0 1 2 3 4 5 6 7 8 9 10 11 12 13 5 4 3 2 1 2 3 4 5 6 7 8 9 10 11 12 13 14 6 5 4 3 2 3 4 5 6 7 8 9 10 11 12 13 14 15 7 6 5 4 3 4 5 6 7 8 9 10 11 12 13 14 15 16 
9 8 7 6 5 4 5 6 7 8 9 10 11 12 13 14 15 16 8 7 6 5 4 3 4 5 6 7 8 9 10 11 12 13 14 15 7 6 5 4 3 2 3 4 5 6 7 8 9 10 11 12 13 14 6 5 4 3 2 1 2 3 4 5 6 7 8 9 10 11 12 13 5 4 3 2 1 0 1 2 3 4 5 6 7 8 9 10 11 12 6 5 4 3 2 1 2 3 4 5 6 7 8 9 10 11 12 13 7 6 5 4 3 2 3 4 5 6 7 8 9 10 11 12 13 14 8 7 6 5 4 3 4 5 6 7 8 9 10 11 12 13 14 15 
10 9 8 7 6 5 4 5 6 7 8 9 10 11 12 13 14 15 9 8 7 6 5 4 3 4 5 6 7 8 9 10 11 12 13 14 8 7 6 5 4 3 2 3 4 5 6 7 8 9 10 11 12 13 7 6 5 4 3 2 1 2 3 4 5 6 7 8 9 10 11 12 6 5 4 3 2 1 0 1 2 3 4 5 6 7 8 9 10 11 7 6 5 4 3 2 1 2 3 4 5 6 7 8 9 10 11 12 8 7 6 5 4 3 2 3 4 5 6 7 8 9 10 11 12 13 9 8 7 6 5 4 3 4 5 6 7 8 9 10 11 12 13 14 
11 10 9 8 7 6 5 4 5 6 7 8 9 10 11 12 13 14 10 9 8 7 6 5 4 3 4 5 6 7 8 9 10 11 12 13 9 8 7 6 5 4 3 2 3 4 5 6 7 8 9 10 11 12 8 7 6 5 4 3 2 1 2 3 4 5 6 7 8 9 10 11 7 6 5 4 3 2 1 0 1 2 3 4 5 6 7 8 9 10 8 7 6 5 4 3 2 1 2 3 4 5 6 7 8 9 10 11 9 8 7 6 5 4 3 2 3 4 5 6 7 8 9 10 11 12 10 9 8 7 6 5 4 3 4 5 6 7 8 9 10 11 12 13 
12 11 10 9 8 7 6 5 4 5 6 7 8 9 10 11 12 13 11 10 9 8 7 6 5 4 3 4 5 6 7 8 9 10 11 12 10 9 8 7 6 5 4 3 2 3 4 5 6 7 8 9 10 11 9 8 7 6 5 4 3 2 1 2 3 4 5 6 7 8 9 10 8 7 6 5 4 3 2 1 0 1 2 3 4 5 6 7 8 9 9 8 7 6 5 4 3 2 1 2 3 4 5 6 7 8 9 10 10 9 8 7 6 5 4 3 2 3 4 5 6 7 8 9 10 11 11 10 9 8 7 6 5 4 3 4 5 6 7 8 9 10 11 12 
13 12 11 10 9 8 7 6 5 4 5 6 7 8 9 10 11 12 12 11 10 9 8 7 6 5 4 3 4 5 6 7 8 9 10 11 11 10 9 8 7 6 5 4 3 2 3 4 5 6 7 8 9 10 10 9 8 7 6 5 4 3 2 1 2 3 4 5 6 7 8 9 9 8 7 6 5 4 3 2 1 0 1 2 3 4 5 6 7 8 10 9 8 7 6 5 4 3 2 1 2 3 4 5 6 7 8 9 11 10 9 8 7 6 5 4 3 2 3 4 5 6 7 8 9 10 12 11 10 9 8 7 6 5 4 3 4 5 6 7 8 9 10 11 
14 13 12 11 10 9 8 7 6 5 4 5 6 7 8 9 10 11 13 12 11 10 9 8 7 6 5 4 3 4 5 6 7 8 9 10 12 11 10 9 8 7 6 5 4 3 2 3 4 5 6 7 8 9 11 10 9 8 7 6 5 4 3 2 1 2 3 4 5 6 7 8 10 9 8 7 6 5 4 3 2 1 0 1 2 3 4 5 6 7 11 10 9 8 7 6 5 4 3 2 1 2 3 4 5 6 7 8 12 11 10 9 8 7 6 5 4 3 2 3 4 5 6 7 8 9 13 12 11 10 9 8 7 6 5 4 3 4 5 6 7 8 9 10 
15 14 13 12 11 10 9 8 7 6 5 4 5 6 7 8 9 10 14 13 12 11 10 9 8 7 6 5 4 3 4 5 6 7 8 9 13 12 11 10 9 8 7 6 5 4 3 2 3 4 5 6 7 8 12 11 10 9 8 7 6 5 4 3 2 1 2 3 4 5 6 7 11 10 9 8 7 6 5 4 3 2 1 0 1 2 3 4 5 6 12 11 10 9 8 7 6 5 4 3 2 1 2 3 4 5 6 7 13 12 11 10 9 8 7 6 5 4 3 2 3 4 5 6 7 8 14 13 12 11 10 9 8 7 6 5 4 3 4 5 6 7 8 9 
16 15 14 13 12 11 10 9 8 7 6 5 4 5 6 7 8 9 15 14 13 12 11 10 9 8 7 6 5 4 3 4 5 6 7 8 14 13 12 11 10 9 8 7 6 5 4 3 2 3 4 5 6 7 13 12 11 10 9 8 7 6 5 4 3 2 1 2 3 4 5 6 12 11 10 9 8 7 6 5 4 3 2 1 0 1 2 3 4 5 13 12 11 10 9 8 7 6 5 4 3 2 1 2 3 4 5 6 14 13 12 11 10 9 8 7 6 5 4 3 2 3 4 5 6 7 15 14 13 12 11 10 9 8 7 6 5 4 3 4 5 6 7 8 
17 16 15 14 13 12 11 10 9 8 7 6 5 4 5 6 7 8 16 15 14 13 12 11 10 9 8 7 6 5 4 3 4 5 6 7 15 14 13 12 11 10 9 8 7 6 5 4 3 2 3 4 5 6 14 13 12 11 10 9 8 7 6 5 4 3 2 1 2 3 4 5 13 12 11 10 9 8 7 6 5 4 3 2 1 0 1 2 3 4 14 13 12 11 10 9 8 7 6 5 4 3 2 1 2 3 4 5 15 14 13 12 11 10 9 8 7 6 5 4 3 2 3 4 5 6 16 15 14 13 12 11 10 9 8 7 6 5 4 3 4 5 6 7 
18 17 16 15 14 13 12 11 10 9 8 7 6 5 4 5 6 7 17 16 15 14 13 12 11 10 9 8 7 6 5 4 3 4 5 6 16 15 14 13 12 11 10 9 8 7 6 5 4 3 2 3 4 5 15 14 13 12 11 10 9 8 7 6 5 4 3 2 1 2 3 4 14 13 12 11 10 9 8 7 6 5 4 3 2 1 0 1 2 3 15 14 13 12 11 10 9 8 7 6 5 4 3 2 1 2 3 4 16 15 14 13 12 11 10 9 8 7 6 5 4 3 2 3 4 5 17 16 15 14 13 12 11 10 9 8 7 6 5 4 3 4 5 6 
19 18 17 16 15 14 13 12 11 10 9 8 7 6 5 4 5 6 18 17 16 15 14 13 12 11 10 9 8 7 6 5 4 3 4 5 17 16 15 14 13 12 11 10 9 8 7 6 5 4 3 2 3 4 16 15 14 13 12 11 10 9 8 7 6 5 4 3 2 1 2 3 15 14 13 12 11 10 9 8 7 6 5 4 3 2 1 0 1 2 16 15 14 13 12 11 10 9 8 7 6 5 4 3 2 1 2 3 17 16 15 14 13 12 11 10 9 8 7 6 5 4 3 2 3 4 18 17 16 15 14 13 12 11 10 9 8 7 6 5 4 3 4 5 
20 19 18 17 16 15 14 13 12 11 10 9 8 7 6 5 4 5 19 18 17 16 15 14 13 12 11 10 9 8 7 6 5 4 3 4 18 17 16 15 14 13 12 11 10 9 8 7 6 5 4 3 2 3 17 16 15 14 13 12 11 10 9 8 7 6 5 4 3 2 1 2 16 15 14 13 12 11 10 9 8 7 6 5 4 3 2 1 0 1 17 16 15 14 13 12 11 10 9 8 7 6 5 4 3 2 1 2 18 17 16 15 14 13 12 11 10 9 8 7 6 5 4 3 2 3 19 18 17 16 15 14 13 12 11 10 9 8 7 6 5 4 3 4 
21 20 19 18 17 16 15 14 13 12 11 10 9 8 7 6 5 4 20 19 18 17 16 15 14 13 12 11 10 9 8 7 6 5 4 3 19 18 17 16 15 14 13 12 11 10 9 8 7 6 5 4 3 2 18 17 16 15 14 13 12 11 10 9 8 7 6 5 4 3 2 1 17 16 15 14 13 12 11 10 9 8 7 6 5 4 3 2 1 0 18 17 16 15 14 13 12 11 10 9 8 7 6 5 4 3 2 1 19 18 17 16 15 14 13 12 11 10 9 8 7 6 5 4 3 2 20 19 18 17 16 15 14 13 12 11 10 9 8 7 6 5 4 3 
5 6 7 8 9 10 11 12 13 14 15 16 17 18 19 20 21 22 4 5 6 7 8 9 10 11 12 13 14 15 16 17 18 19 20 21 3 4 5 6 7 8 9 10 11 12 13 14 15 16 17 18 19 20 2 3 4 5 6 7 8 9 10 11 12 13 14 15 16 17 18 19 1 2 3 4 5 6 7 8 9 10 11 12 13 14 15 16 17 18 0 1 2 3 4 5 6 7 8 9 10 11 12 13 14 15 16 17 1 2 3 4 5 6 7 8 9 10 11 12 13 14 15 16 17 18 2 3 4 5 6 7 8 9 10 11 12 13 14 15 16 17 18 19 
6 5 6 7 8 9 10 11 12 13 14 15 16 17 18 19 20 21 5 4 5 6 7 8 9 10 11 12 13 14 15 16 17 18 19 20 4 3 4 5 6 7 8 9 10 11 12 13 14 15 16 17 18 19 3 2 3 4 5 6 7 8 9 10 11 12 13 14 15 16 17 18 2 1 2 3 4 5 6 7 8 9 10 11 12 13 14 15 16 17 1 0 1 2 3 4 5 6 7 8 9 10 11 12 13 14 15 16 2 1 2 3 4 5 6 7 8 9 10 11 12 13 14 15 16 17 3 2 3 4 5 6 7 8 9 10 11 12 13 14 15 16 17 18 
7 6 5 6 7 8 9 10 11 12 13 14 15 16 17 18 19 20 6 5 4 5 6 7 8 9 10 11 12 13 14 15 16 17 18 19 5 4 3 4 5 6 7 8 9 10 11 12 13 14 15 16 17 18 4 3 2 3 4 5 6 7 8 9 10 11 12 13 14 15 16 17 3 2 1 2 3 4 5 6 7 8 9 10 11 12 13 14 15 16 2 1 0 1 2 3 4 5 6 7 8 9 10 11 12 13 14 15 3 2 1 2 3 4 5 6 7 8 9 10 11 12 13 14 15 16 4 3 2 3 4 5 6 7 8 9 10 11 12 13 14 15 16 17 
8 7 6 5 6 7 8 9 10 11 12 13 14 15 16 17 18 19 7 6 5 4 5 6 7 8 9 10 11 12 13 14 15 16 17 18 6 5 4 3 4 5 6 7 8 9 10 11 12 13 14 15 16 17 5 4 3 2 3 4 5 6 7 8 9 10 11 12 13 14 15 16 4 3 2 1 2 3 4 5 6 7 8 9 10 11 12 13 14 15 3 2 1 0 1 2 3 4 5 6 7 8 9 10 11 12 13 14 4 3 2 1 2 3 4 5 6 7 8 9 10 11 12 13 14 15 5 4 3 2 3 4 5 6 7 8 9 10 11 12 13 14 15 16 
9 8 7 6 5 6 7 8 9 10 11 12 13 14 15 16 17 18 8 7 6 5 4 5 6 7 8 9 10 11 12 13 14 15 16 17 7 6 5 4 3 4 5 6 7 8 9 10 11 12 13 14 15 16 6 5 4 3 2 3 4 5 6 7 8 9 10 11 12 13 14 15 5 4 3 2 1 2 3 4 5 6 7 8 9 10 11 12 13 14 4 3 2 1 0 1 2 3 4 5 6 7 8 9 10 11 12 13 5 4 3 2 1 2 3 4 5 6 7 8 9 10 11 12 13 14 6 5 4 3 2 3 4 5 6 7 8 9 10 11 12 13 14 15 
10 9 8 7 6 5 6 7 8 9 10 11 12 13 14 15 16 17 9 8 7 6 5 4 5 6 7 8 9 10 11 12 13 14 15 16 8 7 6 5 4 3 4 5 6 7 8 9 10 11 12 13 14 15 7 6 5 4 3 2 3 4 5 6 7 8 9 10 11 12 13 14 6 5 4 3 2 1 2 3 4 5 6 7 8 9 10 11 12 13 5 4 3 2 1 0 1 2 3 4 5 6 7 8 9 10 11 12 6 5 4 3 2 1 2 3 4 5 6 7 8 9 10 11 12 13 7 6 5 4 3 2 3 4 5 6 7 8 9 10 11 12 13 14 
11 10 9 8 7 6 5 6 7 8 9 10 11 12 13 14 15 16 10 9 8 7 6 5 4 5 6 7 8 9 10 11 12 13 14 15 9 8 7 6 5 4 3 4 5 6 7 8 9 10 11 12 13 14 8 7 6 5 4 3 2 3 4 5 6 7 8 9 10 11 12 13 7 6 5 4 3 2 1 2 3 4 5 6 7 8 9 10 11 12 6 5 4 3 2 1 0 1 2 3 4 5 6 7 8 9 10 11 7 6 5 4 3 2 1 2 3 4 5 6 7 8 9 10 11 12 8 7 6 5 4 3 2 3 4 5 6 7 8 9 10 11 12 13 
12 11 10 9 8 7 6 5 6 7 8 9 10 11 12 13 14 15 11 10 9 8 7 6 5 4 5 6 7 8 9 10 11 12 13 14 10 9 8 7 6 5 4 3 4 5 6 7 8 9 10 11 12 13 9 8 7 6 5 4 3 2 3 4 5 6 7 8 9 10 11 12 8 7 6 5 4 3 2 1 2 3 4 5 6 7 8 9 10 11 7 6 5 4 3 2 1 0 1 2 3 4 5 6 7 8 9 10 8 7 6 5 4 3 2 1 2 3 4 5 6 7 8 9 10 11 9 8 7 6 5 4 3 2 3 4 5 6 7 8 9 10 11 12 
13 12 11 10 9 8 7 6 5 6 7 8 9 10 11 12 13 14 12 11 10 9 8 7 6 5 4 5 6 7 8 9 10 11 12 13 11 10 9 8 7 6 5 4 3 4 5 6 7 8 9 10 11 12 10 9 8 7 6 5 4 3 2 3 4 5 6 7 8 9 10 11 9 8 7 6 5 4 3 2 1 2 3 4 5 6 7 8 9 10 8 7 6 5 4 3 2 1 0 1 2 3 4 5 6 7 8 9 9 8 7 6 5 4 3 2 1 2 3 4 5 6 7 8 9 10 10 9 8 7 6 5 4 3 2 3 4 5 6 7 8 9 10 11 
14 13 12 11 10 9 8 7 6 5 6 7 8 9 10 11 12 13 13 12 11 10 9 8 7 6 5 4 5 6 7 8 9 10 11 12 12 11 10 9 8 7 6 5 4 3 4 5 6 7 8 9 10 11 11 10 9 8 7 6 5 4 3 2 3 4 5 6 7 8 9 10 10 9 8 7 6 5 4 3 2 1 2 3 4 5 6 7 8 9 9 8 7 6 5 4 3 2 1 0 1 2 3 4 5 6 7 8 10 9 8 7 6 5 4 3 2 1 2 3 4 5 6 7 8 9 11 10 9 8 7 6 5 4 3 2 3 4 5 6 7 8 9 10 
15 14 13 12 11 10 9 8 7 6 5 6 7 8 9 10 11 12 14 13 12 11 10 9 8 7 6 5 4 5 6 7 8 9 10 11 13 12 11 10 9 8 7 6 5 4 3 4 5 6 7 8 9 10 12 11 10 9 8 7 6 5 4 3 2 3 4 5 6 7 8 9 11 10 9 8 7 6 5 4 3 2 1 2 3 4 5 6 7 8 10 9 8 7 6 5 4 3 2 1 0 1 2 3 4 5 6 7 11 10 9 8 7 6 5 4 3 2 1 2 3 4 5 6 7 8 12 11 10 9 8 7 6 5 4 3 2 3 4 5 6 7 8 9 
16 15 14 13 12 11 10 9 8 7 6 5 6 7 8 9 10 11 15 14 13 12 11 10 9 8 7 6 5 4 5 6 7 8 9 10 14 13 12 11 10 9 8 7 6 5 4 3 4 5 6 7 8 9 13 12 11 10 9 8 7 6 5 4 3 2 3 4 5 6 7 8 12 11 10 9 8 7 6 5 4 3 2 1 2 3 4 5 6 7 11 10 9 8 7 6 5 4 3 2 1 0 1 2 3 4 5 6 12 11 10 9 8 7 6 5 4 3 2 1 2 3 4 5 6 7 13 12 11 10 9 8 7 6 5 4 3 2 3 4 5 6 7 8 
17 16 15 14 13 12 11 10 9 8 7 6 5 6 7 8 9 10 16 15 14 13 12 11 10 9 8 7 6 5 4 5 6 7 8 9 15 14 13 12 11 10 9 8 7 6 5 4 3 4 5 6 7 8 14 13 12 11 10 9 8 7 6 5 4 3 2 3 4 5 6 7 13 12 11 10 9 8 7 6 5 4 3 2 1 2 3 4 5 6 12 11 10 9 8 7 6 5 4 3 2 1 0 1 2 3 4 5 13 12 11 10 9 8 7 6 5 4 3 2 1 2 3 4 5 6 14 13 12 11 10 9 8 7 6 5 4 3 2 3 4 5 6 7 
18 17 16 15 14 13 12 11 10 9 8 7 6 5 6 7 8 9 17 16 15 14 13 12 11 10 9 8 7 6 5 4 5 6 7 8 16 15 14 13 12 11 10 9 8 7 6 5 4 3 4 5 6 7 15 14 13 12 11 10 9 8 7 6 5 4 3 2 3 4 5 6 14 13 12 11 10 9 8 7 6 5 4 3 2 1 2 3 4 5 13 12 11 10 9 8 7 6 5 4 3 2 1 0 1 2 3 4 14 13 12 11 10 9 8 7 6 5 4 3 2 1 2 3 4 5 15 14 13 12 11 10 9 8 7 6 5 4 3 2 3 4 5 6 
19 18 17 16 15 14 13 12 11 10 9 8 7 6 5 6 7 8 18 17 16 15 14 13 12 11 10 9 8 7 6 5 4 5 6 7 17 16 15 14 13 12 11 10 9 8 7 6 5 4 3 4 5 6 16 15 14 13 12 11 10 9 8 7 6 5 4 3 2 3 4 5 15 14 13 12 11 10 9 8 7 6 5 4 3 2 1 2 3 4 14 13 12 11 10 9 8 7 6 5 4 3 2 1 0 1 2 3 15 14 13 12 11 10 9 8 7 6 5 4 3 2 1 2 3 4 16 15 14 13 12 11 10 9 8 7 6 5 4 3 2 3 4 5 
20 19 18 17 16 15 14 13 12 11 10 9 8 7 6 5 6 7 19 18 17 16 15 14 13 12 11 10 9 8 7 6 5 4 5 6 18 17 16 15 14 13 12 11 10 9 8 7 6 5 4 3 4 5 17 16 15 14 13 12 11 10 9 8 7 6 5 4 3 2 3 4 16 15 14 13 12 11 10 9 8 7 6 5 4 3 2 1 2 3 15 14 13 12 11 10 9 8 7 6 5 4 3 2 1 0 1 2 16 15 14 13 12 11 10 9 8 7 6 5 4 3 2 1 2 3 17 16 15 14 13 12 11 10 9 8 7 6 5 4 3 2 3 4 
21 20 19 18 17 16 15 14 13 12 11 10 9 8 7 6 5 6 20 19 18 17 16 15 14 13 12 11 10 9 8 7 6 5 4 5 19 18 17 16 15 14 13 12 11 10 9 8 7 6 5 4 3 4 18 17 16 15 14 13 12 11 10 9 8 7 6 5 4 3 2 3 17 16 15 14 13 12 11 10 9 8 7 6 5 4 3 2 1 2 16 15 14 13 12 11 10 9 8 7 6 5 4 3 2 1 0 1 17 16 15 14 13 12 11 10 9 8 7 6 5 4 3 2 1 2 18 17 16 15 14 13 12 11 10 9 8 7 6 5 4 3 2 3 
22 21 20 19 18 17 16 15 14 13 12 11 10 9 8 7 6 5 21 20 19 18 17 16 15 14 13 12 11 10 9 8 7 6 5 4 20 19 18 17 16 15 14 13 12 11 10 9 8 7 6 5 4 3 19 18 17 16 15 14 13 12 11 10 9 8 7 6 5 4 3 2 18 17 16 15 14 13 12 11 10 9 8 7 6 5 4 3 2 1 17 16 15 14 13 12 11 10 9 8 7 6 5 4 3 2 1 0 18 17 16 15 14 13 12 11 10 9 8 7 6 5 4 3 2 1 19 18 17 16 15 14 13 12 11 10 9 8 7 6 5 4 3 2 
6 7 8 9 10 11 12 13 14 15 16 17 18 19 20 21 22 23 5 6 7 8 9 10 11 12 13 14 15 16 17 18 19 20 21 22 4 5 6 7 8 9 10 11 12 13 14 15 16 17 18 19 20 21 3 4 5 6 7 8 9 10 11 12 13 14 15 16 17 18 19 20 2 3 4 5 6 7 8 9 10 11 12 13 14 15 16 17 18 19 1 2 3 4 5 6 7 8 9 10 11 12 13 14 15 16 17 18 0 1 2 3 4 5 6 7 8 9 10 11 12 13 14 15 16 17 1 2 3 4 5 6 7 8 9 10 11 12 13 14 15 16 17 18 
7 6 7 8 9 10 11 12 13 14 15 16 17 18 19 20 21 22 6 5 6 7 8 9 10 11 12 13 14 15 16 17 18 19 20 21 5 4 5 6 7 8 9 10 11 12 13 14 15 16 17 18 19 20 4 3 4 5 6 7 8 9 10 11 12 13 14 15 16 17 18 19 3 2 3 4 5 6 7 8 9 10 11 12 13 14 15 16 17 18 2 1 2 3 4 5 6 7 8 9 10 11 12 13 14 15 16 17 1 0 1 2 3 4 5 6 7 8 9 10 11 12 13 14 15 16 2 1 2 3 4 5 6 7 8 9 10 11 12 13 14 15 16 17 
8 7 6 7 8 9 10 11 12 13 14 15 16 17 18 19 20 21 7 6 5 6 7 8 9 10 11 12 13 14 15 16 17 18 19 20 6 5 4 5 6 7 8 9 10 11 12 13 14 15 16 17 18 19 5 4 3 4 5 6 7 8 9 10 11 12 13 14 15 16 17 18 4 3 2 3 4 5 6 7 8 9 10 11 12 13 14 15 16 17 3 2 1 2 3 4 5 6 7 8 9 10 11 12 13 14 15 16 2 1 0 1 2 3 4 5 6 7 8 9 10 11 12 13 14 15 3 2 1 2 3 4 5 6 7 8 9 10 11 12 13 14 15 16 
9 8 7 6 7 8 9 10 11 12 13 14 15 16 17 18 19 20 8 7 6 5 6 7 8 9 10 11 12 13 14 15 16 17 18 19 7 6 5 4 5 6 7 8 9 10 11 12 13 14 15 16 17 18 6 5 4 3 4 5 6 7 8 9 10 11 12 13 14 15 16 17 5 4 3 2 3 4 5 6 7 8 9 10 11 12 13 14 15 16 4 3 2 1 2 3 4 5 6 7 8 9 10 11 12 13 14 15 3 2 1 0 1 2 3 4 5 6 7 8 9 10 11 12 13 14 4 3 2 1 2 3 4 5 6 7 8 9 10 11 12 13 14 15 
10 9 8 7 6 7 8 9 10 11 12 13 14 15 16 17 18 19 9 8 7 6 5 6 7 8 9 10 11 12 13 14 15 16 17 18 8 7 6 5 4 5 6 7 8 9 10 11 12 13 14 15 16 17 7 6 5 4 3 4 5 6 7 8 9 10 11 12 13 14 15 16 6 5 4 3 2 3 4 5 6 7 8 9 10 11 12 13 14 15 5 4 3 2 1 2 3 4 5 6 7 8 9 10 11 12 13 14 4 3 2 1 0 1 2 3 4 5 6 7 8 9 10 11 12 13 5 4 3 2 1 2 3 4 5 6 7 8 9 10 11 12 13 14 
11 10 9 8 7 6 7 8 9 10 11 12 13 14 15 16 17 18 10 9 8 7 6 5 6 7 8 9 10 11 12 13 14 15 16 17 9 8 7 6 5 4 5 6 7 8 9 10 11 12 13 14 15 16 8 7 6 5 4 3 4 5 6 7 8 9 10 11 12 13 14 15 7 6 5 4 3 2 3 4 5 6 7 8 9 10 11 12 13 14 6 5 4 3 2 1 2 3 4 5 6 7 8 9 10 11 12 13 5 4 3 2 1 0 1 2 3 4 5 6 7 8 9 10 11 12 6 5 4 3 2 1 2 3 4 5 6 7 8 9 10 11 12 13 
12 11 10 9 8 7 6 7 8 9 10 11 12 13 14 15 16 17 11 10 9 8 7 6 5 6 7 8 9 10 11 12 13 14 15 16 10 9 8 7 6 5 4 5 6 7 8 9 10 11 12 13 14 15 9 8 7 6 5 4 3 4 5 6 7 8 9 10 11 12 13 14 8 7 6 5 4 3 2 3 4 5 6 7 8 9 10 11 12 13 7 6 5 4 3 2 1 2 3 4 5 6 7 8 9 10 11 12 6 5 4 3 2 1 0 1 2 3 4 5 6 7 8 9 10 11 7 6 5 4 3 2 1 2 3 4 5 6 7 8 9 10 11 12 
13 12 11 10 9 8 7 6 7 8 9 10 11 12 13 14 15 16 12 11 10 9 8 7 6 5 6 7 8 9 10 11 12 13 14 15 11 10 9 8 7 6 5 4 5 6 7 8 9 10 11 12 13 14 10 9 8 7 6 5 4 3 4 5 6 7 8 9 10 11 12 13 9 8 7 6 5 4 3 2 3 4 5 6 7 8 9 10 11 12 8 7 6 5 4 3 2 1 2 3 4 5 6 7 8 9 10 11 7 6 5 4 3 2 1 0 1 2 3 4 5 6 7 8 9 10 8 7 6 5 4 3 2 1 2 3 4 5 6 7 8 9 10 11 
14 13 12 11 10 9 8 7 6 7 8 9 10 11 12 13 14 15 13 12 11 10 9 8 7 6 5 6 7 8 9 10 11 12 13 14 12 11 10 9 8 7 6 5 4 5 6 7 8 9 10 11 12 13 11 10 9 8 7 6 5 4 3 4 5 6 7 8 9 10 11 12 10 9 8 7 6 5 4 3 2 3 4 5 6 7 8 9 10 11 9 8 7 6 5 4 3 2 1 2 3 4 5 6 7 8 9 10 8 7 6 5 4 3 2 1 0 1 2 3 4 5 6 7 8 9 9 8 7 6 5 4 3 2 1 2 3 4 5 6 7 8 9 10 
15 14 13 12 11 10 9 8 7 6 7 8 9 10 11 12 13 14 14 13 12 11 10 9 8 7 6 5 6 7 8 9 10 11 12 13 13 12 11 10 9 8 7 6 5 4 5 6 7 8 9 10 11 12 12 11 10 9 8 7 6 5 4 3 4 5 6 7 8 9 10 11 11 10 9 8 7 6 5 4 3 2 3 4 5 6 7 8 9 10 10 9 8 7 6 5 4 3 2 1 2 3 4 5 6 7 8 9 9 8 7 6 5 4 3 2 1 0 1 2 3 4 5 6 7 8 10 9 8 7 6 5 4 3 2 1 2 3 4 5 6 7 8 9 
16 15 14 13 12 11 10 9 8 7 6 7 8 9 10 11 12 13 15 14 13 12 11 10 9 8 7 6 5 6 7 8 9 10 11 12 14 13 12 11 10 9 8 7 6 5 4 5 6 7 8 9 10 11 13 12 11 10 9 8 7 6 5 4 3 4 5 6 7 8 9 10 12 11 10 9 8 7 6 5 4 3 2 3 4 5 6 7 8 9 11 10 9 8 7 6 5 4 3 2 1 2 3 4 5 6 7 8 10 9 8 7 6 5 4 3 2 1 0 1 2 3 4 5 6 7 11 10 9 8 7 6 5 4 3 2 1 2 3 4 5 6 7 8 
17 16 15 14 13 12 11 10 9 8 7 6 7 8 9 10 11 12 16 15 14 13 12 11 10 9 8 7 6 5 6 7 8 9 10 11 15 14 13 12 11 10 9 8 7 6 5 4 5 6 7 8 9 10 14 13 12 11 10 9 8 7 6 5 4 3 4 5 6 7 8 9 13 12 11 10 9 8 7 6 5 4 3 2 3 4 5 6 7 8 12 11 10 9 8 7 6 5 4 3 2 1 2 3 4 5 6 7 11 10 9 8 7 6 5 4 3 2 1 0 1 2 3 4 5 6 12 11 10 9 8 7 6 5 4 3 2 1 2 3 4 5 6 7 
18 17 16 15 14 13 12 11 10 9 8 7 6 7 8 9 10 11 17 16 15 14 13 12 11 10 9 8 7 6 5 6 7 8 9 10 16 15 14 13 12 11 10 9 8 7 6 5 4 5 6 7 8 9 15 14 13 12 11 10 9 8 7 6 5 4 3 4 5 6 7 8 14 13 12 11 10 9 8 7 6 5 4 3 2 3 4 5 6 7 13 12 11 10 9 8 7 6 5 4 3 2 1 2 3 4 5 6 12 11 10 9 8 7 6 5 4 3 2 1 0 1 2 3 4 5 13 12 11 10 9 8 7 6 5 4 3 2 1 2 3 4 5 6 
19 18 17 16 15 14 13 12 11 10 9 8 7 6 7 8 9 10 18 17 16 15 14 13 12 11 10 9 8 7 6 5 6 7 8 9 17 16 15 14 13 12 11 10 9 8 7 6 5 4 5 6 7 8 16 15 14 13 12 11 10 9 8 7 6 5 4 3 4 5 6 7 15 14 13 12 11 10 9 8 7 6 5 4 3 2 3 4 5 6 14 13 12 11 10 9 8 7 6 5 4 3 2 1 2 3 4 5 13 12 11 10 9 8 7 6 5 4 3 2 1 0 1 2 3 4 14 13 12 11 10 9 8 7 6 5 4 3 2 1 2 3 4 5 
20 19 18 17 16 15 14 13 12 11 10 9 8 7 6 7 8 9 19 18 17 16 15 14 13 12 11 10 9 8 7 6 5 6 7 8 18 17 16 15 14 13 12 11 10 9 8 7 6 5 4 5 6 7 17 16 15 14 13 12 11 10 9 8 7 6 5 4 3 4 5 6 16 15 14 13 12 11 10 9 8 7 6 5 4 3 2 3 4 5 15 14 13 12 11 10 9 8 7 6 5 4 3 2 1 2 3 4 14 13 12 11 10 9 8 7 6 5 4 3 2 1 0 1 2 3 15 14 13 12 11 10 9 8 7 6 5 4 3 2 1 2 3 4 
21 20 19 18 17 16 15 14 13 12 11 10 9 8 7 6 7 8 20 19 18 17 16 15 14 13 12 11 10 9 8 7 6 5 6 7 19 18 17 16 15 14 13 12 11 10 9 8 7 6 5 4 5 6 18 17 16 15 14 13 12 11 10 9 8 7 6 5 4 3 4 5 17 16 15 14 13 12 11 10 9 8 7 6 5 4 3 2 3 4 16 15 14 13 12 11 10 9 8 7 6 5 4 3 2 1 2 3 15 14 13 12 11 10 9 8 7 6 5 4 3 2 1 0 1 2 16 15 14 13 12 11 10 9 8 7 6 5 4 3 2 1 2 3 
22 21 20 19 18 17 16 15 14 13 12 11 10 9 8 7 6 7 21 20 19 18 17 16 15 14 13 12 11 10 9 8 7 6 5 6 20 19 18 17 16 15 14 13 12 11 10 9 8 7 6 5 4 5 19 18 17 16 15 14 13 12 11 10 9 8 7 6 5 4 3 4 18 17 16 15 14 13 12 11 10 9 8 7 6 5 4 3 2 3 17 16 15 14 13 12 11 10 9 8 7 6 5 4 3 2 1 2 16 15 14 13 12 11 10 9 8 7 6 5 4 3 2 1 0 1 17 16 15 14 13 12 11 10 9 8 7 6 5 4 3 2 1 2 
23 22 21 20 19 18 17 16 15 14 13 12 11 10 9 8 7 6 22 21 20 19 18 17 16 15 14 13 12 11 10 9 8 7 6 5 21 20 19 18 17 16 15 14 13 12 11 10 9 8 7 6 5 4 20 19 18 17 16 15 14 13 12 11 10 9 8 7 6 5 4 3 19 18 17 16 15 14 13 12 11 10 9 8 7 6 5 4 3 2 18 17 16 15 14 13 12 11 10 9 8 7 6 5 4 3 2 1 17 16 15 14 13 12 11 10 9 8 7 6 5 4 3 2 1 0 18 17 16 15 14 13 12 11 10 9 8 7 6 5 4 3 2 1 
7 8 9 10 11 12 13 14 15 16 17 18 19 20 21 22 23 24 6 7 8 9 10 11 12 13 14 15 16 17 18 19 20 21 22 23 5 6 7 8 9 10 11 12 13 14 15 16 17 18 19 20 21 22 4 5 6 7 8 9 10 11 12 13 14 15 16 17 18 19 20 21 3 4 5 6 7 8 9 10 11 12 13 14 15 16 17 18 19 20 2 3 4 5 6 7 8 9 10 11 12 13 14 15 16 17 18 19 1 2 3 4 5 6 7 8 9 10 11 12 13 14 15 16 17 18 0 1 2 3 4 5 6 7 8 9 10 11 12 13 14 15 16 17 
8 7 8 9 10 11 12 13 14 15 16 17 18 19 20 21 22 23 7 6 7 8 9 10 11 12 13 14 15 16 17 18 19 20 21 22 6 5 6 7 8 9 10 11 12 13 14 15 16 17 18 19 20 21 5 4 5 6 7 8 9 10 11 12 13 14 15 16 17 18 19 20 4 3 4 5 6 7 8 9 10 11 12 13 14 15 16 17 18 19 3 2 3 4 5 6 7 8 9 10 11 12 13 14 15 16 17 18 2 1 2 3 4 5 6 7 8 9 10 11 12 13 14 15 16 17 1 0 1 2 3 4 5 6 7 8 9 10 11 12 13 14 15 16 
9 8 7 8 9 10 11 12 13 14 15 16 17 18 19 20 21 22 8 7 6 7 8 9 10 11 12 13 14 15 16 17 18 19 20 21 7 6 5 6 7 8 9 10 11 12 13 14 15 16 17 18 19 20 6 5 4 5 6 7 8 9 10 11 12 13 14 15 16 17 18 19 5 4 3 4 5 6 7 8 9 10 11 12 13 14 15 16 17 18 4 3 2 3 4 5 6 7 8 9 10 11 12 13 14 15 16 17 3 2 1 2 3 4 5 6 7 8 9 10 11 12 13 14 15 16 2 1 0 1 2 3 4 5 6 7 8 9 10 11 12 13 14 15 
10 9 8 7 8 9 10 11 12 13 14 15 16 17 18 19 20 21 9 8 7 6 7 8 9 10 11 12 13 14 15 16 17 18 19 20 8 7 6 5 6 7 8 9 10 11 12 13 14 15 16 17 18 19 7 6 5 4 5 6 7 8 9 10 11 12 13 14 15 16 17 18 6 5 4 3 4 5 6 7 8 9 10 11 12 13 14 15 16 17 5 4 3 2 3 4 5 6 7 8 9 10 11 12 13 14 15 16 4 3 2 1 2 3 4 5 6 7 8 9 10 11 12 13 14 15 3 2 1 0 1 2 3 4 5 6 7 8 9 10 11 12 13 14 
11 10 9 8 7 8 9 10 11 12 13 14 15 16 17 18 19 20 10 9 8 7 6 7 8 9 10 11 12 13 14 15 16 17 18 19 9 8 7 6 5 6 7 8 9 10 11 12 13 14 15 16 17 18 8 7 6 5 4 5 6 7 8 9 10 11 12 13 14 15 16 17 7 6 5 4 3 4 5 6 7 8 9 10 11 12 13 14 15 16 6 5 4 3 2 3 4 5 6 7 8 9 10 11 12 13 14 15 5 4 3 2 1 2 3 4 5 6 7 8 9 10 11 12 13 14 4 3 2 1 0 1 2 3 4 5 6 7 8 9 10 11 12 13 
12 11 10 9 8 7 8 9 10 11 12 13 14 15 16 17 18 19 11 10 9 8 7 6 7 8 9 10 11 12 13 14 15 16 17 18 10 9 8 7 6 5 6 7 8 9 10 11 12 13 14 15 16 17 9 8 7 6 5 4 5 6 7 8 9 10 11 12 13 14 15 16 8 7 6 5 4 3 4 5 6 7 8 9 10 11 12 13 14 15 7 6 5 4 3 2 3 4 5 6 7 8 9 10 11 12 13 14 6 5 4 3 2 1 2 3 4 5 6 7 8 9 10 11 12 13 5 4 3 2 1 0 1 2 3 4 5 6 7 8 9 10 11 12 
13 12 11 10 9 8 7 8 9 10 11 12 13 14 15 16 17 18 12 11 10 9 8 7 6 7 8 9 10 11 12 13 14 15 16 17 11 10 9 8 7 6 5 6 7 8 9 10 11 12 13 14 15 16 10 9 8 7 6 5 4 5 6 7 8 9 10 11 12 13 14 15 9 8 7 6 5 4 3 4 5 6 7 8 9 10 11 12 13 14 8 7 6 5 4 3 2 3 4 5 6 7 8 9 10 11 12 13 7 6 5 4 3 2 1 2 3 4 5 6 7 8 9 10 11 12 6 5 4 3 2 1 0 1 2 3 4 5 6 7 8 9 10 11 
14 13 12 11 10 9 8 7 8 9 10 11 12 13 14 15 16 17 13 12 11 10 9 8 7 6 7 8 9 10 11 12 13 14 15 16 12 11 10 9 8 7 6 5 6 7 8 9 10 11 12 13 14 15 11 10 9 8 7 6 5 4 5 6 7 8 9 10 11 12 13 14 10 9 8 7 6 5 4 3 4 5 6 7 8 9 10 11 12 13 9 8 7 6 5 4 3 2 3 4 5 6 7 8 9 10 11 12 8 7 6 5 4 3 2 1 2 3 4 5 6 7 8 9 10 11 7 6 5 4 3 2 1 0 1 2 3 4 5 6 7 8 9 10 
15 14 13 12 11 10 9 8 7 8 9 10 11 12 13 14 15 16 14 13 12 11 10 9 8 7 6 7 8 9 10 11 12 13 14 15 13 12 11 10 9 8 7 6 5 6 7 8 9 10 11 12 13 14 12 11 10 9 8 7 6 5 4 5 6 7 8 9 10 11 12 13 11 10 9 8 7 6 5 4 3 4 5 6 7 8 9 10 11 12 10 9 8 7 6 5 4 3 2 3 4 5 6 7 8 9 10 11 9 8 7 6 5 4 3 2 1 2 3 4 5 6 7 8 9 10 8 7 6 5 4 3 2 1 0 1 2 3 4 5 6 7 8 9 
16 15 14 13 12 11 10 9 8 7 8 9 10 11 12 13 14 15 15 14 13 12 11 10 9 8 7 6 7 8 9 10 11 12 13 14 14 13 12 11 10 9 8 7 6 5 6 7 8 9 10 11 12 13 13 12 11 10 9 8 7 6 5 4 5 6 7 8 9 10 11 12 12 11 10 9 8 7 6 5 4 3 4 5 6 7 8 9 10 11 11 10 9 8 7 6 5 4 3 2 3 4 5 6 7 8 9 10 10 9 8 7 6 5 4 3 2 1 2 3 4 5 6 7 8 9 9 8 7 6 5 4 3 2 1 0 1 2 3 4 5 6 7 8 
17 16 15 14 13 12 11 10 9 8 7 8 9 10 11 12 13 14 16 15 14 13 12 11 10 9 8 7 6 7 8 9 10 11 12 13 15 14 13 12 11 10 9 8 7 6 5 6 7 8 9 10 11 12 14 13 12 11 10 9 8 7 6 5 4 5 6 7 8 9 10 11 13 12 11 10 9 8 7 6 5 4 3 4 5 6 7 8 9 10 12 11 10 9 8 7 6 5 4 3 2 3 4 5 6 7 8 9 11 10 9 8 7 6 5 4 3 2 1 2 3 4 5 6 7 8 10 9 8 7 6 5 4 3 2 1 0 1 2 3 4 5 6 7 
18 17 16 15 14 13 12 11 10 9 8 7 8 9 10 11 12 13 17 16 15 14 13 12 11 10 9 8 7 6 7 8 9 10 11 12 16 15 14 13 12 11 10 9 8 7 6 5 6 7 8 9 10 11 15 14 13 12 11 10 9 8 7 6 5 4 5 6 7 8 9 10 14 13 12 11 10 9 8 7 6 5 4 3 4 5 6 7 8 9 13 12 11 10 9 8 7 6 5 4 3 2 3 4 5 6 7 8 12 11 10 9 8 7 6 5 4 3 2 1 2 3 4 5 6 7 11 10 9 8 7 6 5 4 3 2 1 0 1 2 3 4 5 6 
19 18 17 16 15 14 13 12 11 10 9 8 7 8 9 10 11 12 18 17 16 15 14 13 12 11 10 9 8 7 6 7 8 9 10 11 17 16 15 14 13 12 11 10 9 8 7 6 5 6 7 8 9 10 16 15 14 13 12 11 10 9 8 7 6 5 4 5 6 7 8 9 15 14 13 12 11 10 9 8 7 6 5 4 3 4 5 6 7 8 14 13 12 11 10 9 8 7 6 5 4 3 2 3 4 5 6 7 13 12 11 10 9 8 7 6 5 4 3 2 1 2 3 4 5 6 12 11 10 9 8 7 6 5 4 3 2 1 0 1 2 3 4 5 
20 19 18 17 16 15 14 13 12 11 10 9 8 7 8 9 10 11 19 18 17 16 15 14 13 12 11 10 9 8 7 6 7 8 9 10 18 17 16 15 14 13 12 11 10 9 8 7 6 5 6 7 8 9 17 16 15 14 13 12 11 10 9 8 7 6 5 4 5 6 7 8 16 15 14 13 12 11 10 9 8 7 6 5 4 3 4 5 6 7 15 14 13 12 11 10 9 8 7 6 5 4 3 2 3 4 5 6 14 13 12 11 10 9 8 7 6 5 4 3 2 1 2 3 4 5 13 12 11 10 9 8 7 6 5 4 3 2 1 0 1 2 3 4 
21 20 19 18 17 16 15 14 13 12 11 10 9 8 7 8 9 10 20 19 18 17 16 15 14 13 12 11 10 9 8 7 6 7 8 9 19 18 17 16 15 14 13 12 11 10 9 8 7 6 5 6 7 8 18 17 16 15 14 13 12 11 10 9 8 7 6 5 4 5 6 7 17 16 15 14 13 12 11 10 9 8 7 6 5 4 3 4 5 6 16 15 14 13 12 11 10 9 8 7 6 5 4 3 2 3 4 5 15 14 13 12 11 10 9 8 7 6 5 4 3 2 1 2 3 4 14 13 12 11 10 9 8 7 6 5 4 3 2 1 0 1 2 3 
22 21 20 19 18 17 16 15 14 13 12 11 10 9 8 7 8 9 21 20 19 18 17 16 15 14 13 12 11 10 9 8 7 6 7 8 20 19 18 17 16 15 14 13 12 11 10 9 8 7 6 5 6 7 19 18 17 16 15 14 13 12 11 10 9 8 7 6 5 4 5 6 18 17 16 15 14 13 12 11 10 9 8 7 6 5 4 3 4 5 17 16 15 14 13 12 11 10 9 8 7 6 5 4 3 2 3 4 16 15 14 13 12 11 10 9 8 7 6 5 4 3 2 1 2 3 15 14 13 12 11 10 9 8 7 6 5 4 3 2 1 0 1 2 
23 22 21 20 19 18 17 16 15 14 13 12 11 10 9 8 7 8 22 21 20 19 18 17 16 15 14 13 12 11 10 9 8 7 6 7 21 20 19 18 17 16 15 14 13 12 11 10 9 8 7 6 5 6 20 19 18 17 16 15 14 13 12 11 10 9 8 7 6 5 4 5 19 18 17 16 15 14 13 12 11 10 9 8 7 6 5 4 3 4 18 17 16 15 14 13 12 11 10 9 8 7 6 5 4 3 2 3 17 16 15 14 13 12 11 10 9 8 7 6 5 4 3 2 1 2 16 15 14 13 12 11 10 9 8 7 6 5 4 3 2 1 0 1 
24 23 22 21 20 19 18 17 16 15 14 13 12 11 10 9 8 7 23 22 21 20 19 18 17 16 15 14 13 12 11 10 9 8 7 6 22 21 20 19 18 17 16 15 14 13 12 11 10 9 8 7 6 5 21 20 19 18 17 16 15 14 13 12 11 10 9 8 7 6 5 4 20 19 18 17 16 15 14 13 12 11 10 9 8 7 6 5 4 3 19 18 17 16 15 14 13 12 11 10 9 8 7 6 5 4 3 2 18 17 16 15 14 13 12 11 10 9 8 7 6 5 4 3 2 1 17 16 15 14 13 12 11 10 9 8 7 6 5 4 3 2 1 0 

0 0 0 0 0 0 0 2 0 0 0 0 0 0 0 0 0 0 0 0 0 0 0 0 0 0 0 0 0 0 0 0 0 0 0 0 0 0 0 0 0 0 0 0 0 0 0 0 0 0 0 0 0 0 0 0 0 0 0 0 0 0 0 0 0 0 0 0 0 0 0 0 0 0 0 0 0 0 0 0 0 0 0 0 0 0 0 0 0 0 0 0 0 0 0 0 0 0 0 0 0 0 0 0 0 0 0 0 0 0 0 0 0 0 0 0 0 0 0 0 0 0 0 0 0 0 0 0 0 0 0 0 0 0 0 0 0 0 0 0 0 0 0 0 
0 0 0 64 0 0 0 0 0 0 0 0 0 0 0 0 0 0 0 0 0 0 0 0 0 0 0 0 0 0 0 0 0 0 0 0 0 0 0 0 0 0 0 0 0 0 0 0 0 0 0 0 0 0 0 0 0 0 0 0 0 0 0 0 0 0 0 0 0 0 0 0 0 0 0 0 0 0 0 0 0 0 0 0 0 0 0 0 0 0 0 0 0 0 0 0 0 0 0 0 0 0 0 0 0 0 0 0 0 0 0 0 0 0 0 0 0 0 0 0 0 0 0 0 0 0 0 0 0 0 0 0 0 0 0 0 0 0 0 0 0 0 0 0 
0 0 0 128 0 0 0 0 0 0 0 0 0 0 0 0 0 0 0 0 0 0 0 0 0 0 0 0 0 0 0 0 0 0 0 0 0 0 0 0 0 0 0 0 0 0 0 0 0 0 0 0 0 0 0 0 0 0 0 0 0 0 0 0 0 0 0 0 0 0 0 0 0 0 0 0 0 0 0 0 0 0 0 0 0 0 0 0 0 0 0 0 0 0 0 0 0 0 0 0 0 0 0 0 0 0 0 0 0 0 0 0 0 0 0 0 0 0 0 0 0 0 0 0 0 0 0 0 0 0 0 0 0 0 0 0 0 0 0 0 0 0 0 0 
0 64 128 0 64 64 0 0 128 0 0 0 0 0 0 0 0 0 0 0 0 0 0 0 0 0 0 0 0 0 0 0 0 0 0 0 0 0 0 0 0 0 0 0 0 0 0 0 0 0 0 0 0 0 0 0 0 0 0 0 0 0 0 0 0 0 0 0 0 0 0 0 0 0 0 0 0 0 0 0 0 0 0 0 0 0 0 0 0 0 0 0 0 0 0 0 0 0 0 0 0 0 0 0 0 0 0 0 0 0 0 0 0 0 0 0 0 0 0 0 0 0 0 0 0 0 0 0 0 0 0 0 0 0 0 0 0 0 0 0 0 0 0 0 
0 0 0 64 0 0 0 0 0 0 0 0 0 0 0 0 0 0 0 0 0 0 0 0 0 0 0 0 0 0 0 0 0 0 0 0 0 0 0 0 0 0 0 0 0 0 0 0 0 0 0 0 0 0 0 0 0 0 0 0 0 0 0 0 0 0 0 0 0 0 0 0 0 0 0 0 0 0 0 0 0 0 0 0 0 0 0 0 0 0 0 0 0 0 0 0 0 0 0 0 0 0 0 0 0 0 0 0 0 0 0 0 0 0 0 0 0 0 0 0 0 0 0 0 0 0 0 0 0 0 0 0 0 0 0 0 0 0 0 0 0 0 0 0 
0 0 0 64 0 0 0 0 64 0 0 0 0 0 0 0 0 0 0 0 0 0 0 0 0 0 0 0 0 0 0 0 0 0 0 0 0 0 0 0 0 0 0 0 0 0 0 0 0 0 0 0 0 0 0 0 0 0 0 0 0 0 0 0 0 0 0 0 0 0 0 0 0 0 0 0 0 0 0 0 0 0 0 0 0 0 0 0 0 0 0 0 0 0 0 0 0 0 0 0 0 0 0 0 0 0 0 0 0 0 0 0 0 0 0 0 0 0 0 0 0 0 0 0 0 0 0 0 0 0 0 0 0 0 0 0 0 0 0 0 0 0 0 0 
0 0 0 0 0 0 0 64 0 0 0 0 0 0 0 0 0 0 0 0 0 0 0 0 0 0 0 0 0 0 0 0 0 0 0 0 0 0 0 0 0 0 0 0 0 0 0 0 0 0 0 0 0 0 0 0 0 0 0 0 0 0 0 0 0 0 0 0 0 0 0 0 0 0 0 0 0 0 0 0 0 0 0 0 0 0 0 0 0 0 0 0 0 0 0 0 0 0 0 0 0 0 0 0 0 0 0 0 0 0 0 0 0 0 0 0 0 0 0 0 0 0 0 0 0 0 0 0 0 0 0 0 0 0 0 0 0 0 0 0 0 0 0 0 
2 0 0 0 0 0 64 0 128 0 0 0 0 0 0 0 0 0 0 0 0 0 0 0 0 0 0 0 0 0 0 0 0 0 0 0 0 0 0 0 0 0 0 0 0 0 0 0 0 0 0 0 0 0 0 0 0 0 0 0 0 0 0 0 0 0 0 0 0 0 0 0 0 0 0 0 0 0 0 0 0 0 0 0 0 0 0 0 0 0 0 0 0 0 0 0 0 0 0 0 0 0 0 0 0 0 0 0 0 0 0 0 0 0 0 0 0 0 0 0 0 0 0 0 0 0 0 0 0 0 0 0 0 0 0 0 0 0 0 0 0 0 0 0 
0 0 0 128 0 64 0 128 0 64 0 0 0 0 0 0 0 0 0 0 0 0 0 0 0 0 0 0 0 0 0 0 0 0 0 0 0 0 0 0 0 0 0 0 0 0 0 0 0 0 0 0 0 0 0 0 0 0 0 0 0 0 0 0 0 0 0 0 0 0 0 0 0 0 0 0 0 0 0 0 0 0 0 0 0 0 0 0 0 0 0 0 0 0 0 0 0 0 0 0 0 0 0 0 0 0 0 0 0 0 0 0 0 0 0 0 0 0 0 0 0 0 0 0 0 0 0 0 0 0 0 0 0 0 0 0 0 0 0 0 0 0 0 0 
0 0 0 0 0 0 0 0 64 0 0 0 0 0 0 0 0 0 0 0 0 0 0 0 0 0 0 0 0 0 0 0 0 0 0 0 0 0 0 0 0 0 0 0 0 0 0 0 0 0 0 0 0 0 0 0 0 0 0 0 0 0 0 0 0 0 0 0 0 0 0 0 0 0 0 0 0 0 0 0 0 0 0 0 0 0 0 0 0 0 0 0 0 0 0 0 0 0 0 0 0 0 0 0 0 0 0 0 0 0 0 0 0 0 0 0 0 0 0 0 0 0 0 0 0 0 0 0 0 0 0 0 0 0 0 0 0 0 0 0 0 0 0 0 
0 0 0 0 0 0 0 0 0 0 0 0 0 0 0 0 0 0 0 0 0 0 0 0 0 0 0 0 0 0 0 0 0 0 0 0 0 0 0 0 0 0 0 0 0 0 0 0 0 0 0 0 0 0 0 0 0 0 0 0 0 0 0 0 0 0 0 0 0 0 0 0 0 0 0 0 0 0 0 0 0 0 0 0 0 0 0 0 0 0 0 0 0 0 0 0 0 0 0 0 0 0 0 0 0 0 0 0 0 0 0 0 0 0 0 0 0 0 0 0 0 0 0 0 0 0 0 0 0 0 0 0 0 0 0 0 0 0 0 0 0 0 0 0 
0 0 0 0 0 0 0 0 0 0 0 0 0 0 0 0 0 0 0 0 0 0 0 0 0 0 0 0 0 0 0 0 0 0 0 0 0 0 0 0 0 0 0 0 0 0 0 0 0 0 0 0 0 0 0 0 0 0 0 0 0 0 0 0 0 0 0 0 0 0 0 0 0 0 0 0 0 0 0 0 0 0 0 0 0 0 0 0 0 0 0 0 0 0 0 0 0 0 0 0 0 0 0 0 0 0 0 0 0 0 0 0 0 0 0 0 0 0 0 0 0 0 0 0 0 0 0 0 0 0 0 0 0 0 0 0 0 0 0 0 0 0 0 0 
0 0 0 0 0 0 0 0 0 0 0 0 0 0 0 0 0 0 0 0 0 0 0 0 0 0 0 0 0 0 0 0 0 0 0 0 0 0 0 0 0 0 0 0 0 0 0 0 0 0 0 0 0 0 0 0 0 0 0 0 0 0 0 0 0 0 0 0 0 0 0 0 0 0 0 0 0 0 0 0 0 0 0 0 0 0 0 0 0 0 0 0 0 0 0 0 0 0 0 0 0 0 0 0 0 0 0 0 0 0 0 0 0 0 0 0 0 0 0 0 0 0 0 0 0 0 0 0 0 0 0 0 0 0 0 0 0 0 0 0 0 0 0 0 
0 0 0 0 0 0 0 0 0 0 0 0 0 0 0 0 0 0 0 0 0 0 0 0 0 0 0 0 0 0 0 0 0 0 0 0 0 0 0 0 0 0 0 0 0 0 0 0 0 0 0 0 0 0 0 0 0 0 0 0 0 0 0 0 0 0 0 0 0 0 0 0 0 0 0 0 0 0 0 0 0 0 0 0 0 0 0 0 0 0 0 0 0 0 0 0 0 0 0 0 0 0 0 0 0 0 0 0 0 0 0 0 0 0 0 0 0 0 0 0 0 0 0 0 0 0 0 0 0 0 0 0 0 0 0 0 0 0 0 0 0 0 0 0 
0 0 0 0 0 0 0 0 0 0 0 0 0 0 0 0 0 0 0 0 0 0 0 0 0 0 0 0 0 0 0 0 0 0 0 0 0 0 0 0 0 0 0 0 0 0 0 0 0 0 0 0 0 0 0 0 0 0 0 0 0 0 0 0 0 0 0 0 0 0 0 0 0 0 0 0 0 0 0 0 0 0 0 0 0 0 0 0 0 0 0 0 0 0 0 0 0 0 0 0 0 0 0 0 0 0 0 0 0 0 0 0 0 0 0 0 0 0 0 0 0 0 0 0 0 0 0 0 0 0 0 0 0 0 0 0 0 0 0 0 0 0 0 0 
0 0 0 0 0 0 0 0 0 0 0 0 0 0 0 0 0 0 0 0 0 0 0 0 0 0 0 0 0 0 0 0 0 0 0 0 0 0 0 0 0 0 0 0 0 0 0 0 0 0 0 0 0 0 0 0 0 0 0 0 0 0 0 0 0 0 0 0 0 0 0 0 0 0 0 0 0 0 0 0 0 0 0 0 0 0 0 0 0 0 0 0 0 0 0 0 0 0 0 0 0 0 0 0 0 0 0 0 0 0 0 0 0 0 0 0 0 0 0 0 0 0 0 0 0 0 0 0 0 0 0 0 0 0 0 0 0 0 0 0 0 0 0 0 
0 0 0 0 0 0 0 0 0 0 0 0 0 0 0 0 0 0 0 0 0 0 0 0 0 0 0 0 0 0 0 0 0 0 0 0 0 0 0 0 0 0 0 0 0 0 0 0 0 0 0 0 0 0 0 0 0 0 0 0 0 0 0 0 0 0 0 0 0 0 0 0 0 0 0 0 0 0 0 0 0 0 0 0 0 0 0 0 0 0 0 0 0 0 0 0 0 0 0 0 0 0 0 0 0 0 0 0 0 0 0 0 0 0 0 0 0 0 0 0 0 0 0 0 0 0 0 0 0 0 0 0 0 0 0 0 0 0 0 0 0 0 0 0 
0 0 0 0 0 0 0 0 0 0 0 0 0 0 0 0 0 0 0 0 0 0 0 0 0 0 0 0 0 0 0 0 0 0 0 0 0 0 0 0 0 0 0 0 0 0 0 0 0 0 0 0 0 0 0 0 0 0 0 0 0 0 0 0 0 0 0 0 0 0 0 0 0 0 0 0 0 0 0 0 0 0 0 0 0 0 0 0 0 0 0 0 0 0 0 0 0 0 0 0 0 0 0 0 0 0 0 0 0 0 0 0 0 0 0 0 0 0 0 0 0 0 0 0 0 0 0 0 0 0 0 0 0 0 0 0 0 0 0 0 0 0 0 0 
0 0 0 0 0 0 0 0 0 0 0 0 0 0 0 0 0 0 0 0 0 0 0 0 0 0 0 0 0 0 0 0 0 0 0 0 0 0 0 0 0 0 0 0 0 0 0 0 0 0 0 0 0 0 0 0 0 0 0 0 0 0 0 0 0 0 0 0 0 0 0 0 0 0 0 0 0 0 0 0 0 0 0 0 0 0 0 0 0 0 0 0 0 0 0 0 0 0 0 0 0 0 0 0 0 0 0 0 0 0 0 0 0 0 0 0 0 0 0 0 0 0 0 0 0 0 0 0 0 0 0 0 0 0 0 0 0 0 0 0 0 0 0 0 
0 0 0 0 0 0 0 0 0 0 0 0 0 0 0 0 0 0 0 0 0 0 0 0 0 0 0 0 0 0 0 0 0 0 0 0 0 0 0 0 0 0 0 0 0 0 0 0 0 0 0 0 0 0 0 0 0 0 0 0 0 0 0 0 0 0 0 0 0 0 0 0 0 0 0 0 0 0 0 0 0 0 0 0 0 0 0 0 0 0 0 0 0 0 0 0 0 0 0 0 0 0 0 0 0 0 0 0 0 0 0 0 0 0 0 0 0 0 0 0 0 0 0 0 0 0 0 0 0 0 0 0 0 0 0 0 0 0 0 0 0 0 0 0 
0 0 0 0 0 0 0 0 0 0 0 0 0 0 0 0 0 0 0 0 0 0 0 0 0 0 0 0 0 0 0 0 0 0 0 0 0 0 0 0 0 0 0 0 0 0 0 0 0 0 0 0 0 0 0 0 0 0 0 0 0 0 0 0 0 0 0 0 0 0 0 0 0 0 0 0 0 0 0 0 0 0 0 0 0 0 0 0 0 0 0 0 0 0 0 0 0 0 0 0 0 0 0 0 0 0 0 0 0 0 0 0 0 0 0 0 0 0 0 0 0 0 0 0 0 0 0 0 0 0 0 0 0 0 0 0 0 0 0 0 0 0 0 0 
0 0 0 0 0 0 0 0 0 0 0 0 0 0 0 0 0 0 0 0 0 0 0 0 0 0 0 0 0 0 0 0 0 0 0 0 0 0 0 0 0 0 0 0 0 0 0 0 0 0 0 0 0 0 0 0 0 0 0 0 0 0 0 0 0 0 0 0 0 0 0 0 0 0 0 0 0 0 0 0 0 0 0 0 0 0 0 0 0 0 0 0 0 0 0 0 0 0 0 0 0 0 0 0 0 0 0 0 0 0 0 0 0 0 0 0 0 0 0 0 0 0 0 0 0 0 0 0 0 0 0 0 0 0 0 0 0 0 0 0 0 0 0 0 
0 0 0 0 0 0 0 0 0 0 0 0 0 0 0 0 0 0 0 0 0 0 0 0 0 0 0 0 0 0 0 0 0 0 0 0 0 0 0 0 0 0 0 0 0 0 0 0 0 0 0 0 0 0 0 0 0 0 0 0 0 0 0 0 0 0 0 0 0 0 0 0 0 0 0 0 0 0 0 0 0 0 0 0 0 0 0 0 0 0 0 0 0 0 0 0 0 0 0 0 0 0 0 0 0 0 0 0 0 0 0 0 0 0 0 0 0 0 0 0 0 0 0 0 0 0 0 0 0 0 0 0 0 0 0 0 0 0 0 0 0 0 0 0 
0 0 0 0 0 0 0 0 0 0 0 0 0 0 0 0 0 0 0 0 0 0 0 0 0 0 0 0 0 0 0 0 0 0 0 0 0 0 0 0 0 0 0 0 0 0 0 0 0 0 0 0 0 0 0 0 0 0 0 0 0 0 0 0 0 0 0 0 0 0 0 0 0 0 0 0 0 0 0 0 0 0 0 0 0 0 0 0 0 0 0 0 0 0 0 0 0 0 0 0 0 0 0 0 0 0 0 0 0 0 0 0 0 0 0 0 0 0 0 0 0 0 0 0 0 0 0 0 0 0 0 0 0 0 0 0 0 0 0 0 0 0 0 0 
0 0 0 0 0 0 0 0 0 0 0 0 0 0 0 0 0 0 0 0 0 0 0 0 0 0 0 0 0 0 0 0 0 0 0 0 0 0 0 0 0 0 0 0 0 0 0 0 0 0 0 0 0 0 0 0 0 0 0 0 0 0 0 0 0 0 0 0 0 0 0 0 0 0 0 0 0 0 0 0 0 0 0 0 0 0 0 0 0 0 0 0 0 0 0 0 0 0 0 0 0 0 0 0 0 0 0 0 0 0 0 0 0 0 0 0 0 0 0 0 0 0 0 0 0 0 0 0 0 0 0 0 0 0 0 0 0 0 0 0 0 0 0 0 
0 0 0 0 0 0 0 0 0 0 0 0 0 0 0 0 0 0 0 0 0 0 0 0 0 0 0 0 0 0 0 0 0 0 0 0 0 0 0 0 0 0 0 0 0 0 0 0 0 0 0 0 0 0 0 0 0 0 0 0 0 0 0 0 0 0 0 0 0 0 0 0 0 0 0 0 0 0 0 0 0 0 0 0 0 0 0 0 0 0 0 0 0 0 0 0 0 0 0 0 0 0 0 0 0 0 0 0 0 0 0 0 0 0 0 0 0 0 0 0 0 0 0 0 0 0 0 0 0 0 0 0 0 0 0 0 0 0 0 0 0 0 0 0 
0 0 0 0 0 0 0 0 0 0 0 0 0 0 0 0 0 0 0 0 0 0 0 0 0 0 0 0 0 0 0 0 0 0 0 0 0 0 0 0 0 0 0 0 0 0 0 0 0 0 0 0 0 0 0 0 0 0 0 0 0 0 0 0 0 0 0 0 0 0 0 0 0 0 0 0 0 0 0 0 0 0 0 0 0 0 0 0 0 0 0 0 0 0 0 0 0 0 0 0 0 0 0 0 0 0 0 0 0 0 0 0 0 0 0 0 0 0 0 0 0 0 0 0 0 0 0 0 0 0 0 0 0 0 0 0 0 0 0 0 0 0 0 0 
0 0 0 0 0 0 0 0 0 0 0 0 0 0 0 0 0 0 0 0 0 0 0 0 0 0 0 0 0 0 0 0 0 0 0 0 0 0 0 0 0 0 0 0 0 0 0 0 0 0 0 0 0 0 0 0 0 0 0 0 0 0 0 0 0 0 0 0 0 0 0 0 0 0 0 0 0 0 0 0 0 0 0 0 0 0 0 0 0 0 0 0 0 0 0 0 0 0 0 0 0 0 0 0 0 0 0 0 0 0 0 0 0 0 0 0 0 0 0 0 0 0 0 0 0 0 0 0 0 0 0 0 0 0 0 0 0 0 0 0 0 0 0 0 
0 0 0 0 0 0 0 0 0 0 0 0 0 0 0 0 0 0 0 0 0 0 0 0 0 0 0 0 0 0 0 0 0 0 0 0 0 0 0 0 0 0 0 0 0 0 0 0 0 0 0 0 0 0 0 0 0 0 0 0 0 0 0 0 0 0 0 0 0 0 0 0 0 0 0 0 0 0 0 0 0 0 0 0 0 0 0 0 0 0 0 0 0 0 0 0 0 0 0 0 0 0 0 0 0 0 0 0 0 0 0 0 0 0 0 0 0 0 0 0 0 0 0 0 0 0 0 0 0 0 0 0 0 0 0 0 0 0 0 0 0 0 0 0 
0 0 0 0 0 0 0 0 0 0 0 0 0 0 0 0 0 0 0 0 0 0 0 0 0 0 0 0 0 0 0 0 0 0 0 0 0 0 0 0 0 0 0 0 0 0 0 0 0 0 0 0 0 0 0 0 0 0 0 0 0 0 0 0 0 0 0 0 0 0 0 0 0 0 0 0 0 0 0 0 0 0 0 0 0 0 0 0 0 0 0 0 0 0 0 0 0 0 0 0 0 0 0 0 0 0 0 0 0 0 0 0 0 0 0 0 0 0 0 0 0 0 0 0 0 0 0 0 0 0 0 0 0 0 0 0 0 0 0 0 0 0 0 0 
0 0 0 0 0 0 0 0 0 0 0 0 0 0 0 0 0 0 0 0 0 0 0 0 0 0 0 0 0 0 0 0 0 0 0 0 0 0 0 0 0 0 0 0 0 0 0 0 0 0 0 0 0 0 0 0 0 0 0 0 0 0 0 0 0 0 0 0 0 0 0 0 0 0 0 0 0 0 0 0 0 0 0 0 0 0 0 0 0 0 0 0 0 0 0 0 0 0 0 0 0 0 0 0 0 0 0 0 0 0 0 0 0 0 0 0 0 0 0 0 0 0 0 0 0 0 0 0 0 0 0 0 0 0 0 0 0 0 0 0 0 0 0 0 
0 0 0 0 0 0 0 0 0 0 0 0 0 0 0 0 0 0 0 0 0 0 0 0 0 0 0 0 0 0 0 0 0 0 0 0 0 0 0 0 0 0 0 0 0 0 0 0 0 0 0 0 0 0 0 0 0 0 0 0 0 0 0 0 0 0 0 0 0 0 0 0 0 0 0 0 0 0 0 0 0 0 0 0 0 0 0 0 0 0 0 0 0 0 0 0 0 0 0 0 0 0 0 0 0 0 0 0 0 0 0 0 0 0 0 0 0 0 0 0 0 0 0 0 0 0 0 0 0 0 0 0 0 0 0 0 0 0 0 0 0 0 0 0 
0 0 0 0 0 0 0 0 0 0 0 0 0 0 0 0 0 0 0 0 0 0 0 0 0 0 0 0 0 0 0 0 0 0 0 0 0 0 0 0 0 0 0 0 0 0 0 0 0 0 0 0 0 0 0 0 0 0 0 0 0 0 0 0 0 0 0 0 0 0 0 0 0 0 0 0 0 0 0 0 0 0 0 0 0 0 0 0 0 0 0 0 0 0 0 0 0 0 0 0 0 0 0 0 0 0 0 0 0 0 0 0 0 0 0 0 0 0 0 0 0 0 0 0 0 0 0 0 0 0 0 0 0 0 0 0 0 0 0 0 0 0 0 0 
0 0 0 0 0 0 0 0 0 0 0 0 0 0 0 0 0 0 0 0 0 0 0 0 0 0 0 0 0 0 0 0 0 0 0 0 0 0 0 0 0 0 0 0 0 0 0 0 0 0 0 0 0 0 0 0 0 0 0 0 0 0 0 0 0 0 0 0 0 0 0 0 0 0 0 0 0 0 0 0 0 0 0 0 0 0 0 0 0 0 0 0 0 0 0 0 0 0 0 0 0 0 0 0 0 0 0 0 0 0 0 0 0 0 0 0 0 0 0 0 0 0 0 0 0 0 0 0 0 0 0 0 0 0 0 0 0 0 0 0 0 0 0 0 
0 0 0 0 0 0 0 0 0 0 0 0 0 0 0 0 0 0 0 0 0 0 0 0 0 0 0 0 0 0 0 0 0 0 0 0 0 0 0 0 0 0 0 0 0 0 0 0 0 0 0 0 0 0 0 0 0 0 0 0 0 0 0 0 0 0 0 0 0 0 0 0 0 0 0 0 0 0 0 0 0 0 0 0 0 0 0 0 0 0 0 0 0 0 0 0 0 0 0 0 0 0 0 0 0 0 0 0 0 0 0 0 0 0 0 0 0 0 0 0 0 0 0 0 0 0 0 0 0 0 0 0 0 0 0 0 0 0 0 0 0 0 0 0 
0 0 0 0 0 0 0 0 0 0 0 0 0 0 0 0 0 0 0 0 0 0 0 0 0 0 0 0 0 0 0 0 0 0 0 0 0 0 0 0 0 0 0 0 0 0 0 0 0 0 0 0 0 0 0 0 0 0 0 0 0 0 0 0 0 0 0 0 0 0 0 0 0 0 0 0 0 0 0 0 0 0 0 0 0 0 0 0 0 0 0 0 0 0 0 0 0 0 0 0 0 0 0 0 0 0 0 0 0 0 0 0 0 0 0 0 0 0 0 0 0 0 0 0 0 0 0 0 0 0 0 0 0 0 0 0 0 0 0 0 0 0 0 0 
0 0 0 0 0 0 0 0 0 0 0 0 0 0 0 0 0 0 0 0 0 0 0 0 0 0 0 0 0 0 0 0 0 0 0 0 0 0 0 0 0 0 0 0 0 0 0 0 0 0 0 0 0 0 0 0 0 0 0 0 0 0 0 0 0 0 0 0 0 0 0 0 0 0 0 0 0 0 0 0 0 0 0 0 0 0 0 0 0 0 0 0 0 0 0 0 0 0 0 0 0 0 0 0 0 0 0 0 0 0 0 0 0 0 0 0 0 0 0 0 0 0 0 0 0 0 0 0 0 0 0 0 0 0 0 0 0 0 0 0 0 0 0 0 
0 0 0 0 0 0 0 0 0 0 0 0 0 0 0 0 0 0 0 0 0 0 0 0 0 0 0 0 0 0 0 0 0 0 0 0 0 0 0 0 0 0 0 0 0 0 0 0 0 0 0 0 0 0 0 0 0 0 0 0 0 0 0 0 0 0 0 0 0 0 0 0 0 0 0 0 0 0 0 0 0 0 0 0 0 0 0 0 0 0 0 0 0 0 0 0 0 0 0 0 0 0 0 0 0 0 0 0 0 0 0 0 0 0 0 0 0 0 0 0 0 0 0 0 0 0 0 0 0 0 0 0 0 0 0 0 0 0 0 0 0 0 0 0 
0 0 0 0 0 0 0 0 0 0 0 0 0 0 0 0 0 0 0 0 0 0 0 0 0 0 0 0 0 0 0 0 0 0 0 0 0 0 0 0 0 0 0 0 0 0 0 0 0 0 0 0 0 0 0 0 0 0 0 0 0 0 0 0 0 0 0 0 0 0 0 0 0 0 0 0 0 0 0 0 0 0 0 0 0 0 0 0 0 0 0 0 0 0 0 0 0 0 0 0 0 0 0 0 0 0 0 0 0 0 0 0 0 0 0 0 0 0 0 0 0 0 0 0 0 0 0 0 0 0 0 0 0 0 0 0 0 0 0 0 0 0 0 0 
0 0 0 0 0 0 0 0 0 0 0 0 0 0 0 0 0 0 0 0 0 0 0 0 0 0 0 0 0 0 0 0 0 0 0 0 0 0 0 0 0 0 0 0 0 0 0 0 0 0 0 0 0 0 0 0 0 0 0 0 0 0 0 0 0 0 0 0 0 0 0 0 0 0 0 0 0 0 0 0 0 0 0 0 0 0 0 0 0 0 0 0 0 0 0 0 0 0 0 0 0 0 0 0 0 0 0 0 0 0 0 0 0 0 0 0 0 0 0 0 0 0 0 0 0 0 0 0 0 0 0 0 0 0 0 0 0 0 0 0 0 0 0 0 
0 0 0 0 0 0 0 0 0 0 0 0 0 0 0 0 0 0 0 0 0 0 0 0 0 0 0 0 0 0 0 0 0 0 0 0 0 0 0 0 0 0 0 0 0 0 0 0 0 0 0 0 0 0 0 0 0 0 0 0 0 0 0 0 0 0 0 0 0 0 0 0 0 0 0 0 0 0 0 0 0 0 0 0 0 0 0 0 0 0 0 0 0 0 0 0 0 0 0 0 0 0 0 0 0 0 0 0 0 0 0 0 0 0 0 0 0 0 0 0 0 0 0 0 0 0 0 0 0 0 0 0 0 0 0 0 0 0 0 0 0 0 0 0 
0 0 0 0 0 0 0 0 0 0 0 0 0 0 0 0 0 0 0 0 0 0 0 0 0 0 0 0 0 0 0 0 0 0 0 0 0 0 0 0 0 0 0 0 0 0 0 0 0 0 0 0 0 0 0 0 0 0 0 0 0 0 0 0 0 0 0 0 0 0 0 0 0 0 0 0 0 0 0 0 0 0 0 0 0 0 0 0 0 0 0 0 0 0 0 0 0 0 0 0 0 0 0 0 0 0 0 0 0 0 0 0 0 0 0 0 0 0 0 0 0 0 0 0 0 0 0 0 0 0 0 0 0 0 0 0 0 0 0 0 0 0 0 0 
0 0 0 0 0 0 0 0 0 0 0 0 0 0 0 0 0 0 0 0 0 0 0 0 0 0 0 0 0 0 0 0 0 0 0 0 0 0 0 0 0 0 0 0 0 0 0 0 0 0 0 0 0 0 0 0 0 0 0 0 0 0 0 0 0 0 0 0 0 0 0 0 0 0 0 0 0 0 0 0 0 0 0 0 0 0 0 0 0 0 0 0 0 0 0 0 0 0 0 0 0 0 0 0 0 0 0 0 0 0 0 0 0 0 0 0 0 0 0 0 0 0 0 0 0 0 0 0 0 0 0 0 0 0 0 0 0 0 0 0 0 0 0 0 
0 0 0 0 0 0 0 0 0 0 0 0 0 0 0 0 0 0 0 0 0 0 0 0 0 0 0 0 0 0 0 0 0 0 0 0 0 0 0 0 0 0 0 0 0 0 0 0 0 0 0 0 0 0 0 0 0 0 0 0 0 0 0 0 0 0 0 0 0 0 0 0 0 0 0 0 0 0 0 0 0 0 0 0 0 0 0 0 0 0 0 0 0 0 0 0 0 0 0 0 0 0 0 0 0 0 0 0 0 0 0 0 0 0 0 0 0 0 0 0 0 0 0 0 0 0 0 0 0 0 0 0 0 0 0 0 0 0 0 0 0 0 0 0 
0 0 0 0 0 0 0 0 0 0 0 0 0 0 0 0 0 0 0 0 0 0 0 0 0 0 0 0 0 0 0 0 0 0 0 0 0 0 0 0 0 0 0 0 0 0 0 0 0 0 0 0 0 0 0 0 0 0 0 0 0 0 0 0 0 0 0 0 0 0 0 0 0 0 0 0 0 0 0 0 0 0 0 0 0 0 0 0 0 0 0 0 0 0 0 0 0 0 0 0 0 0 0 0 0 0 0 0 0 0 0 0 0 0 0 0 0 0 0 0 0 0 0 0 0 0 0 0 0 0 0 0 0 0 0 0 0 0 0 0 0 0 0 0 
0 0 0 0 0 0 0 0 0 0 0 0 0 0 0 0 0 0 0 0 0 0 0 0 0 0 0 0 0 0 0 0 0 0 0 0 0 0 0 0 0 0 0 0 0 0 0 0 0 0 0 0 0 0 0 0 0 0 0 0 0 0 0 0 0 0 0 0 0 0 0 0 0 0 0 0 0 0 0 0 0 0 0 0 0 0 0 0 0 0 0 0 0 0 0 0 0 0 0 0 0 0 0 0 0 0 0 0 0 0 0 0 0 0 0 0 0 0 0 0 0 0 0 0 0 0 0 0 0 0 0 0 0 0 0 0 0 0 0 0 0 0 0 0 
0 0 0 0 0 0 0 0 0 0 0 0 0 0 0 0 0 0 0 0 0 0 0 0 0 0 0 0 0 0 0 0 0 0 0 0 0 0 0 0 0 0 0 0 0 0 0 0 0 0 0 0 0 0 0 0 0 0 0 0 0 0 0 0 0 0 0 0 0 0 0 0 0 0 0 0 0 0 0 0 0 0 0 0 0 0 0 0 0 0 0 0 0 0 0 0 0 0 0 0 0 0 0 0 0 0 0 0 0 0 0 0 0 0 0 0 0 0 0 0 0 0 0 0 0 0 0 0 0 0 0 0 0 0 0 0 0 0 0 0 0 0 0 0 
0 0 0 0 0 0 0 0 0 0 0 0 0 0 0 0 0 0 0 0 0 0 0 0 0 0 0 0 0 0 0 0 0 0 0 0 0 0 0 0 0 0 0 0 0 0 0 0 0 0 0 0 0 0 0 0 0 0 0 0 0 0 0 0 0 0 0 0 0 0 0 0 0 0 0 0 0 0 0 0 0 0 0 0 0 0 0 0 0 0 0 0 0 0 0 0 0 0 0 0 0 0 0 0 0 0 0 0 0 0 0 0 0 0 0 0 0 0 0 0 0 0 0 0 0 0 0 0 0 0 0 0 0 0 0 0 0 0 0 0 0 0 0 0 
0 0 0 0 0 0 0 0 0 0 0 0 0 0 0 0 0 0 0 0 0 0 0 0 0 0 0 0 0 0 0 0 0 0 0 0 0 0 0 0 0 0 0 0 0 0 0 0 0 0 0 0 0 0 0 0 0 0 0 0 0 0 0 0 0 0 0 0 0 0 0 0 0 0 0 0 0 0 0 0 0 0 0 0 0 0 0 0 0 0 0 0 0 0 0 0 0 0 0 0 0 0 0 0 0 0 0 0 0 0 0 0 0 0 0 0 0 0 0 0 0 0 0 0 0 0 0 0 0 0 0 0 0 0 0 0 0 0 0 0 0 0 0 0 
0 0 0 0 0 0 0 0 0 0 0 0 0 0 0 0 0 0 0 0 0 0 0 0 0 0 0 0 0 0 0 0 0 0 0 0 0 0 0 0 0 0 0 0 0 0 0 0 0 0 0 0 0 0 0 0 0 0 0 0 0 0 0 0 0 0 0 0 0 0 0 0 0 0 0 0 0 0 0 0 0 0 0 0 0 0 0 0 0 0 0 0 0 0 0 0 0 0 0 0 0 0 0 0 0 0 0 0 0 0 0 0 0 0 0 0 0 0 0 0 0 0 0 0 0 0 0 0 0 0 0 0 0 0 0 0 0 0 0 0 0 0 0 0 
0 0 0 0 0 0 0 0 0 0 0 0 0 0 0 0 0 0 0 0 0 0 0 0 0 0 0 0 0 0 0 0 0 0 0 0 0 0 0 0 0 0 0 0 0 0 0 0 0 0 0 0 0 0 0 0 0 0 0 0 0 0 0 0 0 0 0 0 0 0 0 0 0 0 0 0 0 0 0 0 0 0 0 0 0 0 0 0 0 0 0 0 0 0 0 0 0 0 0 0 0 0 0 0 0 0 0 0 0 0 0 0 0 0 0 0 0 0 0 0 0 0 0 0 0 0 0 0 0 0 0 0 0 0 0 0 0 0 0 0 0 0 0 0 
0 0 0 0 0 0 0 0 0 0 0 0 0 0 0 0 0 0 0 0 0 0 0 0 0 0 0 0 0 0 0 0 0 0 0 0 0 0 0 0 0 0 0 0 0 0 0 0 0 0 0 0 0 0 0 0 0 0 0 0 0 0 0 0 0 0 0 0 0 0 0 0 0 0 0 0 0 0 0 0 0 0 0 0 0 0 0 0 0 0 0 0 0 0 0 0 0 0 0 0 0 0 0 0 0 0 0 0 0 0 0 0 0 0 0 0 0 0 0 0 0 0 0 0 0 0 0 0 0 0 0 0 0 0 0 0 0 0 0 0 0 0 0 0 
0 0 0 0 0 0 0 0 0 0 0 0 0 0 0 0 0 0 0 0 0 0 0 0 0 0 0 0 0 0 0 0 0 0 0 0 0 0 0 0 0 0 0 0 0 0 0 0 0 0 0 0 0 0 0 0 0 0 0 0 0 0 0 0 0 0 0 0 0 0 0 0 0 0 0 0 0 0 0 0 0 0 0 0 0 0 0 0 0 0 0 0 0 0 0 0 0 0 0 0 0 0 0 0 0 0 0 0 0 0 0 0 0 0 0 0 0 0 0 0 0 0 0 0 0 0 0 0 0 0 0 0 0 0 0 0 0 0 0 0 0 0 0 0 
0 0 0 0 0 0 0 0 0 0 0 0 0 0 0 0 0 0 0 0 0 0 0 0 0 0 0 0 0 0 0 0 0 0 0 0 0 0 0 0 0 0 0 0 0 0 0 0 0 0 0 0 0 0 0 0 0 0 0 0 0 0 0 0 0 0 0 0 0 0 0 0 0 0 0 0 0 0 0 0 0 0 0 0 0 0 0 0 0 0 0 0 0 0 0 0 0 0 0 0 0 0 0 0 0 0 0 0 0 0 0 0 0 0 0 0 0 0 0 0 0 0 0 0 0 0 0 0 0 0 0 0 0 0 0 0 0 0 0 0 0 0 0 0 
0 0 0 0 0 0 0 0 0 0 0 0 0 0 0 0 0 0 0 0 0 0 0 0 0 0 0 0 0 0 0 0 0 0 0 0 0 0 0 0 0 0 0 0 0 0 0 0 0 0 0 0 0 0 0 0 0 0 0 0 0 0 0 0 0 0 0 0 0 0 0 0 0 0 0 0 0 0 0 0 0 0 0 0 0 0 0 0 0 0 0 0 0 0 0 0 0 0 0 0 0 0 0 0 0 0 0 0 0 0 0 0 0 0 0 0 0 0 0 0 0 0 0 0 0 0 0 0 0 0 0 0 0 0 0 0 0 0 0 0 0 0 0 0 
0 0 0 0 0 0 0 0 0 0 0 0 0 0 0 0 0 0 0 0 0 0 0 0 0 0 0 0 0 0 0 0 0 0 0 0 0 0 0 0 0 0 0 0 0 0 0 0 0 0 0 0 0 0 0 0 0 0 0 0 0 0 0 0 0 0 0 0 0 0 0 0 0 0 0 0 0 0 0 0 0 0 0 0 0 0 0 0 0 0 0 0 0 0 0 0 0 0 0 0 0 0 0 0 0 0 0 0 0 0 0 0 0 0 0 0 0 0 0 0 0 0 0 0 0 0 0 0 0 0 0 0 0 0 0 0 0 0 0 0 0 0 0 0 
0 0 0 0 0 0 0 0 0 0 0 0 0 0 0 0 0 0 0 0 0 0 0 0 0 0 0 0 0 0 0 0 0 0 0 0 0 0 0 0 0 0 0 0 0 0 0 0 0 0 0 0 0 0 0 0 0 0 0 0 0 0 0 0 0 0 0 0 0 0 0 0 0 0 0 0 0 0 0 0 0 0 0 0 0 0 0 0 0 0 0 0 0 0 0 0 0 0 0 0 0 0 0 0 0 0 0 0 0 0 0 0 0 0 0 0 0 0 0 0 0 0 0 0 0 0 0 0 0 0 0 0 0 0 0 0 0 0 0 0 0 0 0 0 
0 0 0 0 0 0 0 0 0 0 0 0 0 0 0 0 0 0 0 0 0 0 0 0 0 0 0 0 0 0 0 0 0 0 0 0 0 0 0 0 0 0 0 0 0 0 0 0 0 0 0 0 0 0 0 0 0 0 0 0 0 0 0 0 0 0 0 0 0 0 0 0 0 0 0 0 0 0 0 0 0 0 0 0 0 0 0 0 0 0 0 0 0 0 0 0 0 0 0 0 0 0 0 0 0 0 0 0 0 0 0 0 0 0 0 0 0 0 0 0 0 0 0 0 0 0 0 0 0 0 0 0 0 0 0 0 0 0 0 0 0 0 0 0 
0 0 0 0 0 0 0 0 0 0 0 0 0 0 0 0 0 0 0 0 0 0 0 0 0 0 0 0 0 0 0 0 0 0 0 0 0 0 0 0 0 0 0 0 0 0 0 0 0 0 0 0 0 0 0 0 0 0 0 0 0 0 0 0 0 0 0 0 0 0 0 0 0 0 0 0 0 0 0 0 0 0 0 0 0 0 0 0 0 0 0 0 0 0 0 0 0 0 0 0 0 0 0 0 0 0 0 0 0 0 0 0 0 0 0 0 0 0 0 0 0 0 0 0 0 0 0 0 0 0 0 0 0 0 0 0 0 0 0 0 0 0 0 0 
0 0 0 0 0 0 0 0 0 0 0 0 0 0 0 0 0 0 0 0 0 0 0 0 0 0 0 0 0 0 0 0 0 0 0 0 0 0 0 0 0 0 0 0 0 0 0 0 0 0 0 0 0 0 0 0 0 0 0 0 0 0 0 0 0 0 0 0 0 0 0 0 0 0 0 0 0 0 0 0 0 0 0 0 0 0 0 0 0 0 0 0 0 0 0 0 0 0 0 0 0 0 0 0 0 0 0 0 0 0 0 0 0 0 0 0 0 0 0 0 0 0 0 0 0 0 0 0 0 0 0 0 0 0 0 0 0 0 0 0 0 0 0 0 
0 0 0 0 0 0 0 0 0 0 0 0 0 0 0 0 0 0 0 0 0 0 0 0 0 0 0 0 0 0 0 0 0 0 0 0 0 0 0 0 0 0 0 0 0 0 0 0 0 0 0 0 0 0 0 0 0 0 0 0 0 0 0 0 0 0 0 0 0 0 0 0 0 0 0 0 0 0 0 0 0 0 0 0 0 0 0 0 0 0 0 0 0 0 0 0 0 0 0 0 0 0 0 0 0 0 0 0 0 0 0 0 0 0 0 0 0 0 0 0 0 0 0 0 0 0 0 0 0 0 0 0 0 0 0 0 0 0 0 0 0 0 0 0 
0 0 0 0 0 0 0 0 0 0 0 0 0 0 0 0 0 0 0 0 0 0 0 0 0 0 0 0 0 0 0 0 0 0 0 0 0 0 0 0 0 0 0 0 0 0 0 0 0 0 0 0 0 0 0 0 0 0 0 0 0 0 0 0 0 0 0 0 0 0 0 0 0 0 0 0 0 0 0 0 0 0 0 0 0 0 0 0 0 0 0 0 0 0 0 0 0 0 0 0 0 0 0 0 0 0 0 0 0 0 0 0 0 0 0 0 0 0 0 0 0 0 0 0 0 0 0 0 0 0 0 0 0 0 0 0 0 0 0 0 0 0 0 0 
0 0 0 0 0 0 0 0 0 0 0 0 0 0 0 0 0 0 0 0 0 0 0 0 0 0 0 0 0 0 0 0 0 0 0 0 0 0 0 0 0 0 0 0 0 0 0 0 0 0 0 0 0 0 0 0 0 0 0 0 0 0 0 0 0 0 0 0 0 0 0 0 0 0 0 0 0 0 0 0 0 0 0 0 0 0 0 0 0 0 0 0 0 0 0 0 0 0 0 0 0 0 0 0 0 0 0 0 0 0 0 0 0 0 0 0 0 0 0 0 0 0 0 0 0 0 0 0 0 0 0 0 0 0 0 0 0 0 0 0 0 0 0 0 
0 0 0 0 0 0 0 0 0 0 0 0 0 0 0 0 0 0 0 0 0 0 0 0 0 0 0 0 0 0 0 0 0 0 0 0 0 0 0 0 0 0 0 0 0 0 0 0 0 0 0 0 0 0 0 0 0 0 0 0 0 0 0 0 0 0 0 0 0 0 0 0 0 0 0 0 0 0 0 0 0 0 0 0 0 0 0 0 0 0 0 0 0 0 0 0 0 0 0 0 0 0 0 0 0 0 0 0 0 0 0 0 0 0 0 0 0 0 0 0 0 0 0 0 0 0 0 0 0 0 0 0 0 0 0 0 0 0 0 0 0 0 0 0 
0 0 0 0 0 0 0 0 0 0 0 0 0 0 0 0 0 0 0 0 0 0 0 0 0 0 0 0 0 0 0 0 0 0 0 0 0 0 0 0 0 0 0 0 0 0 0 0 0 0 0 0 0 0 0 0 0 0 0 0 0 0 0 0 0 0 0 0 0 0 0 0 0 0 0 0 0 0 0 0 0 0 0 0 0 0 0 0 0 0 0 0 0 0 0 0 0 0 0 0 0 0 0 0 0 0 0 0 0 0 0 0 0 0 0 0 0 0 0 0 0 0 0 0 0 0 0 0 0 0 0 0 0 0 0 0 0 0 0 0 0 0 0 0 
0 0 0 0 0 0 0 0 0 0 0 0 0 0 0 0 0 0 0 0 0 0 0 0 0 0 0 0 0 0 0 0 0 0 0 0 0 0 0 0 0 0 0 0 0 0 0 0 0 0 0 0 0 0 0 0 0 0 0 0 0 0 0 0 0 0 0 0 0 0 0 0 0 0 0 0 0 0 0 0 0 0 0 0 0 0 0 0 0 0 0 0 0 0 0 0 0 0 0 0 0 0 0 0 0 0 0 0 0 0 0 0 0 0 0 0 0 0 0 0 0 0 0 0 0 0 0 0 0 0 0 0 0 0 0 0 0 0 0 0 0 0 0 0 
0 0 0 0 0 0 0 0 0 0 0 0 0 0 0 0 0 0 0 0 0 0 0 0 0 0 0 0 0 0 0 0 0 0 0 0 0 0 0 0 0 0 0 0 0 0 0 0 0 0 0 0 0 0 0 0 0 0 0 0 0 0 0 0 0 0 0 0 0 0 0 0 0 0 0 0 0 0 0 0 0 0 0 0 0 0 0 0 0 0 0 0 0 0 0 0 0 0 0 0 0 0 0 0 0 0 0 0 0 0 0 0 0 0 0 0 0 0 0 0 0 0 0 0 0 0 0 0 0 0 0 0 0 0 0 0 0 0 0 0 0 0 0 0 
0 0 0 0 0 0 0 0 0 0 0 0 0 0 0 0 0 0 0 0 0 0 0 0 0 0 0 0 0 0 0 0 0 0 0 0 0 0 0 0 0 0 0 0 0 0 0 0 0 0 0 0 0 0 0 0 0 0 0 0 0 0 0 0 0 0 0 0 0 0 0 0 0 0 0 0 0 0 0 0 0 0 0 0 0 0 0 0 0 0 0 0 0 0 0 0 0 0 0 0 0 0 0 0 0 0 0 0 0 0 0 0 0 0 0 0 0 0 0 0 0 0 0 0 0 0 0 0 0 0 0 0 0 0 0 0 0 0 0 0 0 0 0 0 
0 0 0 0 0 0 0 0 0 0 0 0 0 0 0 0 0 0 0 0 0 0 0 0 0 0 0 0 0 0 0 0 0 0 0 0 0 0 0 0 0 0 0 0 0 0 0 0 0 0 0 0 0 0 0 0 0 0 0 0 0 0 0 0 0 0 0 0 0 0 0 0 0 0 0 0 0 0 0 0 0 0 0 0 0 0 0 0 0 0 0 0 0 0 0 0 0 0 0 0 0 0 0 0 0 0 0 0 0 0 0 0 0 0 0 0 0 0 0 0 0 0 0 0 0 0 0 0 0 0 0 0 0 0 0 0 0 0 0 0 0 0 0 0 
0 0 0 0 0 0 0 0 0 0 0 0 0 0 0 0 0 0 0 0 0 0 0 0 0 0 0 0 0 0 0 0 0 0 0 0 0 0 0 0 0 0 0 0 0 0 0 0 0 0 0 0 0 0 0 0 0 0 0 0 0 0 0 0 0 0 0 0 0 0 0 0 0 0 0 0 0 0 0 0 0 0 0 0 0 0 0 0 0 0 0 0 0 0 0 0 0 0 0 0 0 0 0 0 0 0 0 0 0 0 0 0 0 0 0 0 0 0 0 0 0 0 0 0 0 0 0 0 0 0 0 0 0 0 0 0 0 0 0 0 0 0 0 0 
0 0 0 0 0 0 0 0 0 0 0 0 0 0 0 0 0 0 0 0 0 0 0 0 0 0 0 0 0 0 0 0 0 0 0 0 0 0 0 0 0 0 0 0 0 0 0 0 0 0 0 0 0 0 0 0 0 0 0 0 0 0 0 0 0 0 0 0 0 0 0 0 0 0 0 0 0 0 0 0 0 0 0 0 0 0 0 0 0 0 0 0 0 0 0 0 0 0 0 0 0 0 0 0 0 0 0 0 0 0 0 0 0 0 0 0 0 0 0 0 0 0 0 0 0 0 0 0 0 0 0 0 0 0 0 0 0 0 0 0 0 0 0 0 
0 0 0 0 0 0 0 0 0 0 0 0 0 0 0 0 0 0 0 0 0 0 0 0 0 0 0 0 0 0 0 0 0 0 0 0 0 0 0 0 0 0 0 0 0 0 0 0 0 0 0 0 0 0 0 0 0 0 0 0 0 0 0 0 0 0 0 0 0 0 0 0 0 0 0 0 0 0 0 0 0 0 0 0 0 0 0 0 0 0 0 0 0 0 0 0 0 0 0 0 0 0 0 0 0 0 0 0 0 0 0 0 0 0 0 0 0 0 0 0 0 0 0 0 0 0 0 0 0 0 0 0 0 0 0 0 0 0 0 0 0 0 0 0 
0 0 0 0 0 0 0 0 0 0 0 0 0 0 0 0 0 0 0 0 0 0 0 0 0 0 0 0 0 0 0 0 0 0 0 0 0 0 0 0 0 0 0 0 0 0 0 0 0 0 0 0 0 0 0 0 0 0 0 0 0 0 0 0 0 0 0 0 0 0 0 0 0 0 0 0 0 0 0 0 0 0 0 0 0 0 0 0 0 0 0 0 0 0 0 0 0 0 0 0 0 0 0 0 0 0 0 0 0 0 0 0 0 0 0 0 0 0 0 0 0 0 0 0 0 0 0 0 0 0 0 0 0 0 0 0 0 0 0 0 0 0 0 0 
0 0 0 0 0 0 0 0 0 0 0 0 0 0 0 0 0 0 0 0 0 0 0 0 0 0 0 0 0 0 0 0 0 0 0 0 0 0 0 0 0 0 0 0 0 0 0 0 0 0 0 0 0 0 0 0 0 0 0 0 0 0 0 0 0 0 0 0 0 0 0 0 0 0 0 0 0 0 0 0 0 0 0 0 0 0 0 0 0 0 0 0 0 0 0 0 0 0 0 0 0 0 0 0 0 0 0 0 0 0 0 0 0 0 0 0 0 0 0 0 0 0 0 0 0 0 0 0 0 0 0 0 0 0 0 0 0 0 0 0 0 0 0 0 
0 0 0 0 0 0 0 0 0 0 0 0 0 0 0 0 0 0 0 0 0 0 0 0 0 0 0 0 0 0 0 0 0 0 0 0 0 0 0 0 0 0 0 0 0 0 0 0 0 0 0 0 0 0 0 0 0 0 0 0 0 0 0 0 0 0 0 0 0 0 0 0 0 0 0 0 0 0 0 0 0 0 0 0 0 0 0 0 0 0 0 0 0 0 0 0 0 0 0 0 0 0 0 0 0 0 0 0 0 0 0 0 0 0 0 0 0 0 0 0 0 0 0 0 0 0 0 0 0 0 0 0 0 0 0 0 0 0 0 0 0 0 0 0 
0 0 0 0 0 0 0 0 0 0 0 0 0 0 0 0 0 0 0 0 0 0 0 0 0 0 0 0 0 0 0 0 0 0 0 0 0 0 0 0 0 0 0 0 0 0 0 0 0 0 0 0 0 0 0 0 0 0 0 0 0 0 0 0 0 0 0 0 0 0 0 0 0 0 0 0 0 0 0 0 0 0 0 0 0 0 0 0 0 0 0 0 0 0 0 0 0 0 0 0 0 0 0 0 0 0 0 0 0 0 0 0 0 0 0 0 0 0 0 0 0 0 0 0 0 0 0 0 0 0 0 0 0 0 0 0 0 0 0 0 0 0 0 0 
0 0 0 0 0 0 0 0 0 0 0 0 0 0 0 0 0 0 0 0 0 0 0 0 0 0 0 0 0 0 0 0 0 0 0 0 0 0 0 0 0 0 0 0 0 0 0 0 0 0 0 0 0 0 0 0 0 0 0 0 0 0 0 0 0 0 0 0 0 0 0 0 0 0 0 0 0 0 0 0 0 0 0 0 0 0 0 0 0 0 0 0 0 0 0 0 0 0 0 0 0 0 0 0 0 0 0 0 0 0 0 0 0 0 0 0 0 0 0 0 0 0 0 0 0 0 0 0 0 0 0 0 0 0 0 0 0 0 0 0 0 0 0 0 
0 0 0 0 0 0 0 0 0 0 0 0 0 0 0 0 0 0 0 0 0 0 0 0 0 0 0 0 0 0 0 0 0 0 0 0 0 0 0 0 0 0 0 0 0 0 0 0 0 0 0 0 0 0 0 0 0 0 0 0 0 0 0 0 0 0 0 0 0 0 0 0 0 0 0 0 0 0 0 0 0 0 0 0 0 0 0 0 0 0 0 0 0 0 0 0 0 0 0 0 0 0 0 0 0 0 0 0 0 0 0 0 0 0 0 0 0 0 0 0 0 0 0 0 0 0 0 0 0 0 0 0 0 0 0 0 0 0 0 0 0 0 0 0 
0 0 0 0 0 0 0 0 0 0 0 0 0 0 0 0 0 0 0 0 0 0 0 0 0 0 0 0 0 0 0 0 0 0 0 0 0 0 0 0 0 0 0 0 0 0 0 0 0 0 0 0 0 0 0 0 0 0 0 0 0 0 0 0 0 0 0 0 0 0 0 0 0 0 0 0 0 0 0 0 0 0 0 0 0 0 0 0 0 0 0 0 0 0 0 0 0 0 0 0 0 0 0 0 0 0 0 0 0 0 0 0 0 0 0 0 0 0 0 0 0 0 0 0 0 0 0 0 0 0 0 0 0 0 0 0 0 0 0 0 0 0 0 0 
0 0 0 0 0 0 0 0 0 0 0 0 0 0 0 0 0 0 0 0 0 0 0 0 0 0 0 0 0 0 0 0 0 0 0 0 0 0 0 0 0 0 0 0 0 0 0 0 0 0 0 0 0 0 0 0 0 0 0 0 0 0 0 0 0 0 0 0 0 0 0 0 0 0 0 0 0 0 0 0 0 0 0 0 0 0 0 0 0 0 0 0 0 0 0 0 0 0 0 0 0 0 0 0 0 0 0 0 0 0 0 0 0 0 0 0 0 0 0 0 0 0 0 0 0 0 0 0 0 0 0 0 0 0 0 0 0 0 0 0 0 0 0 0 
0 0 0 0 0 0 0 0 0 0 0 0 0 0 0 0 0 0 0 0 0 0 0 0 0 0 0 0 0 0 0 0 0 0 0 0 0 0 0 0 0 0 0 0 0 0 0 0 0 0 0 0 0 0 0 0 0 0 0 0 0 0 0 0 0 0 0 0 0 0 0 0 0 0 0 0 0 0 0 0 0 0 0 0 0 0 0 0 0 0 0 0 0 0 0 0 0 0 0 0 0 0 0 0 0 0 0 0 0 0 0 0 0 0 0 0 0 0 0 0 0 0 0 0 0 0 0 0 0 0 0 0 0 0 0 0 0 0 0 0 0 0 0 0 
0 0 0 0 0 0 0 0 0 0 0 0 0 0 0 0 0 0 0 0 0 0 0 0 0 0 0 0 0 0 0 0 0 0 0 0 0 0 0 0 0 0 0 0 0 0 0 0 0 0 0 0 0 0 0 0 0 0 0 0 0 0 0 0 0 0 0 0 0 0 0 0 0 0 0 0 0 0 0 0 0 0 0 0 0 0 0 0 0 0 0 0 0 0 0 0 0 0 0 0 0 0 0 0 0 0 0 0 0 0 0 0 0 0 0 0 0 0 0 0 0 0 0 0 0 0 0 0 0 0 0 0 0 0 0 0 0 0 0 0 0 0 0 0 
0 0 0 0 0 0 0 0 0 0 0 0 0 0 0 0 0 0 0 0 0 0 0 0 0 0 0 0 0 0 0 0 0 0 0 0 0 0 0 0 0 0 0 0 0 0 0 0 0 0 0 0 0 0 0 0 0 0 0 0 0 0 0 0 0 0 0 0 0 0 0 0 0 0 0 0 0 0 0 0 0 0 0 0 0 0 0 0 0 0 0 0 0 0 0 0 0 0 0 0 0 0 0 0 0 0 0 0 0 0 0 0 0 0 0 0 0 0 0 0 0 0 0 0 0 0 0 0 0 0 0 0 0 0 0 0 0 0 0 0 0 0 0 0 
0 0 0 0 0 0 0 0 0 0 0 0 0 0 0 0 0 0 0 0 0 0 0 0 0 0 0 0 0 0 0 0 0 0 0 0 0 0 0 0 0 0 0 0 0 0 0 0 0 0 0 0 0 0 0 0 0 0 0 0 0 0 0 0 0 0 0 0 0 0 0 0 0 0 0 0 0 0 0 0 0 0 0 0 0 0 0 0 0 0 0 0 0 0 0 0 0 0 0 0 0 0 0 0 0 0 0 0 0 0 0 0 0 0 0 0 0 0 0 0 0 0 0 0 0 0 0 0 0 0 0 0 0 0 0 0 0 0 0 0 0 0 0 0 
0 0 0 0 0 0 0 0 0 0 0 0 0 0 0 0 0 0 0 0 0 0 0 0 0 0 0 0 0 0 0 0 0 0 0 0 0 0 0 0 0 0 0 0 0 0 0 0 0 0 0 0 0 0 0 0 0 0 0 0 0 0 0 0 0 0 0 0 0 0 0 0 0 0 0 0 0 0 0 0 0 0 0 0 0 0 0 0 0 0 0 0 0 0 0 0 0 0 0 0 0 0 0 0 0 0 0 0 0 0 0 0 0 0 0 0 0 0 0 0 0 0 0 0 0 0 0 0 0 0 0 0 0 0 0 0 0 0 0 0 0 0 0 0 
0 0 0 0 0 0 0 0 0 0 0 0 0 0 0 0 0 0 0 0 0 0 0 0 0 0 0 0 0 0 0 0 0 0 0 0 0 0 0 0 0 0 0 0 0 0 0 0 0 0 0 0 0 0 0 0 0 0 0 0 0 0 0 0 0 0 0 0 0 0 0 0 0 0 0 0 0 0 0 0 0 0 0 0 0 0 0 0 0 0 0 0 0 0 0 0 0 0 0 0 0 0 0 0 0 0 0 0 0 0 0 0 0 0 0 0 0 0 0 0 0 0 0 0 0 0 0 0 0 0 0 0 0 0 0 0 0 0 0 0 0 0 0 0 
0 0 0 0 0 0 0 0 0 0 0 0 0 0 0 0 0 0 0 0 0 0 0 0 0 0 0 0 0 0 0 0 0 0 0 0 0 0 0 0 0 0 0 0 0 0 0 0 0 0 0 0 0 0 0 0 0 0 0 0 0 0 0 0 0 0 0 0 0 0 0 0 0 0 0 0 0 0 0 0 0 0 0 0 0 0 0 0 0 0 0 0 0 0 0 0 0 0 0 0 0 0 0 0 0 0 0 0 0 0 0 0 0 0 0 0 0 0 0 0 0 0 0 0 0 0 0 0 0 0 0 0 0 0 0 0 0 0 0 0 0 0 0 0 
0 0 0 0 0 0 0 0 0 0 0 0 0 0 0 0 0 0 0 0 0 0 0 0 0 0 0 0 0 0 0 0 0 0 0 0 0 0 0 0 0 0 0 0 0 0 0 0 0 0 0 0 0 0 0 0 0 0 0 0 0 0 0 0 0 0 0 0 0 0 0 0 0 0 0 0 0 0 0 0 0 0 0 0 0 0 0 0 0 0 0 0 0 0 0 0 0 0 0 0 0 0 0 0 0 0 0 0 0 0 0 0 0 0 0 0 0 0 0 0 0 0 0 0 0 0 0 0 0 0 0 0 0 0 0 0 0 0 0 0 0 0 0 0 
0 0 0 0 0 0 0 0 0 0 0 0 0 0 0 0 0 0 0 0 0 0 0 0 0 0 0 0 0 0 0 0 0 0 0 0 0 0 0 0 0 0 0 0 0 0 0 0 0 0 0 0 0 0 0 0 0 0 0 0 0 0 0 0 0 0 0 0 0 0 0 0 0 0 0 0 0 0 0 0 0 0 0 0 0 0 0 0 0 0 0 0 0 0 0 0 0 0 0 0 0 0 0 0 0 0 0 0 0 0 0 0 0 0 0 0 0 0 0 0 0 0 0 0 0 0 0 0 0 0 0 0 0 0 0 0 0 0 0 0 0 0 0 0 
0 0 0 0 0 0 0 0 0 0 0 0 0 0 0 0 0 0 0 0 0 0 0 0 0 0 0 0 0 0 0 0 0 0 0 0 0 0 0 0 0 0 0 0 0 0 0 0 0 0 0 0 0 0 0 0 0 0 0 0 0 0 0 0 0 0 0 0 0 0 0 0 0 0 0 0 0 0 0 0 0 0 0 0 0 0 0 0 0 0 0 0 0 0 0 0 0 0 0 0 0 0 0 0 0 0 0 0 0 0 0 0 0 0 0 0 0 0 0 0 0 0 0 0 0 0 0 0 0 0 0 0 0 0 0 0 0 0 0 0 0 0 0 0 
0 0 0 0 0 0 0 0 0 0 0 0 0 0 0 0 0 0 0 0 0 0 0 0 0 0 0 0 0 0 0 0 0 0 0 0 0 0 0 0 0 0 0 0 0 0 0 0 0 0 0 0 0 0 0 0 0 0 0 0 0 0 0 0 0 0 0 0 0 0 0 0 0 0 0 0 0 0 0 0 0 0 0 0 0 0 0 0 0 0 0 0 0 0 0 0 0 0 0 0 0 0 0 0 0 0 0 0 0 0 0 0 0 0 0 0 0 0 0 0 0 0 0 0 0 0 0 0 0 0 0 0 0 0 0 0 0 0 0 0 0 0 0 0 
0 0 0 0 0 0 0 0 0 0 0 0 0 0 0 0 0 0 0 0 0 0 0 0 0 0 0 0 0 0 0 0 0 0 0 0 0 0 0 0 0 0 0 0 0 0 0 0 0 0 0 0 0 0 0 0 0 0 0 0 0 0 0 0 0 0 0 0 0 0 0 0 0 0 0 0 0 0 0 0 0 0 0 0 0 0 0 0 0 0 0 0 0 0 0 0 0 0 0 0 0 0 0 0 0 0 0 0 0 0 0 0 0 0 0 0 0 0 0 0 0 0 0 0 0 0 0 0 0 0 0 0 0 0 0 0 0 0 0 0 0 0 0 0 
0 0 0 0 0 0 0 0 0 0 0 0 0 0 0 0 0 0 0 0 0 0 0 0 0 0 0 0 0 0 0 0 0 0 0 0 0 0 0 0 0 0 0 0 0 0 0 0 0 0 0 0 0 0 0 0 0 0 0 0 0 0 0 0 0 0 0 0 0 0 0 0 0 0 0 0 0 0 0 0 0 0 0 0 0 0 0 0 0 0 0 0 0 0 0 0 0 0 0 0 0 0 0 0 0 0 0 0 0 0 0 0 0 0 0 0 0 0 0 0 0 0 0 0 0 0 0 0 0 0 0 0 0 0 0 0 0 0 0 0 0 0 0 0 
0 0 0 0 0 0 0 0 0 0 0 0 0 0 0 0 0 0 0 0 0 0 0 0 0 0 0 0 0 0 0 0 0 0 0 0 0 0 0 0 0 0 0 0 0 0 0 0 0 0 0 0 0 0 0 0 0 0 0 0 0 0 0 0 0 0 0 0 0 0 0 0 0 0 0 0 0 0 0 0 0 0 0 0 0 0 0 0 0 0 0 0 0 0 0 0 0 0 0 0 0 0 0 0 0 0 0 0 0 0 0 0 0 0 0 0 0 0 0 0 0 0 0 0 0 0 0 0 0 0 0 0 0 0 0 0 0 0 0 0 0 0 0 0 
0 0 0 0 0 0 0 0 0 0 0 0 0 0 0 0 0 0 0 0 0 0 0 0 0 0 0 0 0 0 0 0 0 0 0 0 0 0 0 0 0 0 0 0 0 0 0 0 0 0 0 0 0 0 0 0 0 0 0 0 0 0 0 0 0 0 0 0 0 0 0 0 0 0 0 0 0 0 0 0 0 0 0 0 0 0 0 0 0 0 0 0 0 0 0 0 0 0 0 0 0 0 0 0 0 0 0 0 0 0 0 0 0 0 0 0 0 0 0 0 0 0 0 0 0 0 0 0 0 0 0 0 0 0 0 0 0 0 0 0 0 0 0 0 
0 0 0 0 0 0 0 0 0 0 0 0 0 0 0 0 0 0 0 0 0 0 0 0 0 0 0 0 0 0 0 0 0 0 0 0 0 0 0 0 0 0 0 0 0 0 0 0 0 0 0 0 0 0 0 0 0 0 0 0 0 0 0 0 0 0 0 0 0 0 0 0 0 0 0 0 0 0 0 0 0 0 0 0 0 0 0 0 0 0 0 0 0 0 0 0 0 0 0 0 0 0 0 0 0 0 0 0 0 0 0 0 0 0 0 0 0 0 0 0 0 0 0 0 0 0 0 0 0 0 0 0 0 0 0 0 0 0 0 0 0 0 0 0 
0 0 0 0 0 0 0 0 0 0 0 0 0 0 0 0 0 0 0 0 0 0 0 0 0 0 0 0 0 0 0 0 0 0 0 0 0 0 0 0 0 0 0 0 0 0 0 0 0 0 0 0 0 0 0 0 0 0 0 0 0 0 0 0 0 0 0 0 0 0 0 0 0 0 0 0 0 0 0 0 0 0 0 0 0 0 0 0 0 0 0 0 0 0 0 0 0 0 0 0 0 0 0 0 0 0 0 0 0 0 0 0 0 0 0 0 0 0 0 0 0 0 0 0 0 0 0 0 0 0 0 0 0 0 0 0 0 0 0 0 0 0 0 0 
0 0 0 0 0 0 0 0 0 0 0 0 0 0 0 0 0 0 0 0 0 0 0 0 0 0 0 0 0 0 0 0 0 0 0 0 0 0 0 0 0 0 0 0 0 0 0 0 0 0 0 0 0 0 0 0 0 0 0 0 0 0 0 0 0 0 0 0 0 0 0 0 0 0 0 0 0 0 0 0 0 0 0 0 0 0 0 0 0 0 0 0 0 0 0 0 0 0 0 0 0 0 0 0 0 0 0 0 0 0 0 0 0 0 0 0 0 0 0 0 0 0 0 0 0 0 0 0 0 0 0 0 0 0 0 0 0 0 0 0 0 0 0 0 
0 0 0 0 0 0 0 0 0 0 0 0 0 0 0 0 0 0 0 0 0 0 0 0 0 0 0 0 0 0 0 0 0 0 0 0 0 0 0 0 0 0 0 0 0 0 0 0 0 0 0 0 0 0 0 0 0 0 0 0 0 0 0 0 0 0 0 0 0 0 0 0 0 0 0 0 0 0 0 0 0 0 0 0 0 0 0 0 0 0 0 0 0 0 0 0 0 0 0 0 0 0 0 0 0 0 0 0 0 0 0 0 0 0 0 0 0 0 0 0 0 0 0 0 0 0 0 0 0 0 0 0 0 0 0 0 0 0 0 0 0 0 0 0 
0 0 0 0 0 0 0 0 0 0 0 0 0 0 0 0 0 0 0 0 0 0 0 0 0 0 0 0 0 0 0 0 0 0 0 0 0 0 0 0 0 0 0 0 0 0 0 0 0 0 0 0 0 0 0 0 0 0 0 0 0 0 0 0 0 0 0 0 0 0 0 0 0 0 0 0 0 0 0 0 0 0 0 0 0 0 0 0 0 0 0 0 0 0 0 0 0 0 0 0 0 0 0 0 0 0 0 0 0 0 0 0 0 0 0 0 0 0 0 0 0 0 0 0 0 0 0 0 0 0 0 0 0 0 0 0 0 0 0 0 0 0 0 0 
0 0 0 0 0 0 0 0 0 0 0 0 0 0 0 0 0 0 0 0 0 0 0 0 0 0 0 0 0 0 0 0 0 0 0 0 0 0 0 0 0 0 0 0 0 0 0 0 0 0 0 0 0 0 0 0 0 0 0 0 0 0 0 0 0 0 0 0 0 0 0 0 0 0 0 0 0 0 0 0 0 0 0 0 0 0 0 0 0 0 0 0 0 0 0 0 0 0 0 0 0 0 0 0 0 0 0 0 0 0 0 0 0 0 0 0 0 0 0 0 0 0 0 0 0 0 0 0 0 0 0 0 0 0 0 0 0 0 0 0 0 0 0 0 
0 0 0 0 0 0 0 0 0 0 0 0 0 0 0 0 0 0 0 0 0 0 0 0 0 0 0 0 0 0 0 0 0 0 0 0 0 0 0 0 0 0 0 0 0 0 0 0 0 0 0 0 0 0 0 0 0 0 0 0 0 0 0 0 0 0 0 0 0 0 0 0 0 0 0 0 0 0 0 0 0 0 0 0 0 0 0 0 0 0 0 0 0 0 0 0 0 0 0 0 0 0 0 0 0 0 0 0 0 0 0 0 0 0 0 0 0 0 0 0 0 0 0 0 0 0 0 0 0 0 0 0 0 0 0 0 0 0 0 0 0 0 0 0 
0 0 0 0 0 0 0 0 0 0 0 0 0 0 0 0 0 0 0 0 0 0 0 0 0 0 0 0 0 0 0 0 0 0 0 0 0 0 0 0 0 0 0 0 0 0 0 0 0 0 0 0 0 0 0 0 0 0 0 0 0 0 0 0 0 0 0 0 0 0 0 0 0 0 0 0 0 0 0 0 0 0 0 0 0 0 0 0 0 0 0 0 0 0 0 0 0 0 0 0 0 0 0 0 0 0 0 0 0 0 0 0 0 0 0 0 0 0 0 0 0 0 0 0 0 0 0 0 0 0 0 0 0 0 0 0 0 0 0 0 0 0 0 0 
0 0 0 0 0 0 0 0 0 0 0 0 0 0 0 0 0 0 0 0 0 0 0 0 0 0 0 0 0 0 0 0 0 0 0 0 0 0 0 0 0 0 0 0 0 0 0 0 0 0 0 0 0 0 0 0 0 0 0 0 0 0 0 0 0 0 0 0 0 0 0 0 0 0 0 0 0 0 0 0 0 0 0 0 0 0 0 0 0 0 0 0 0 0 0 0 0 0 0 0 0 0 0 0 0 0 0 0 0 0 0 0 0 0 0 0 0 0 0 0 0 0 0 0 0 0 0 0 0 0 0 0 0 0 0 0 0 0 0 0 0 0 0 0 
0 0 0 0 0 0 0 0 0 0 0 0 0 0 0 0 0 0 0 0 0 0 0 0 0 0 0 0 0 0 0 0 0 0 0 0 0 0 0 0 0 0 0 0 0 0 0 0 0 0 0 0 0 0 0 0 0 0 0 0 0 0 0 0 0 0 0 0 0 0 0 0 0 0 0 0 0 0 0 0 0 0 0 0 0 0 0 0 0 0 0 0 0 0 0 0 0 0 0 0 0 0 0 0 0 0 0 0 0 0 0 0 0 0 0 0 0 0 0 0 0 0 0 0 0 0 0 0 0 0 0 0 0 0 0 0 0 0 0 0 0 0 0 0 
0 0 0 0 0 0 0 0 0 0 0 0 0 0 0 0 0 0 0 0 0 0 0 0 0 0 0 0 0 0 0 0 0 0 0 0 0 0 0 0 0 0 0 0 0 0 0 0 0 0 0 0 0 0 0 0 0 0 0 0 0 0 0 0 0 0 0 0 0 0 0 0 0 0 0 0 0 0 0 0 0 0 0 0 0 0 0 0 0 0 0 0 0 0 0 0 0 0 0 0 0 0 0 0 0 0 0 0 0 0 0 0 0 0 0 0 0 0 0 0 0 0 0 0 0 0 0 0 0 0 0 0 0 0 0 0 0 0 0 0 0 0 0 0 
0 0 0 0 0 0 0 0 0 0 0 0 0 0 0 0 0 0 0 0 0 0 0 0 0 0 0 0 0 0 0 0 0 0 0 0 0 0 0 0 0 0 0 0 0 0 0 0 0 0 0 0 0 0 0 0 0 0 0 0 0 0 0 0 0 0 0 0 0 0 0 0 0 0 0 0 0 0 0 0 0 0 0 0 0 0 0 0 0 0 0 0 0 0 0 0 0 0 0 0 0 0 0 0 0 0 0 0 0 0 0 0 0 0 0 0 0 0 0 0 0 0 0 0 0 0 0 0 0 0 0 0 0 0 0 0 0 0 0 0 0 0 0 0 
0 0 0 0 0 0 0 0 0 0 0 0 0 0 0 0 0 0 0 0 0 0 0 0 0 0 0 0 0 0 0 0 0 0 0 0 0 0 0 0 0 0 0 0 0 0 0 0 0 0 0 0 0 0 0 0 0 0 0 0 0 0 0 0 0 0 0 0 0 0 0 0 0 0 0 0 0 0 0 0 0 0 0 0 0 0 0 0 0 0 0 0 0 0 0 0 0 0 0 0 0 0 0 0 0 0 0 0 0 0 0 0 0 0 0 0 0 0 0 0 0 0 0 0 0 0 0 0 0 0 0 0 0 0 0 0 0 0 0 0 0 0 0 0 
0 0 0 0 0 0 0 0 0 0 0 0 0 0 0 0 0 0 0 0 0 0 0 0 0 0 0 0 0 0 0 0 0 0 0 0 0 0 0 0 0 0 0 0 0 0 0 0 0 0 0 0 0 0 0 0 0 0 0 0 0 0 0 0 0 0 0 0 0 0 0 0 0 0 0 0 0 0 0 0 0 0 0 0 0 0 0 0 0 0 0 0 0 0 0 0 0 0 0 0 0 0 0 0 0 0 0 0 0 0 0 0 0 0 0 0 0 0 0 0 0 0 0 0 0 0 0 0 0 0 0 0 0 0 0 0 0 0 0 0 0 0 0 0 
0 0 0 0 0 0 0 0 0 0 0 0 0 0 0 0 0 0 0 0 0 0 0 0 0 0 0 0 0 0 0 0 0 0 0 0 0 0 0 0 0 0 0 0 0 0 0 0 0 0 0 0 0 0 0 0 0 0 0 0 0 0 0 0 0 0 0 0 0 0 0 0 0 0 0 0 0 0 0 0 0 0 0 0 0 0 0 0 0 0 0 0 0 0 0 0 0 0 0 0 0 0 0 0 0 0 0 0 0 0 0 0 0 0 0 0 0 0 0 0 0 0 0 0 0 0 0 0 0 0 0 0 0 0 0 0 0 0 0 0 0 0 0 0 
0 0 0 0 0 0 0 0 0 0 0 0 0 0 0 0 0 0 0 0 0 0 0 0 0 0 0 0 0 0 0 0 0 0 0 0 0 0 0 0 0 0 0 0 0 0 0 0 0 0 0 0 0 0 0 0 0 0 0 0 0 0 0 0 0 0 0 0 0 0 0 0 0 0 0 0 0 0 0 0 0 0 0 0 0 0 0 0 0 0 0 0 0 0 0 0 0 0 0 0 0 0 0 0 0 0 0 0 0 0 0 0 0 0 0 0 0 0 0 0 0 0 0 0 0 0 0 0 0 0 0 0 0 0 0 0 0 0 0 0 0 0 0 0 
0 0 0 0 0 0 0 0 0 0 0 0 0 0 0 0 0 0 0 0 0 0 0 0 0 0 0 0 0 0 0 0 0 0 0 0 0 0 0 0 0 0 0 0 0 0 0 0 0 0 0 0 0 0 0 0 0 0 0 0 0 0 0 0 0 0 0 0 0 0 0 0 0 0 0 0 0 0 0 0 0 0 0 0 0 0 0 0 0 0 0 0 0 0 0 0 0 0 0 0 0 0 0 0 0 0 0 0 0 0 0 0 0 0 0 0 0 0 0 0 0 0 0 0 0 0 0 0 0 0 0 0 0 0 0 0 0 0 0 0 0 0 0 0 
0 0 0 0 0 0 0 0 0 0 0 0 0 0 0 0 0 0 0 0 0 0 0 0 0 0 0 0 0 0 0 0 0 0 0 0 0 0 0 0 0 0 0 0 0 0 0 0 0 0 0 0 0 0 0 0 0 0 0 0 0 0 0 0 0 0 0 0 0 0 0 0 0 0 0 0 0 0 0 0 0 0 0 0 0 0 0 0 0 0 0 0 0 0 0 0 0 0 0 0 0 0 0 0 0 0 0 0 0 0 0 0 0 0 0 0 0 0 0 0 0 0 0 0 0 0 0 0 0 0 0 0 0 0 0 0 0 0 0 0 0 0 0 0 
0 0 0 0 0 0 0 0 0 0 0 0 0 0 0 0 0 0 0 0 0 0 0 0 0 0 0 0 0 0 0 0 0 0 0 0 0 0 0 0 0 0 0 0 0 0 0 0 0 0 0 0 0 0 0 0 0 0 0 0 0 0 0 0 0 0 0 0 0 0 0 0 0 0 0 0 0 0 0 0 0 0 0 0 0 0 0 0 0 0 0 0 0 0 0 0 0 0 0 0 0 0 0 0 0 0 0 0 0 0 0 0 0 0 0 0 0 0 0 0 0 0 0 0 0 0 0 0 0 0 0 0 0 0 0 0 0 0 0 0 0 0 0 0 
0 0 0 0 0 0 0 0 0 0 0 0 0 0 0 0 0 0 0 0 0 0 0 0 0 0 0 0 0 0 0 0 0 0 0 0 0 0 0 0 0 0 0 0 0 0 0 0 0 0 0 0 0 0 0 0 0 0 0 0 0 0 0 0 0 0 0 0 0 0 0 0 0 0 0 0 0 0 0 0 0 0 0 0 0 0 0 0 0 0 0 0 0 0 0 0 0 0 0 0 0 0 0 0 0 0 0 0 0 0 0 0 0 0 0 0 0 0 0 0 0 0 0 0 0 0 0 0 0 0 0 0 0 0 0 0 0 0 0 0 0 0 0 0 
0 0 0 0 0 0 0 0 0 0 0 0 0 0 0 0 0 0 0 0 0 0 0 0 0 0 0 0 0 0 0 0 0 0 0 0 0 0 0 0 0 0 0 0 0 0 0 0 0 0 0 0 0 0 0 0 0 0 0 0 0 0 0 0 0 0 0 0 0 0 0 0 0 0 0 0 0 0 0 0 0 0 0 0 0 0 0 0 0 0 0 0 0 0 0 0 0 0 0 0 0 0 0 0 0 0 0 0 0 0 0 0 0 0 0 0 0 0 0 0 0 0 0 0 0 0 0 0 0 0 0 0 0 0 0 0 0 0 0 0 0 0 0 0 
0 0 0 0 0 0 0 0 0 0 0 0 0 0 0 0 0 0 0 0 0 0 0 0 0 0 0 0 0 0 0 0 0 0 0 0 0 0 0 0 0 0 0 0 0 0 0 0 0 0 0 0 0 0 0 0 0 0 0 0 0 0 0 0 0 0 0 0 0 0 0 0 0 0 0 0 0 0 0 0 0 0 0 0 0 0 0 0 0 0 0 0 0 0 0 0 0 0 0 0 0 0 0 0 0 0 0 0 0 0 0 0 0 0 0 0 0 0 0 0 0 0 0 0 0 0 0 0 0 0 0 0 0 0 0 0 0 0 0 0 0 0 0 0 
0 0 0 0 0 0 0 0 0 0 0 0 0 0 0 0 0 0 0 0 0 0 0 0 0 0 0 0 0 0 0 0 0 0 0 0 0 0 0 0 0 0 0 0 0 0 0 0 0 0 0 0 0 0 0 0 0 0 0 0 0 0 0 0 0 0 0 0 0 0 0 0 0 0 0 0 0 0 0 0 0 0 0 0 0 0 0 0 0 0 0 0 0 0 0 0 0 0 0 0 0 0 0 0 0 0 0 0 0 0 0 0 0 0 0 0 0 0 0 0 0 0 0 0 0 0 0 0 0 0 0 0 0 0 0 0 0 0 0 0 0 0 0 0 
0 0 0 0 0 0 0 0 0 0 0 0 0 0 0 0 0 0 0 0 0 0 0 0 0 0 0 0 0 0 0 0 0 0 0 0 0 0 0 0 0 0 0 0 0 0 0 0 0 0 0 0 0 0 0 0 0 0 0 0 0 0 0 0 0 0 0 0 0 0 0 0 0 0 0 0 0 0 0 0 0 0 0 0 0 0 0 0 0 0 0 0 0 0 0 0 0 0 0 0 0 0 0 0 0 0 0 0 0 0 0 0 0 0 0 0 0 0 0 0 0 0 0 0 0 0 0 0 0 0 0 0 0 0 0 0 0 0 0 0 0 0 0 0 
0 0 0 0 0 0 0 0 0 0 0 0 0 0 0 0 0 0 0 0 0 0 0 0 0 0 0 0 0 0 0 0 0 0 0 0 0 0 0 0 0 0 0 0 0 0 0 0 0 0 0 0 0 0 0 0 0 0 0 0 0 0 0 0 0 0 0 0 0 0 0 0 0 0 0 0 0 0 0 0 0 0 0 0 0 0 0 0 0 0 0 0 0 0 0 0 0 0 0 0 0 0 0 0 0 0 0 0 0 0 0 0 0 0 0 0 0 0 0 0 0 0 0 0 0 0 0 0 0 0 0 0 0 0 0 0 0 0 0 0 0 0 0 0 
0 0 0 0 0 0 0 0 0 0 0 0 0 0 0 0 0 0 0 0 0 0 0 0 0 0 0 0 0 0 0 0 0 0 0 0 0 0 0 0 0 0 0 0 0 0 0 0 0 0 0 0 0 0 0 0 0 0 0 0 0 0 0 0 0 0 0 0 0 0 0 0 0 0 0 0 0 0 0 0 0 0 0 0 0 0 0 0 0 0 0 0 0 0 0 0 0 0 0 0 0 0 0 0 0 0 0 0 0 0 0 0 0 0 0 0 0 0 0 0 0 0 0 0 0 0 0 0 0 0 0 0 0 0 0 0 0 0 0 0 0 0 0 0 
0 0 0 0 0 0 0 0 0 0 0 0 0 0 0 0 0 0 0 0 0 0 0 0 0 0 0 0 0 0 0 0 0 0 0 0 0 0 0 0 0 0 0 0 0 0 0 0 0 0 0 0 0 0 0 0 0 0 0 0 0 0 0 0 0 0 0 0 0 0 0 0 0 0 0 0 0 0 0 0 0 0 0 0 0 0 0 0 0 0 0 0 0 0 0 0 0 0 0 0 0 0 0 0 0 0 0 0 0 0 0 0 0 0 0 0 0 0 0 0 0 0 0 0 0 0 0 0 0 0 0 0 0 0 0 0 0 0 0 0 0 0 0 0 
0 0 0 0 0 0 0 0 0 0 0 0 0 0 0 0 0 0 0 0 0 0 0 0 0 0 0 0 0 0 0 0 0 0 0 0 0 0 0 0 0 0 0 0 0 0 0 0 0 0 0 0 0 0 0 0 0 0 0 0 0 0 0 0 0 0 0 0 0 0 0 0 0 0 0 0 0 0 0 0 0 0 0 0 0 0 0 0 0 0 0 0 0 0 0 0 0 0 0 0 0 0 0 0 0 0 0 0 0 0 0 0 0 0 0 0 0 0 0 0 0 0 0 0 0 0 0 0 0 0 0 0 0 0 0 0 0 0 0 0 0 0 0 0 
0 0 0 0 0 0 0 0 0 0 0 0 0 0 0 0 0 0 0 0 0 0 0 0 0 0 0 0 0 0 0 0 0 0 0 0 0 0 0 0 0 0 0 0 0 0 0 0 0 0 0 0 0 0 0 0 0 0 0 0 0 0 0 0 0 0 0 0 0 0 0 0 0 0 0 0 0 0 0 0 0 0 0 0 0 0 0 0 0 0 0 0 0 0 0 0 0 0 0 0 0 0 0 0 0 0 0 0 0 0 0 0 0 0 0 0 0 0 0 0 0 0 0 0 0 0 0 0 0 0 0 0 0 0 0 0 0 0 0 0 0 0 0 0 
0 0 0 0 0 0 0 0 0 0 0 0 0 0 0 0 0 0 0 0 0 0 0 0 0 0 0 0 0 0 0 0 0 0 0 0 0 0 0 0 0 0 0 0 0 0 0 0 0 0 0 0 0 0 0 0 0 0 0 0 0 0 0 0 0 0 0 0 0 0 0 0 0 0 0 0 0 0 0 0 0 0 0 0 0 0 0 0 0 0 0 0 0 0 0 0 0 0 0 0 0 0 0 0 0 0 0 0 0 0 0 0 0 0 0 0 0 0 0 0 0 0 0 0 0 0 0 0 0 0 0 0 0 0 0 0 0 0 0 0 0 0 0 0 
0 0 0 0 0 0 0 0 0 0 0 0 0 0 0 0 0 0 0 0 0 0 0 0 0 0 0 0 0 0 0 0 0 0 0 0 0 0 0 0 0 0 0 0 0 0 0 0 0 0 0 0 0 0 0 0 0 0 0 0 0 0 0 0 0 0 0 0 0 0 0 0 0 0 0 0 0 0 0 0 0 0 0 0 0 0 0 0 0 0 0 0 0 0 0 0 0 0 0 0 0 0 0 0 0 0 0 0 0 0 0 0 0 0 0 0 0 0 0 0 0 0 0 0 0 0 0 0 0 0 0 0 0 0 0 0 0 0 0 0 0 0 0 0 
0 0 0 0 0 0 0 0 0 0 0 0 0 0 0 0 0 0 0 0 0 0 0 0 0 0 0 0 0 0 0 0 0 0 0 0 0 0 0 0 0 0 0 0 0 0 0 0 0 0 0 0 0 0 0 0 0 0 0 0 0 0 0 0 0 0 0 0 0 0 0 0 0 0 0 0 0 0 0 0 0 0 0 0 0 0 0 0 0 0 0 0 0 0 0 0 0 0 0 0 0 0 0 0 0 0 0 0 0 0 0 0 0 0 0 0 0 0 0 0 0 0 0 0 0 0 0 0 0 0 0 0 0 0 0 0 0 0 0 0 0 0 0 0 
0 0 0 0 0 0 0 0 0 0 0 0 0 0 0 0 0 0 0 0 0 0 0 0 0 0 0 0 0 0 0 0 0 0 0 0 0 0 0 0 0 0 0 0 0 0 0 0 0 0 0 0 0 0 0 0 0 0 0 0 0 0 0 0 0 0 0 0 0 0 0 0 0 0 0 0 0 0 0 0 0 0 0 0 0 0 0 0 0 0 0 0 0 0 0 0 0 0 0 0 0 0 0 0 0 0 0 0 0 0 0 0 0 0 0 0 0 0 0 0 0 0 0 0 0 0 0 0 0 0 0 0 0 0 0 0 0 0 0 0 0 0 0 0 
0 0 0 0 0 0 0 0 0 0 0 0 0 0 0 0 0 0 0 0 0 0 0 0 0 0 0 0 0 0 0 0 0 0 0 0 0 0 0 0 0 0 0 0 0 0 0 0 0 0 0 0 0 0 0 0 0 0 0 0 0 0 0 0 0 0 0 0 0 0 0 0 0 0 0 0 0 0 0 0 0 0 0 0 0 0 0 0 0 0 0 0 0 0 0 0 0 0 0 0 0 0 0 0 0 0 0 0 0 0 0 0 0 0 0 0 0 0 0 0 0 0 0 0 0 0 0 0 0 0 0 0 0 0 0 0 0 0 0 0 0 0 0 0 
0 0 0 0 0 0 0 0 0 0 0 0 0 0 0 0 0 0 0 0 0 0 0 0 0 0 0 0 0 0 0 0 0 0 0 0 0 0 0 0 0 0 0 0 0 0 0 0 0 0 0 0 0 0 0 0 0 0 0 0 0 0 0 0 0 0 0 0 0 0 0 0 0 0 0 0 0 0 0 0 0 0 0 0 0 0 0 0 0 0 0 0 0 0 0 0 0 0 0 0 0 0 0 0 0 0 0 0 0 0 0 0 0 0 0 0 0 0 0 0 0 0 0 0 0 0 0 0 0 0 0 0 0 0 0 0 0 0 0 0 0 0 0 0 
0 0 0 0 0 0 0 0 0 0 0 0 0 0 0 0 0 0 0 0 0 0 0 0 0 0 0 0 0 0 0 0 0 0 0 0 0 0 0 0 0 0 0 0 0 0 0 0 0 0 0 0 0 0 0 0 0 0 0 0 0 0 0 0 0 0 0 0 0 0 0 0 0 0 0 0 0 0 0 0 0 0 0 0 0 0 0 0 0 0 0 0 0 0 0 0 0 0 0 0 0 0 0 0 0 0 0 0 0 0 0 0 0 0 0 0 0 0 0 0 0 0 0 0 0 0 0 0 0 0 0 0 0 0 0 0 0 0 0 0 0 0 0 0 
0 0 0 0 0 0 0 0 0 0 0 0 0 0 0 0 0 0 0 0 0 0 0 0 0 0 0 0 0 0 0 0 0 0 0 0 0 0 0 0 0 0 0 0 0 0 0 0 0 0 0 0 0 0 0 0 0 0 0 0 0 0 0 0 0 0 0 0 0 0 0 0 0 0 0 0 0 0 0 0 0 0 0 0 0 0 0 0 0 0 0 0 0 0 0 0 0 0 0 0 0 0 0 0 0 0 0 0 0 0 0 0 0 0 0 0 0 0 0 0 0 0 0 0 0 0 0 0 0 0 0 0 0 0 0 0 0 0 0 0 0 0 0 0 
0 0 0 0 0 0 0 0 0 0 0 0 0 0 0 0 0 0 0 0 0 0 0 0 0 0 0 0 0 0 0 0 0 0 0 0 0 0 0 0 0 0 0 0 0 0 0 0 0 0 0 0 0 0 0 0 0 0 0 0 0 0 0 0 0 0 0 0 0 0 0 0 0 0 0 0 0 0 0 0 0 0 0 0 0 0 0 0 0 0 0 0 0 0 0 0 0 0 0 0 0 0 0 0 0 0 0 0 0 0 0 0 0 0 0 0 0 0 0 0 0 0 0 0 0 0 0 0 0 0 0 0 0 0 0 0 0 0 0 0 0 0 0 0 
0 0 0 0 0 0 0 0 0 0 0 0 0 0 0 0 0 0 0 0 0 0 0 0 0 0 0 0 0 0 0 0 0 0 0 0 0 0 0 0 0 0 0 0 0 0 0 0 0 0 0 0 0 0 0 0 0 0 0 0 0 0 0 0 0 0 0 0 0 0 0 0 0 0 0 0 0 0 0 0 0 0 0 0 0 0 0 0 0 0 0 0 0 0 0 0 0 0 0 0 0 0 0 0 0 0 0 0 0 0 0 0 0 0 0 0 0 0 0 0 0 0 0 0 0 0 0 0 0 0 0 0 0 0 0 0 0 0 0 0 0 0 0 0 
0 0 0 0 0 0 0 0 0 0 0 0 0 0 0 0 0 0 0 0 0 0 0 0 0 0 0 0 0 0 0 0 0 0 0 0 0 0 0 0 0 0 0 0 0 0 0 0 0 0 0 0 0 0 0 0 0 0 0 0 0 0 0 0 0 0 0 0 0 0 0 0 0 0 0 0 0 0 0 0 0 0 0 0 0 0 0 0 0 0 0 0 0 0 0 0 0 0 0 0 0 0 0 0 0 0 0 0 0 0 0 0 0 0 0 0 0 0 0 0 0 0 0 0 0 0 0 0 0 0 0 0 0 0 0 0 0 0 0 0 0 0 0 0 
0 0 0 0 0 0 0 0 0 0 0 0 0 0 0 0 0 0 0 0 0 0 0 0 0 0 0 0 0 0 0 0 0 0 0 0 0 0 0 0 0 0 0 0 0 0 0 0 0 0 0 0 0 0 0 0 0 0 0 0 0 0 0 0 0 0 0 0 0 0 0 0 0 0 0 0 0 0 0 0 0 0 0 0 0 0 0 0 0 0 0 0 0 0 0 0 0 0 0 0 0 0 0 0 0 0 0 0 0 0 0 0 0 0 0 0 0 0 0 0 0 0 0 0 0 0 0 0 0 0 0 0 0 0 0 0 0 0 0 0 0 0 0 0 
0 0 0 0 0 0 0 0 0 0 0 0 0 0 0 0 0 0 0 0 0 0 0 0 0 0 0 0 0 0 0 0 0 0 0 0 0 0 0 0 0 0 0 0 0 0 0 0 0 0 0 0 0 0 0 0 0 0 0 0 0 0 0 0 0 0 0 0 0 0 0 0 0 0 0 0 0 0 0 0 0 0 0 0 0 0 0 0 0 0 0 0 0 0 0 0 0 0 0 0 0 0 0 0 0 0 0 0 0 0 0 0 0 0 0 0 0 0 0 0 0 0 0 0 0 0 0 0 0 0 0 0 0 0 0 0 0 0 0 0 0 0 0 0 
0 0 0 0 0 0 0 0 0 0 0 0 0 0 0 0 0 0 0 0 0 0 0 0 0 0 0 0 0 0 0 0 0 0 0 0 0 0 0 0 0 0 0 0 0 0 0 0 0 0 0 0 0 0 0 0 0 0 0 0 0 0 0 0 0 0 0 0 0 0 0 0 0 0 0 0 0 0 0 0 0 0 0 0 0 0 0 0 0 0 0 0 0 0 0 0 0 0 0 0 0 0 0 0 0 0 0 0 0 0 0 0 0 0 0 0 0 0 0 0 0 0 0 0 0 0 0 0 0 0 0 0 0 0 0 0 0 0 0 0 0 0 0 0 
0 0 0 0 0 0 0 0 0 0 0 0 0 0 0 0 0 0 0 0 0 0 0 0 0 0 0 0 0 0 0 0 0 0 0 0 0 0 0 0 0 0 0 0 0 0 0 0 0 0 0 0 0 0 0 0 0 0 0 0 0 0 0 0 0 0 0 0 0 0 0 0 0 0 0 0 0 0 0 0 0 0 0 0 0 0 0 0 0 0 0 0 0 0 0 0 0 0 0 0 0 0 0 0 0 0 0 0 0 0 0 0 0 0 0 0 0 0 0 0 0 0 0 0 0 0 0 0 0 0 0 0 0 0 0 0 0 0 0 0 0 0 0 0 
0 0 0 0 0 0 0 0 0 0 0 0 0 0 0 0 0 0 0 0 0 0 0 0 0 0 0 0 0 0 0 0 0 0 0 0 0 0 0 0 0 0 0 0 0 0 0 0 0 0 0 0 0 0 0 0 0 0 0 0 0 0 0 0 0 0 0 0 0 0 0 0 0 0 0 0 0 0 0 0 0 0 0 0 0 0 0 0 0 0 0 0 0 0 0 0 0 0 0 0 0 0 0 0 0 0 0 0 0 0 0 0 0 0 0 0 0 0 0 0 0 0 0 0 0 0 0 0 0 0 0 0 0 0 0 0 0 0 0 0 0 0 0 0 
0 0 0 0 0 0 0 0 0 0 0 0 0 0 0 0 0 0 0 0 0 0 0 0 0 0 0 0 0 0 0 0 0 0 0 0 0 0 0 0 0 0 0 0 0 0 0 0 0 0 0 0 0 0 0 0 0 0 0 0 0 0 0 0 0 0 0 0 0 0 0 0 0 0 0 0 0 0 0 0 0 0 0 0 0 0 0 0 0 0 0 0 0 0 0 0 0 0 0 0 0 0 0 0 0 0 0 0 0 0 0 0 0 0 0 0 0 0 0 0 0 0 0 0 0 0 0 0 0 0 0 0 0 0 0 0 0 0 0 0 0 0 0 0 
0 0 0 0 0 0 0 0 0 0 0 0 0 0 0 0 0 0 0 0 0 0 0 0 0 0 0 0 0 0 0 0 0 0 0 0 0 0 0 0 0 0 0 0 0 0 0 0 0 0 0 0 0 0 0 0 0 0 0 0 0 0 0 0 0 0 0 0 0 0 0 0 0 0 0 0 0 0 0 0 0 0 0 0 0 0 0 0 0 0 0 0 0 0 0 0 0 0 0 0 0 0 0 0 0 0 0 0 0 0 0 0 0 0 0 0 0 0 0 0 0 0 0 0 0 0 0 0 0 0 0 0 0 0 0 0 0 0 0 0 0 0 0 0 
0 0 0 0 0 0 0 0 0 0 0 0 0 0 0 0 0 0 0 0 0 0 0 0 0 0 0 0 0 0 0 0 0 0 0 0 0 0 0 0 0 0 0 0 0 0 0 0 0 0 0 0 0 0 0 0 0 0 0 0 0 0 0 0 0 0 0 0 0 0 0 0 0 0 0 0 0 0 0 0 0 0 0 0 0 0 0 0 0 0 0 0 0 0 0 0 0 0 0 0 0 0 0 0 0 0 0 0 0 0 0 0 0 0 0 0 0 0 0 0 0 0 0 0 0 0 0 0 0 0 0 0 0 0 0 0 0 0 0 0 0 0 0 0 
0 0 0 0 0 0 0 0 0 0 0 0 0 0 0 0 0 0 0 0 0 0 0 0 0 0 0 0 0 0 0 0 0 0 0 0 0 0 0 0 0 0 0 0 0 0 0 0 0 0 0 0 0 0 0 0 0 0 0 0 0 0 0 0 0 0 0 0 0 0 0 0 0 0 0 0 0 0 0 0 0 0 0 0 0 0 0 0 0 0 0 0 0 0 0 0 0 0 0 0 0 0 0 0 0 0 0 0 0 0 0 0 0 0 0 0 0 0 0 0 0 0 0 0 0 0 0 0 0 0 0 0 0 0 0 0 0 0 0 0 0 0 0 0 
