Data file name : 
 parameter R and number of iterations : 
New best solution value, cost : 5550 Found at iteration : 1
70 106 3 36 94 24 78 85 140 83 8 109 58 72 101 89 111 144 5 48 49 90 51 126 74 56 46 86 23 4 6 29 30 17 81 37 43 2 142 128 39 64 16 14 108 61 88 65 113 132 104 137 117 26 143 19 77 32 31 33 40 100 122 68 120 131 127 54 84 25 99 66 79 20 7 57 92 87 53 98 50 41 136 69 45 125 138 13 118 22 76 133 34 12 93 105 82 52 9 115 63 28 44 1 18 47 121 129 15 114 11 135 123 62 95 102 130 103 27 67 71 35 112 60 10 141 21 139 59 116 107 97 119 42 38 134 73 124 55 80 110 96 75 91 
New best solution value, cost : 5364 Found at iteration : 3
70 36 109 19 8 129 41 118 24 32 4 68 58 15 114 94 9 76 128 65 72 101 84 126 33 31 127 25 99 66 40 105 43 57 54 53 12 124 135 1 23 86 112 107 93 81 144 83 115 10 60 90 88 46 5 49 22 47 27 11 37 17 48 98 117 14 108 61 2 111 56 13 143 121 16 26 142 64 113 138 67 38 42 100 122 44 6 39 103 18 141 87 35 116 29 30 52 82 125 92 62 28 51 134 140 77 71 120 3 136 69 133 59 74 123 131 106 7 91 45 50 79 20 80 97 110 78 34 102 95 96 55 119 132 89 63 75 130 139 21 137 104 85 73 
New best solution value, cost : 4900 Found at iteration : 5
63 30 39 126 102 36 94 134 34 83 113 130 95 109 75 78 45 144 40 62 121 8 58 33 104 137 84 35 46 81 72 91 132 29 6 116 7 133 101 73 129 15 56 17 136 69 125 92 86 114 51 67 20 103 141 87 23 143 37 50 79 38 42 48 43 111 64 59 25 49 32 5 11 108 16 53 99 57 41 118 27 61 26 100 66 90 28 31 117 14 142 122 88 4 44 127 85 89 2 52 82 105 1 54 97 80 110 115 9 18 47 139 138 55 13 98 76 140 22 21 123 106 131 120 77 74 24 12 71 3 68 65 107 124 135 93 119 96 19 128 112 60 10 70 
New best solution value, cost : 4832 Found at iteration : 10
4 78 63 143 94 67 135 133 89 85 129 15 114 103 93 69 134 92 87 125 100 141 7 136 5 48 45 26 122 42 38 142 49 37 34 118 72 101 12 2 90 29 14 61 108 16 64 88 51 6 117 41 58 50 111 59 75 56 81 109 8 79 20 126 105 17 46 36 98 39 30 25 1 102 62 86 13 82 66 99 44 95 35 23 138 52 18 137 28 130 116 119 43 113 24 104 83 144 80 97 115 9 76 132 96 121 55 68 84 22 47 32 140 70 110 19 40 33 54 53 71 74 124 65 107 31 127 57 123 77 120 128 112 60 11 139 91 73 131 106 3 10 27 21 
New best solution value, cost : 4764 Found at iteration : 21
73 78 96 5 49 125 4 134 75 143 110 48 90 87 92 98 100 26 80 97 61 141 138 13 44 28 55 119 108 42 38 140 122 142 64 37 16 103 14 117 2 88 111 94 67 72 58 126 29 56 17 46 81 101 8 12 6 51 133 9 76 50 59 93 1 129 69 15 20 79 137 135 105 7 136 114 52 82 104 132 130 95 121 115 43 66 99 30 144 102 62 35 116 23 25 39 83 70 45 21 139 86 109 36 84 63 34 19 68 18 32 113 40 71 128 65 22 47 53 57 123 131 33 10 60 31 127 54 24 120 77 74 112 107 11 124 3 106 85 89 41 118 27 91 
New best solution value, cost : 4672 Found at iteration : 47
134 139 143 51 73 92 125 140 75 21 26 29 61 87 42 141 28 63 100 6 90 49 38 103 44 122 117 56 108 5 135 67 2 142 14 37 16 48 13 98 1 105 81 17 64 88 138 96 34 58 8 46 111 25 119 55 45 72 133 69 136 7 97 80 130 101 27 11 12 66 15 114 102 95 76 9 93 99 129 110 86 23 43 115 20 53 52 24 83 62 35 50 79 18 82 30 144 121 116 59 22 47 113 39 3 71 123 106 131 120 77 137 84 40 68 109 36 57 54 104 4 33 19 10 60 31 127 132 70 128 65 107 112 32 94 74 78 126 91 124 41 118 85 89 
New best solution value, cost : 4612 Found at iteration : 73
139 109 36 133 69 136 118 41 21 143 83 144 116 7 67 103 28 63 102 26 35 62 42 141 44 117 95 100 122 142 38 2 1 14 130 61 90 88 125 87 34 45 37 108 5 48 114 92 105 81 46 16 49 64 15 129 58 8 17 12 93 111 20 59 72 27 11 121 135 66 79 50 101 127 54 53 25 99 91 137 33 31 56 57 32 119 132 104 22 47 6 51 18 52 82 138 4 76 29 96 113 97 39 13 40 9 71 123 55 80 30 98 84 115 60 112 106 110 65 128 140 24 10 107 131 120 68 73 70 75 43 3 23 86 19 134 78 126 94 124 74 77 85 89 
New best solution value, cost : 4532 Found at iteration : 101
4 75 140 7 136 103 67 117 36 109 144 83 69 133 37 14 28 143 92 125 87 141 48 5 44 26 100 122 38 42 90 49 73 116 2 142 88 108 61 129 1 35 81 46 17 16 56 15 105 62 95 102 130 64 91 114 70 121 8 20 59 111 6 29 135 27 11 79 50 53 51 57 127 54 58 82 66 99 25 32 31 12 72 52 98 13 132 104 33 93 101 18 47 138 24 137 40 9 115 71 22 68 65 41 84 76 112 123 55 19 128 118 39 113 60 10 80 97 110 119 30 34 45 43 131 120 77 74 78 63 107 124 23 86 21 139 134 126 94 3 106 96 85 89 
New best solution value, cost : 4506 Found at iteration : 149
124 10 38 103 67 117 14 37 112 60 42 141 125 87 92 48 107 144 83 100 26 108 16 5 44 116 122 56 17 61 90 49 28 35 2 142 46 51 64 111 1 62 29 6 81 121 84 114 105 95 102 88 66 33 40 15 11 130 20 53 99 25 31 129 27 50 79 82 57 54 127 137 143 59 18 52 8 32 19 104 135 93 133 69 58 65 68 132 4 12 101 136 72 128 13 98 109 76 9 115 123 71 138 41 36 70 47 7 96 110 119 118 39 113 22 24 55 80 97 126 30 34 45 43 131 120 77 75 78 63 139 21 23 86 74 94 134 140 73 3 106 91 85 89 
New best solution value, cost : 4498 Found at iteration : 198
89 85 67 103 125 134 14 117 41 91 42 141 87 92 37 48 118 116 38 2 17 56 94 5 44 35 122 142 29 6 64 111 28 62 100 88 24 51 16 49 1 130 26 143 84 40 61 90 105 95 66 99 25 121 108 4 75 102 57 53 46 33 31 70 93 12 27 11 81 54 127 73 135 72 32 58 8 86 79 82 78 101 136 69 43 23 20 52 36 109 7 133 98 128 50 59 126 76 9 115 13 65 68 18 83 144 47 132 138 104 19 139 74 113 22 60 10 137 140 21 30 39 119 112 97 80 110 96 77 120 3 107 45 55 129 15 63 131 106 124 34 123 71 114 
New best solution value, cost : 4484 Found at iteration : 232
91 134 67 103 125 94 14 117 41 118 42 141 87 92 37 48 126 25 38 2 32 27 143 5 44 88 142 122 57 11 100 49 28 99 51 137 53 84 26 90 1 66 132 104 121 40 108 61 105 29 6 111 64 33 16 7 59 34 45 54 127 31 69 136 63 62 35 50 79 20 133 75 102 95 116 58 8 81 30 109 130 12 72 56 17 46 39 36 139 93 101 52 82 138 13 98 21 76 9 115 18 43 68 23 83 144 47 135 128 65 19 86 89 85 22 60 10 97 113 119 74 107 77 112 55 80 110 78 4 124 120 131 123 71 96 114 140 70 3 106 24 73 129 15 
New best solution value, cost : 4470 Found at iteration : 252
89 85 29 134 70 92 14 117 94 41 6 51 125 87 37 48 140 118 75 27 42 141 103 5 105 25 2 11 38 67 64 111 66 99 142 53 57 32 16 49 1 88 122 100 26 143 108 61 44 20 56 84 102 95 62 90 28 79 17 40 116 130 35 121 59 50 63 101 82 18 47 22 12 34 46 72 52 58 36 33 93 45 81 132 76 8 109 31 135 7 136 104 9 138 54 127 21 133 69 137 115 43 13 98 139 83 144 10 86 23 68 113 126 91 4 60 128 65 19 39 78 96 74 112 77 71 120 30 119 97 124 107 106 123 131 114 110 80 55 73 3 24 129 15 
New best solution value, cost : 4386 Found at iteration : 313
89 51 67 125 87 92 14 117 85 6 103 141 56 17 37 48 4 29 25 42 38 46 94 5 66 99 88 11 53 81 64 111 105 2 142 27 57 32 16 49 1 44 122 100 84 40 108 90 78 28 70 26 102 95 130 61 83 144 93 143 116 62 35 121 59 50 12 101 18 8 47 22 21 79 135 72 82 58 109 33 139 20 75 132 52 74 36 134 45 7 136 104 24 98 54 140 34 63 69 137 3 13 127 31 73 91 133 10 106 138 68 113 126 96 112 60 128 65 19 39 118 124 107 43 23 131 120 30 41 97 119 115 86 123 77 114 110 80 55 9 76 71 129 15 
New best solution value, cost : 4364 Found at iteration : 341
67 30 39 113 92 134 14 117 103 93 12 141 87 135 37 48 51 143 38 42 125 16 64 111 6 100 26 56 17 46 81 5 29 122 142 2 61 108 90 49 137 44 28 25 72 58 8 41 104 1 88 99 101 102 22 118 132 105 66 35 62 95 130 27 34 45 144 116 53 57 47 11 50 79 83 52 82 18 109 32 59 20 96 110 80 55 36 94 63 136 69 133 97 121 54 127 74 7 73 119 138 40 33 31 77 140 98 10 13 84 78 126 120 131 112 60 128 65 123 71 3 106 107 115 9 68 19 75 4 91 124 43 76 85 89 114 21 139 86 23 24 70 129 15 
New best solution value, cost : 4220 Found at iteration : 429
30 39 67 70 92 94 14 117 143 113 103 141 87 37 48 5 51 29 38 42 125 61 90 49 28 6 2 56 17 108 16 64 44 122 142 81 46 8 109 111 1 105 88 137 104 58 36 134 27 66 99 25 132 72 12 93 11 100 53 26 22 47 101 135 59 139 50 32 62 35 116 118 34 20 79 82 55 18 144 41 45 21 57 52 80 110 83 96 7 136 69 133 97 119 54 127 63 138 13 102 95 121 33 31 71 123 98 10 130 84 40 78 120 131 112 60 128 65 106 3 77 73 107 115 9 68 19 129 74 43 124 140 76 85 89 15 91 23 86 126 24 4 75 114 
New best solution value, cost : 4016 Found at iteration : 488
24 75 67 103 92 37 14 117 51 111 64 141 87 16 48 5 29 6 38 42 125 108 90 49 28 25 2 56 17 61 94 36 44 88 142 81 46 8 58 109 1 105 122 100 104 132 72 12 27 99 66 26 137 134 101 93 11 53 59 143 22 70 126 135 63 57 50 18 47 35 116 118 34 32 79 82 119 83 144 41 45 7 20 52 97 138 13 54 96 136 69 55 80 110 98 127 139 21 133 102 95 62 121 31 77 74 124 107 130 84 40 33 120 10 60 112 76 19 68 4 131 106 123 115 9 65 73 129 78 3 71 113 39 128 89 15 91 86 23 43 30 140 85 114 
New best solution value, cost : 3994 Found at iteration : 569
24 4 38 42 125 37 14 117 91 111 64 141 87 16 48 5 126 94 67 103 92 108 90 49 28 140 2 46 17 61 56 36 44 88 142 26 81 8 58 109 1 105 122 100 104 132 72 12 66 99 25 143 137 135 101 93 57 53 83 35 62 102 129 15 27 11 144 116 59 95 121 114 32 20 79 50 119 130 6 51 136 7 82 18 97 138 29 54 69 45 52 55 80 13 98 127 133 34 63 47 22 110 33 31 120 77 112 107 124 68 40 84 131 10 60 123 71 65 19 75 76 9 115 78 96 128 118 134 106 3 74 113 21 139 41 73 86 23 43 39 30 70 85 89 
New best solution value, cost : 3958 Found at iteration : 826
137 104 67 103 92 37 14 117 91 132 64 141 87 16 48 5 140 111 38 42 125 108 90 49 28 142 2 88 17 61 56 36 44 122 100 26 46 81 8 109 1 105 66 99 25 143 58 135 133 32 57 53 83 101 72 129 69 136 7 116 144 102 29 15 27 11 59 35 62 95 6 114 126 20 79 50 119 130 12 93 75 24 82 18 97 138 51 54 4 45 52 55 80 13 121 127 63 34 96 47 22 98 33 31 139 21 124 107 110 68 40 84 134 10 60 112 123 19 71 89 76 9 115 113 128 65 118 85 78 3 106 131 120 77 41 73 86 23 43 39 30 74 94 70 
New best solution value, cost : 3938 Found at iteration : 913
137 104 67 103 92 37 14 117 91 132 64 141 87 16 48 5 134 111 38 42 125 108 90 49 28 142 2 88 17 61 56 36 44 122 100 26 46 81 8 109 1 105 66 99 25 143 58 140 133 32 57 53 83 51 6 129 69 136 7 116 144 130 29 15 27 11 50 35 62 101 72 114 126 20 79 59 102 95 12 121 96 52 82 18 47 22 93 54 55 80 45 97 73 138 135 127 21 110 34 119 63 13 98 31 139 4 124 107 68 84 40 33 24 10 60 112 19 65 128 41 76 9 115 123 71 74 85 118 78 3 106 131 120 77 89 75 86 23 43 30 39 113 94 70 
New best solution value, cost : 3936 Found at iteration : 1006
132 104 67 103 92 140 37 14 91 137 125 141 87 48 90 117 134 2 38 42 16 5 49 29 28 142 88 111 64 108 61 6 44 122 100 26 32 57 17 56 1 105 75 143 25 46 81 51 133 27 11 66 99 53 8 109 69 136 59 116 35 102 58 36 4 7 50 30 62 95 72 12 135 20 79 39 113 130 101 93 24 45 82 18 47 22 121 54 63 34 52 97 119 138 118 127 139 96 55 80 98 13 41 31 124 107 112 110 68 84 40 33 21 10 60 126 19 65 128 114 76 9 115 123 71 74 85 15 78 3 106 131 120 77 89 129 86 23 43 73 144 83 94 70 
New best solution value, cost : 3910 Found at iteration : 1112
94 91 67 125 92 37 14 117 34 45 103 141 87 48 90 51 63 2 38 42 16 5 49 29 28 142 88 111 64 108 61 6 44 122 100 26 143 36 17 56 1 105 32 57 66 109 46 81 78 27 11 53 99 25 58 8 134 133 69 136 24 135 72 12 137 50 59 7 118 41 101 93 104 79 20 113 39 30 54 102 132 96 55 80 110 84 130 95 119 82 18 97 138 40 127 121 126 52 47 22 13 33 31 62 124 107 112 19 68 98 116 35 4 10 60 71 65 73 144 114 76 9 115 123 128 70 83 15 21 139 106 131 120 85 89 129 86 23 43 3 77 74 140 75 
New best solution value, cost : 3832 Found at iteration : 1182
91 94 67 111 64 16 14 117 34 45 103 125 61 108 90 51 63 2 141 42 87 5 49 29 28 142 88 38 92 48 37 6 44 122 100 26 143 126 17 56 1 105 32 57 66 134 46 81 78 27 11 53 99 25 58 8 70 133 69 41 93 12 72 109 132 7 136 118 135 30 101 36 104 20 59 110 113 39 54 102 137 79 50 80 55 84 121 95 119 82 18 97 138 40 127 130 96 52 47 22 13 33 31 62 124 107 112 19 68 98 83 35 4 10 60 71 65 24 144 116 76 9 115 123 128 89 140 73 21 139 106 131 120 85 75 129 86 23 43 3 77 74 114 15 
New best solution value, cost : 3776 Found at iteration : 1305
21 139 67 111 64 16 14 117 34 45 103 141 61 108 90 51 63 2 125 42 87 5 49 29 28 142 88 38 92 48 37 6 44 122 100 26 143 70 17 56 1 105 66 25 32 73 46 81 27 11 99 53 57 78 58 8 94 133 69 41 93 12 72 109 132 7 136 118 135 30 101 36 104 20 59 113 54 39 121 102 137 79 50 22 127 33 130 95 24 82 18 47 31 40 84 55 124 52 107 98 13 138 97 80 9 115 112 19 68 116 35 62 76 10 60 71 65 144 83 110 140 4 126 123 128 89 119 96 91 43 106 131 134 85 75 129 86 23 3 120 77 74 114 15 
New best solution value, cost : 3756 Found at iteration : 1456
63 34 42 38 94 16 14 117 4 45 141 87 92 64 111 73 143 67 103 125 48 5 37 29 28 2 122 142 61 108 51 6 44 26 100 88 90 49 17 56 1 105 66 99 25 78 46 81 27 11 126 53 57 36 109 8 70 133 69 30 32 12 72 58 132 7 136 39 24 93 101 102 104 20 59 113 54 135 121 95 137 79 50 22 127 31 33 130 118 82 18 47 84 40 119 55 41 52 124 140 13 138 97 80 76 9 107 68 98 116 35 62 10 60 112 19 65 144 83 110 139 115 3 91 128 89 85 96 21 43 106 131 123 71 75 114 86 23 134 120 77 74 129 15 
New best solution value, cost : 3752 Found at iteration : 1679
126 38 42 125 108 16 14 117 34 63 141 87 92 64 111 29 45 67 103 48 61 5 37 6 2 122 142 100 90 49 56 51 44 28 88 26 143 21 17 78 1 105 66 99 25 139 46 81 27 11 70 53 57 36 109 8 4 133 69 30 32 12 72 58 132 7 136 39 135 93 101 102 104 20 59 113 54 24 121 95 137 79 50 22 127 31 33 130 118 82 18 47 84 40 119 55 41 52 124 140 13 138 97 80 94 73 107 68 98 116 35 62 10 60 112 19 65 144 83 110 9 115 3 91 128 89 85 96 76 43 106 131 123 71 75 114 86 23 134 120 77 74 129 15 
New best solution value, cost : 3744 Found at iteration : 1876
63 38 42 125 73 111 14 117 34 103 141 87 48 64 37 29 45 67 2 92 5 16 51 6 44 122 142 143 90 49 17 56 28 100 88 26 61 108 46 94 1 105 66 99 25 140 81 36 27 11 30 53 57 58 8 109 126 59 39 113 32 72 93 135 132 7 136 69 70 101 12 102 104 50 52 133 54 33 121 95 137 79 82 22 127 31 24 130 118 20 18 47 84 40 119 55 41 78 139 21 13 138 97 80 107 124 91 68 98 116 35 62 112 60 10 19 65 144 83 110 9 115 106 3 128 85 89 96 76 43 131 120 123 71 75 114 86 23 74 77 4 134 129 15 
