Data file name : 
 parameter R and number of iterations : 
New best solution value, cost : 716 Found at iteration : 1
2 16 24 19 34 28 5 31 6 23 26 29 9 1 32 8 20 3 27 30 10 33 4 13 35 25 36 7 11 21 18 14 22 15 12 17 
New best solution value, cost : 706 Found at iteration : 10
32 12 22 31 8 29 6 16 30 34 2 28 7 9 20 5 36 10 1 23 11 13 14 26 25 33 4 27 35 3 18 24 21 15 17 19 
New best solution value, cost : 704 Found at iteration : 21
12 32 31 17 29 8 30 16 2 34 6 28 7 9 22 5 36 20 1 23 11 10 13 26 25 33 4 27 35 3 18 24 21 15 14 19 
New best solution value, cost : 666 Found at iteration : 26
12 2 6 17 30 34 9 22 8 29 20 16 32 11 10 28 7 13 1 23 36 3 27 26 25 33 4 5 35 15 18 14 31 21 19 24 
New best solution value, cost : 640 Found at iteration : 30
17 2 34 6 31 11 9 22 29 10 20 16 8 30 32 28 7 13 1 23 36 3 27 26 25 33 4 5 35 14 18 12 21 15 19 24 
New best solution value, cost : 632 Found at iteration : 99
31 6 34 2 32 20 9 22 29 10 11 16 8 30 17 28 7 13 1 23 36 3 27 26 25 33 4 5 35 14 18 24 21 15 12 19 
New best solution value, cost : 630 Found at iteration : 251
31 2 34 6 22 20 9 17 29 10 11 16 8 30 32 28 7 13 1 23 36 3 27 26 25 33 4 5 35 14 18 24 15 21 12 19 
New best solution value, cost : 628 Found at iteration : 461
31 2 34 6 32 17 9 22 8 29 20 16 30 10 11 28 7 13 1 23 36 3 27 26 25 33 4 5 35 14 18 24 15 21 12 19 
