Data file name : 
 parameter R and number of iterations : 
New best solution value, cost : 1796 Found at iteration : 1
136 92 103 91 58 118 38 27 111 127 83 2 94 87 75 120 102 77 50 101 28 43 128 130 48 62 56 49 21 3 114 98 14 116 74 59 16 122 72 142 97 79 88 26 61 31 5 4 6 39 85 40 89 90 117 65 70 81 73 20 68 132 19 129 53 9 8 1 12 23 84 24 109 143 76 32 131 45 126 47 46 18 100 10 7 52 55 135 66 63 71 133 134 60 78 33 141 64 22 125 57 25 29 34 93 123 140 69 99 137 115 51 41 104 107 13 44 86 30 105 121 112 113 144 17 106 108 119 35 54 96 67 36 110 139 82 37 11 80 95 138 42 15 124 
New best solution value, cost : 1668 Found at iteration : 5
136 92 85 111 58 27 35 55 110 88 83 74 66 68 69 143 98 81 42 63 28 84 96 112 91 131 1 6 3 61 44 109 14 25 65 75 95 19 72 45 46 141 86 7 8 9 4 5 17 90 51 40 62 80 117 18 76 101 13 70 128 11 36 10 2 114 129 133 48 38 60 87 26 33 23 32 89 82 126 52 39 100 77 132 57 122 140 135 56 20 12 124 134 116 37 50 71 108 43 49 54 115 29 16 93 123 30 73 99 139 31 137 41 15 107 21 104 106 125 102 97 78 130 144 59 53 47 119 64 34 79 67 105 120 121 24 127 142 118 138 103 94 113 22 
