Data file name : 
 parameter R and number of iterations : 
New best solution value, cost : 436 Found at iteration : 1
136 92 103 91 58 118 38 27 111 127 83 49 94 87 75 120 102 77 17 18 28 43 93 130 48 128 56 19 52 23 90 98 24 135 74 59 16 122 15 142 62 79 88 51 101 31 21 116 50 39 85 40 89 63 117 65 70 81 73 20 68 132 100 66 53 55 137 29 108 5 84 6 109 143 76 32 34 45 126 47 46 11 10 9 114 2 3 4 8 7 71 133 134 60 78 33 141 64 22 14 57 25 13 12 129 123 140 69 99 131 115 97 41 104 107 72 44 86 30 105 121 112 113 144 138 106 1 119 35 54 96 67 36 110 139 82 37 61 80 95 26 42 125 124 
New best solution value, cost : 380 Found at iteration : 2
92 25 57 11 62 100 58 90 113 137 129 23 55 96 130 38 67 128 76 72 66 10 68 28 27 87 109 19 138 135 79 52 127 78 31 144 33 139 110 60 46 81 7 99 118 6 30 5 4 39 37 126 70 45 117 142 123 95 9 20 8 35 82 133 36 48 85 105 103 136 134 53 22 143 12 13 63 91 74 107 50 141 106 2 3 121 29 93 86 47 132 97 71 14 101 112 54 88 59 51 15 16 17 24 114 84 116 69 1 41 115 89 32 102 43 64 61 94 73 40 18 125 77 120 131 122 42 119 56 80 140 49 21 83 104 98 108 75 34 26 111 44 65 124 
New best solution value, cost : 366 Found at iteration : 5
72 25 87 130 62 1 38 134 143 81 76 73 34 59 66 137 98 36 41 58 88 85 99 131 92 118 6 5 43 53 44 101 29 30 74 144 94 83 42 39 46 114 64 69 7 133 4 97 19 132 37 71 55 79 117 142 113 102 106 68 77 9 8 10 116 3 2 121 65 136 61 48 28 35 12 125 63 91 108 54 56 11 22 104 78 18 139 93 57 20 138 129 13 112 31 50 51 14 100 24 40 122 75 17 109 84 27 70 90 141 47 105 32 107 111 33 89 120 82 86 15 16 140 135 60 52 45 115 67 21 80 49 110 123 119 95 124 126 26 128 103 96 127 23 
New best solution value, cost : 310 Found at iteration : 9
76 100 132 109 62 85 60 21 89 117 111 141 52 116 66 136 140 36 79 47 42 95 70 121 131 56 4 5 6 53 126 18 122 68 74 144 139 93 110 23 46 143 29 44 3 97 102 45 16 17 39 27 112 91 77 84 25 115 26 127 30 12 2 135 7 8 15 55 80 129 105 72 125 35 37 75 33 71 67 13 130 14 22 119 124 57 133 20 31 63 86 101 38 61 104 50 28 114 113 81 58 118 19 9 10 107 40 134 106 34 92 1 32 138 99 48 142 94 82 123 137 120 11 51 103 69 43 41 65 88 24 87 78 128 64 73 54 49 83 98 90 96 108 59 
New best solution value, cost : 254 Found at iteration : 10
30 108 1 26 81 39 67 87 51 100 21 132 103 116 109 64 20 41 56 125 75 47 38 114 74 37 23 144 140 66 43 99 22 111 76 86 33 88 82 121 71 113 123 120 117 27 107 34 112 139 85 48 69 131 115 102 54 57 95 127 128 73 62 135 137 10 11 126 110 118 40 133 31 61 124 89 91 106 105 59 53 8 9 2 24 32 65 52 142 63 60 36 96 93 122 138 97 50 136 7 4 3 19 14 72 13 12 29 80 28 83 77 78 134 46 90 98 5 70 35 141 15 16 17 130 94 55 68 45 44 58 101 25 84 143 6 79 49 42 129 104 18 119 92 
New best solution value, cost : 240 Found at iteration : 21
30 117 43 26 81 20 67 137 49 85 35 23 103 116 75 93 110 41 56 125 99 72 38 114 80 73 66 144 140 54 82 88 22 106 107 86 33 42 136 121 71 139 123 44 102 27 113 60 134 131 96 48 69 50 59 108 97 78 89 55 138 126 70 135 39 11 12 13 74 118 40 133 31 61 124 100 91 132 28 21 120 8 9 10 115 94 98 37 142 63 53 36 64 83 122 101 62 32 45 7 4 3 19 14 34 109 90 104 57 68 127 77 87 46 76 143 24 105 1 2 111 15 16 51 130 52 65 95 29 47 58 141 25 84 79 6 5 112 129 18 17 128 119 92 
New best solution value, cost : 226 Found at iteration : 43
32 137 43 81 114 88 67 83 49 80 34 138 103 116 75 93 110 124 56 133 99 72 38 96 144 85 66 1 24 71 82 118 74 134 107 42 33 105 121 128 140 65 123 44 102 27 113 60 143 131 28 48 69 122 23 108 97 47 89 55 19 126 14 13 12 11 135 39 36 52 40 120 31 90 111 29 91 132 59 100 7 8 9 10 115 78 41 37 127 63 57 64 139 77 62 101 141 45 6 5 4 3 2 51 35 109 53 104 54 68 129 76 87 46 84 50 15 16 86 95 125 112 73 142 130 94 136 26 98 30 58 25 79 106 61 17 18 70 22 20 21 117 119 92 
New best solution value, cost : 212 Found at iteration : 82
38 137 43 81 114 144 67 83 29 80 34 42 88 116 109 93 120 124 125 133 99 72 61 96 55 85 66 69 51 64 82 52 74 36 107 128 33 105 121 53 140 115 123 44 97 84 62 60 143 131 126 48 32 122 23 108 139 47 89 79 19 135 71 138 65 11 78 39 91 31 40 102 24 90 111 127 129 132 59 100 7 8 9 10 41 49 35 37 118 57 54 101 77 27 113 110 141 18 6 5 4 3 2 63 94 28 103 104 1 68 26 76 87 46 95 17 16 15 86 50 112 134 73 142 130 25 136 56 98 75 58 30 45 106 12 13 14 70 22 20 21 117 119 92 
New best solution value, cost : 198 Found at iteration : 145
38 137 43 81 52 144 88 91 85 53 74 42 55 116 70 93 120 48 125 133 99 72 61 96 115 106 66 69 51 64 20 108 130 36 118 128 33 105 121 112 140 73 123 44 97 84 62 60 143 131 126 89 32 122 23 82 139 47 63 79 19 135 71 138 65 11 78 39 24 31 40 102 67 83 111 127 129 132 59 100 7 8 9 10 41 49 35 37 92 57 54 101 77 27 113 110 141 124 6 5 4 3 2 68 94 28 103 104 1 114 26 76 87 46 95 18 17 16 15 50 29 134 75 142 22 25 136 56 98 109 58 30 45 80 12 13 14 34 86 90 21 117 119 107 
