Data file name : 
input/8_18_input_matrix.txt
Solution of value 23012 found at iter. 1
Solution of value 21784 found at iter. 2
Solution of value 20816 found at iter. 3
Solution of value 20034 found at iter. 4
Solution of value 19384 found at iter. 5
Solution of value 18764 found at iter. 6
Solution of value 18152 found at iter. 7
Solution of value 17560 found at iter. 8
Solution of value 17056 found at iter. 9
Solution of value 16568 found at iter. 10
Solution of value 16092 found at iter. 11
Solution of value 15526 found at iter. 12
Solution of value 15070 found at iter. 13
Solution of value 14686 found at iter. 14
Solution of value 14330 found at iter. 15
Solution of value 13982 found at iter. 16
Solution of value 13640 found at iter. 17
Solution of value 13318 found at iter. 18
Solution of value 13012 found at iter. 19
Solution of value 12744 found at iter. 20
Solution of value 12484 found at iter. 21
Solution of value 12230 found at iter. 22
Solution of value 11978 found at iter. 23
Solution of value 11738 found at iter. 24
Solution of value 11498 found at iter. 25
Solution of value 11274 found at iter. 26
Solution of value 10998 found at iter. 27
Solution of value 10782 found at iter. 28
Solution of value 10578 found at iter. 29
Solution of value 10376 found at iter. 30
Solution of value 10184 found at iter. 31
Solution of value 10008 found at iter. 32
Solution of value 9838 found at iter. 33
Solution of value 9674 found at iter. 34
Solution of value 9522 found at iter. 35
Solution of value 9372 found at iter. 36
Solution of value 9222 found at iter. 37
Solution of value 9082 found at iter. 38
Solution of value 8946 found at iter. 39
Solution of value 8814 found at iter. 40
Solution of value 8686 found at iter. 41
Solution of value 8566 found at iter. 42
Solution of value 8458 found at iter. 43
Solution of value 8366 found at iter. 44
Solution of value 8274 found at iter. 45
Solution of value 8186 found at iter. 46
Solution of value 8104 found at iter. 47
Solution of value 8024 found at iter. 48
Solution of value 7948 found at iter. 49
Solution of value 7874 found at iter. 50
Solution of value 7802 found at iter. 51
Solution of value 7732 found at iter. 52
Solution of value 7664 found at iter. 53
Solution of value 7604 found at iter. 54
Solution of value 7548 found at iter. 55
Solution of value 7462 found at iter. 56
Solution of value 7378 found at iter. 57
Solution of value 7312 found at iter. 58
Solution of value 7254 found at iter. 59
Solution of value 7202 found at iter. 60
Solution of value 7146 found at iter. 61
Solution of value 7082 found at iter. 62
Solution of value 7030 found at iter. 63
Solution of value 6978 found at iter. 64
Solution of value 6926 found at iter. 65
Solution of value 6876 found at iter. 66
Solution of value 6826 found at iter. 67
Solution of value 6778 found at iter. 68
Solution of value 6734 found at iter. 69
Solution of value 6690 found at iter. 70
Solution of value 6648 found at iter. 71
Solution of value 6608 found at iter. 72
Solution of value 6560 found at iter. 73
Solution of value 6520 found at iter. 74
Solution of value 6482 found at iter. 75
Solution of value 6446 found at iter. 76
Solution of value 6410 found at iter. 77
Solution of value 6378 found at iter. 78
Solution of value 6348 found at iter. 79
Solution of value 6320 found at iter. 80
Solution of value 6292 found at iter. 81
Solution of value 6264 found at iter. 82
Solution of value 6236 found at iter. 83
Solution of value 6208 found at iter. 84
Solution of value 6182 found at iter. 85
Solution of value 6158 found at iter. 86
Solution of value 6134 found at iter. 87
Solution of value 6112 found at iter. 88
Solution of value 6092 found at iter. 89
Solution of value 6072 found at iter. 90
Solution of value 6050 found at iter. 91
Solution of value 6034 found at iter. 92
Solution of value 6022 found at iter. 93
Solution of value 5958 found at iter. 94
Solution of value 5946 found at iter. 95
Solution of value 5926 found at iter. 96
Solution of value 5916 found at iter. 97
Solution of value 5906 found at iter. 98
Solution of value 5896 found at iter. 99
Solution of value 5888 found at iter. 100
Solution of value 5836 found at iter. 101
Solution of value 5800 found at iter. 102
Solution of value 5766 found at iter. 103
Solution of value 5746 found at iter. 104
Solution of value 5734 found at iter. 105
Solution of value 5724 found at iter. 106
Solution of value 5716 found at iter. 107
Solution of value 5696 found at iter. 108
Solution of value 5688 found at iter. 109
Solution of value 5680 found at iter. 110
Solution of value 5672 found at iter. 111
Solution of value 5664 found at iter. 112
Solution of value 5652 found at iter. 113
Solution of value 5644 found at iter. 114
Solution of value 5638 found at iter. 115
Solution of value 5632 found at iter. 116
Solution of value 5618 found at iter. 117
Solution of value 5612 found at iter. 118
Solution of value 5604 found at iter. 119
Solution of value 5598 found at iter. 120
Solution of value 5594 found at iter. 121
Solution of value 5584 found at iter. 122
Solution of value 5576 found at iter. 123
Solution of value 5560 found at iter. 124
Solution of value 5556 found at iter. 125
Solution of value 5552 found at iter. 126
Solution of value 5548 found at iter. 127
Solution of value 5546 found at iter. 128
Solution of value 5486 found at iter. 129
Solution of value 5484 found at iter. 130
Solution of value 5482 found at iter. 131
Solution of value 5466 found at iter. 132
Solution of value 5448 found at iter. 134
Solution of value 5444 found at iter. 136
Solution of value 5426 found at iter. 201
Solution of value 5418 found at iter. 252
Solution of value 5406 found at iter. 253
Solution of value 5402 found at iter. 268
Solution of value 5392 found at iter. 275
Solution of value 5354 found at iter. 276
Solution of value 5350 found at iter. 277
Solution of value 5346 found at iter. 278
Solution of value 5344 found at iter. 279
Solution of value 5330 found at iter. 311
Solution of value 5328 found at iter. 312
Solution of value 5300 found at iter. 359
Solution of value 5292 found at iter. 360
Solution of value 5262 found at iter. 433
Solution of value 5260 found at iter. 516
Solution of value 5254 found at iter. 558
Solution of value 5248 found at iter. 559
Solution of value 5240 found at iter. 560
Solution of value 5216 found at iter. 561
Solution of value 5210 found at iter. 562
Solution of value 5206 found at iter. 644
Solution of value 5200 found at iter. 787
Solution of value 5196 found at iter. 1203
Solution of value 5186 found at iter. 1204
Solution of value 5184 found at iter. 7192
Solution of value 5152 found at iter. 7193
Solution of value 5150 found at iter. 7194
Solution of value 5130 found at iter. 30846
Solution of value 5090 found at iter. 30847
Solution of value 5050 found at iter. 30848
Solution of value 5012 found at iter. 30849
Solution of value 4978 found at iter. 30850
Solution of value 4950 found at iter. 30851
Solution of value 4922 found at iter. 30852
Solution of value 4894 found at iter. 30853
Solution of value 4870 found at iter. 30854
Solution of value 4846 found at iter. 30855
Solution of value 4822 found at iter. 30856
Solution of value 4798 found at iter. 30857
Solution of value 4776 found at iter. 30858
Solution of value 4756 found at iter. 30859
Solution of value 4736 found at iter. 30860
Solution of value 4700 found at iter. 30861
Solution of value 4682 found at iter. 30862
Solution of value 4664 found at iter. 30863
Solution of value 4646 found at iter. 30864
Solution of value 4628 found at iter. 30865
Solution of value 4592 found at iter. 30866
Solution of value 4576 found at iter. 30867
Solution of value 4560 found at iter. 30868
Solution of value 4544 found at iter. 30869
Solution of value 4520 found at iter. 30870
Solution of value 4504 found at iter. 30871
Solution of value 4490 found at iter. 30872
Solution of value 4476 found at iter. 30873
Solution of value 4442 found at iter. 30874
Solution of value 4416 found at iter. 30875
Solution of value 4404 found at iter. 30876
Solution of value 4392 found at iter. 30877
Solution of value 4380 found at iter. 30878
Solution of value 4370 found at iter. 30879
Solution of value 4350 found at iter. 30880
Solution of value 4342 found at iter. 30881
Solution of value 4320 found at iter. 30882
Solution of value 4312 found at iter. 30883
Solution of value 4306 found at iter. 30884
Solution of value 4300 found at iter. 30885
Solution of value 4294 found at iter. 30886
Solution of value 4290 found at iter. 30887
Solution of value 4286 found at iter. 30888
Solution of value 4282 found at iter. 30889
Solution of value 4278 found at iter. 30890
Solution of value 4276 found at iter. 30892
Solution of value 4266 found at iter. 33968
Solution of value 4242 found at iter. 33969
Solution of value 4226 found at iter. 33970
Solution of value 4206 found at iter. 33971
Solution of value 4196 found at iter. 33972
Solution of value 4186 found at iter. 33973
Solution of value 4176 found at iter. 33974
Solution of value 4168 found at iter. 33975
Solution of value 4160 found at iter. 33976
Solution of value 4144 found at iter. 33977
Solution of value 4136 found at iter. 33978
Solution of value 4128 found at iter. 33979
Solution of value 4120 found at iter. 36735
Solution of value 4102 found at iter. 36736
Solution of value 4090 found at iter. 36737
Solution of value 4072 found at iter. 36738
Solution of value 4060 found at iter. 36739
Solution of value 4050 found at iter. 36740
Solution of value 4040 found at iter. 36741
Solution of value 4030 found at iter. 36742
Solution of value 4022 found at iter. 36743
Solution of value 4014 found at iter. 36744
Solution of value 4008 found at iter. 36745
Solution of value 4004 found at iter. 36746
Solution of value 3996 found at iter. 36747
Solution of value 3992 found at iter. 36748
Solution of value 3980 found at iter. 36749
Solution of value 3976 found at iter. 36750
Solution of value 3964 found at iter. 36751
Solution of value 3954 found at iter. 36752
Solution of value 3950 found at iter. 36753
Solution of value 3942 found at iter. 36754
Solution of value 3934 found at iter. 36755
Solution of value 3922 found at iter. 36756
Solution of value 3920 found at iter. 36757
Solution of value 3916 found at iter. 38345
Solution of value 3896 found at iter. 38346
Solution of value 3884 found at iter. 38347
Solution of value 3880 found at iter. 38348
Solution of value 3864 found at iter. 38349
Solution of value 3860 found at iter. 38350
Solution of value 3856 found at iter. 38351
Solution of value 3854 found at iter. 38352
Solution of value 3852 found at iter. 38353
Solution of value 3850 found at iter. 38354
Solution of value 3840 found at iter. 38355
Solution of value 3838 found at iter. 38356
Solution of value 3836 found at iter. 38368
Solution of value 3834 found at iter. 38369
Solution of value 3832 found at iter. 38379
Solution of value 3826 found at iter. 38386
Solution of value 3822 found at iter. 38387
Solution of value 3820 found at iter. 38388
Solution of value 3802 found at iter. 38529
Solution of value 3784 found at iter. 38530
Solution of value 3782 found at iter. 38531
Solution of value 3780 found at iter. 297712
Solution of value 3768 found at iter. 297715
Solution found by tabu search :
137 104 132 129 15 114 126 133 119 97 80 55 59 39 30 69 98 138 110 96 50 113 10 136 43 13 130 115 79 20 60 7 23 102 95 52 82 62 112 107 86 68 76 9 18 35 116 124 19 65 27 11 47 22 4 45 94 128 121 53 57 32 63 34 123 71 111 88 99 66 105 25 131 120 64 142 122 44 1 51 106 77 16 2 100 28 144 6 3 74 108 61 26 143 83 29 91 127 54 90 49 14 117 56 73 31 33 93 5 37 46 17 85 84 40 12 48 101 81 41 89 70 75 135 78 72 58 118 140 67 103 141 87 92 8 139 134 24 38 42 125 36 109 21 
