Data file name : 
input/4_9_input_matrix.txt
Solution of value 2078 found at iter. 1
Solution of value 1764 found at iter. 2
Solution of value 1586 found at iter. 3
Solution of value 1472 found at iter. 4
Solution of value 1376 found at iter. 5
Solution of value 1308 found at iter. 6
Solution of value 1262 found at iter. 7
Solution of value 1218 found at iter. 8
Solution of value 1170 found at iter. 9
Solution of value 1110 found at iter. 10
Solution of value 1062 found at iter. 11
Solution of value 1022 found at iter. 12
Solution of value 994 found at iter. 13
Solution of value 968 found at iter. 14
Solution of value 942 found at iter. 15
Solution of value 922 found at iter. 16
Solution of value 910 found at iter. 17
Solution of value 894 found at iter. 18
Solution of value 886 found at iter. 19
Solution of value 878 found at iter. 20
Solution of value 864 found at iter. 21
Solution of value 860 found at iter. 22
Solution of value 856 found at iter. 23
Solution of value 854 found at iter. 24
Solution of value 852 found at iter. 25
Solution of value 850 found at iter. 26
Solution of value 844 found at iter. 27
Solution of value 814 found at iter. 146
Solution of value 802 found at iter. 147
Solution of value 798 found at iter. 148
Solution of value 790 found at iter. 153
Solution of value 786 found at iter. 654
Solution of value 778 found at iter. 657
Solution of value 770 found at iter. 658
Solution of value 766 found at iter. 665
Solution of value 762 found at iter. 686
Solution of value 738 found at iter. 687
Solution of value 734 found at iter. 688
Solution of value 732 found at iter. 875
Solution of value 730 found at iter. 926
Solution of value 728 found at iter. 1900
Solution of value 724 found at iter. 1910
Solution of value 720 found at iter. 1911
Solution of value 686 found at iter. 1957
Solution of value 684 found at iter. 1958
Solution of value 680 found at iter. 1961
Solution of value 668 found at iter. 2068
Solution of value 664 found at iter. 2069
Solution of value 662 found at iter. 2817
Solution of value 660 found at iter. 3432
Solution of value 654 found at iter. 3433
Solution of value 652 found at iter. 3434
Solution of value 650 found at iter. 3622
Solution of value 648 found at iter. 3623
Solution of value 644 found at iter. 9099
Solution of value 642 found at iter. 10675
Solution of value 634 found at iter. 10706
Solution of value 630 found at iter. 10707
Solution of value 628 found at iter. 10736
Solution of value 626 found at iter. 11284
Solution of value 616 found at iter. 11354
Solution of value 602 found at iter. 67360
Solution of value 592 found at iter. 322860
Solution of value 590 found at iter. 346588
Solution of value 588 found at iter. 988962
Solution found by tabu search :
6 34 2 21 20 9 32 15 22 29 8 30 10 13 7 17 11 14 36 12 31 18 25 35 27 4 33 3 26 23 1 24 5 28 16 19 
